{
    "variants": {
		"facing=north": { "model": "futurepack:block/advanced_boardcomputer_g", "y":0 },
        "facing=east": { "model": "futurepack:block/advanced_boardcomputer_g", "y":90 },
        "facing=south": { "model": "futurepack:block/advanced_boardcomputer_g", "y":180 },
        "facing=west": { "model": "futurepack:block/advanced_boardcomputer_g", "y":270 }
    }
}
