{
    "variants": {
        "zcon=none": { "model": "futurepack:block/tank_base"},
        "zcon=up": { "model": "futurepack:block/tank_up"},
        "zcon=down": { "model": "futurepack:block/tank_down"},
        "zcon=both": { "model": "futurepack:block/tank_both"}
        
    }
}
