{
    "variants": {
        "zcon=none": { "model": "futurepack:block/tank_mk2_base"},
        "zcon=up": { "model": "futurepack:block/tank_mk2_up"},
        "zcon=down": { "model": "futurepack:block/tank_mk2_down"},
        "zcon=both": { "model": "futurepack:block/tank_mk2_both"}
        
    }
}
