{
  "variants": {
    "age=0": {
      "model": "futurepack:block/hyticus_0"
    },
    "age=1": {
      "model": "futurepack:block/hyticus_1"
    },
    "age=2": {
      "model": "futurepack:block/hyticus_2"
    },
    "age=3": {
      "model": "futurepack:block/hyticus_3"
    }
  }
}