{
	"variants": 
	{
		"direction=true,shape=north_south":{"model":"futurepack:block/monorail_oneway_flat" ,"y": 0},
		"direction=true,shape=east_west":{"model":"futurepack:block/monorail_oneway_flat","y": 90},
		"direction=true,shape=ascending_east":{"model":"futurepack:block/monorail_oneway_raised_ne","y": 90},
		"direction=true,shape=ascending_west":{"model":"futurepack:block/monorail_oneway_raised_ne","y": 270},
		"direction=true,shape=ascending_north":{"model":"futurepack:block/monorail_oneway_raised_ne","y": 0},
		"direction=true,shape=ascending_south":{"model":"futurepack:block/monorail_oneway_raised_ne","y": 180},
		
		"direction=false,shape=north_south":{"model":"futurepack:block/monorail_oneway_flat" ,"y": 180},
		"direction=false,shape=east_west":{"model":"futurepack:block/monorail_oneway_flat","y": 270},
		"direction=false,shape=ascending_east":{"model":"futurepack:block/monorail_oneway_raised_sw","y": 270},
		"direction=false,shape=ascending_west":{"model":"futurepack:block/monorail_oneway_raised_sw","y": 90},
		"direction=false,shape=ascending_north":{"model":"futurepack:block/monorail_oneway_raised_sw","y": 180},
		"direction=false,shape=ascending_south":{"model":"futurepack:block/monorail_oneway_raised_sw","y": 0}
	}
}