{
  "variants": {
    "powered=true,facing=down": {
      "model": "futurepack:block/thruster_maneuver_white_blue_model",
      "x": 90
    },
    "powered=true,facing=up": {
      "model": "futurepack:block/thruster_maneuver_white_blue_model",
      "x": 270
    },
    "powered=true,facing=north": {
      "model": "futurepack:block/thruster_maneuver_white_blue_model"
    },
    "powered=true,facing=south": {
      "model": "futurepack:block/thruster_maneuver_white_blue_model",
      "y": 180
    },
    "powered=true,facing=west": {
      "model": "futurepack:block/thruster_maneuver_white_blue_model",
      "y": 270
    },
    "powered=true,facing=east": {
      "model": "futurepack:block/thruster_maneuver_white_blue_model",
      "y": 90
    },
    "powered=false,facing=down": {
      "model": "futurepack:block/thruster_maneuver_white_blue_model_off",
      "x": 90
    },
    "powered=false,facing=up": {
      "model": "futurepack:block/thruster_maneuver_white_blue_model_off",
      "x": 270
    },
    "powered=false,facing=north": {
      "model": "futurepack:block/thruster_maneuver_white_blue_model_off"
    },
    "powered=false,facing=south": {
      "model": "futurepack:block/thruster_maneuver_white_blue_model_off",
      "y": 180
    },
    "powered=false,facing=west": {
      "model": "futurepack:block/thruster_maneuver_white_blue_model_off",
      "y": 270
    },
    "powered=false,facing=east": {
      "model": "futurepack:block/thruster_maneuver_white_blue_model_off",
      "y": 90
    }
  }
}