{
    "parent": "block/half_slab",
    "textures": {
        "bottom": "futurepack:blocks/color_iron_10",
        "top": "futurepack:blocks/color_iron_10",
        "side": "futurepack:blocks/color_iron_10"
    }
}
