{
    "parent": "block/upper_slab",
    "textures": {
        "bottom": "futurepack:blocks/gitter_9",
        "top": "futurepack:blocks/gitter_9",
        "side": "futurepack:blocks/gitter_9"
    }
}
