{
	"credit": "Made with Blockbench",
	"texture_size": [128, 128],
	"textures": {
		"0": "Radar/RadarTurm"
	},
	"elements": [
		{
			"name": "Baseplate",
			"from": [0, 0, 0],
			"to": [16, 6, 16],
			"rotation": {"angle": 0, "axis": "y", "origin": [8, 0, 8]},
			"faces": {
				"north": {"uv": [2, 2, 4, 2.75], "texture": "#0"},
				"east": {"uv": [0, 2, 2, 2.75], "texture": "#0"},
				"south": {"uv": [6, 2, 8, 2.75], "texture": "#0"},
				"west": {"uv": [4, 2, 6, 2.75], "texture": "#0"},
				"up": {"uv": [4, 2, 2, 0], "texture": "#0"},
				"down": {"uv": [6, 0, 4, 2], "texture": "#0"}
			}
		},
		{
			"name": "Sockel",
			"from": [4, 6, 4],
			"to": [12, 7, 12],
			"rotation": {"angle": 0, "axis": "y", "origin": [8, 0, 8]},
			"faces": {
				"north": {"uv": [7.125, 1, 8.125, 1.125], "texture": "#0"},
				"east": {"uv": [6.125, 1, 7.125, 1.125], "texture": "#0"},
				"south": {"uv": [9.125, 1, 10.125, 1.125], "texture": "#0"},
				"west": {"uv": [8.125, 1, 9.125, 1.125], "texture": "#0"},
				"up": {"uv": [8.125, 1, 7.125, 0], "texture": "#0"},
				"down": {"uv": [9.125, 0, 8.125, 1], "texture": "#0"}
			}
		},
		{
			"name": "RotSockel",
			"from": [5.5, 7, 5.5],
			"to": [10.5, 9, 10.5],
			"rotation": {"angle": 0, "axis": "y", "origin": [8, 1, 8]},
			"faces": {
				"north": {"uv": [8.625, 2.5, 9.25, 2.75], "texture": "#0"},
				"east": {"uv": [8, 2.5, 8.625, 2.75], "texture": "#0"},
				"south": {"uv": [9.875, 2.5, 10.5, 2.75], "texture": "#0"},
				"west": {"uv": [9.25, 2.5, 9.875, 2.75], "texture": "#0"},
				"up": {"uv": [9.25, 2.5, 8.625, 1.875], "texture": "#0"},
				"down": {"uv": [9.875, 1.875, 9.25, 2.5], "texture": "#0"}
			}
		},
		{
			"name": "SpiegelArm",
			"from": [6.5, 8, 4],
			"to": [9.5, 10, 14],
			"rotation": {"angle": 0, "axis": "y", "origin": [8, 7, 8]},
			"faces": {
				"north": {"uv": [1.25, 4.125, 1.625, 4.375], "texture": "#0"},
				"east": {"uv": [0, 4.125, 1.25, 4.375], "texture": "#0"},
				"south": {"uv": [2.875, 4.125, 3.25, 4.375], "texture": "#0"},
				"west": {"uv": [1.625, 4.125, 2.875, 4.375], "texture": "#0"},
				"up": {"uv": [1.625, 4.125, 1.25, 2.875], "texture": "#0"},
				"down": {"uv": [2, 2.875, 1.625, 4.125], "texture": "#0"}
			}
		},
		{
			"name": "SpiegelMitte",
			"from": [4, 9, 13.5],
			"to": [12, 15, 14.5],
			"rotation": {"angle": 0, "axis": "y", "origin": [8, 7, 8]},
			"faces": {
				"north": {"uv": [2.25, 3.125, 3.25, 3.875], "texture": "#0"},
				"east": {"uv": [2.125, 3.125, 2.25, 3.875], "texture": "#0"},
				"south": {"uv": [3.375, 3.125, 4.375, 3.875], "texture": "#0"},
				"west": {"uv": [3.25, 3.125, 3.375, 3.875], "texture": "#0"},
				"up": {"uv": [3.25, 3.125, 2.25, 3], "texture": "#0"},
				"down": {"uv": [4.25, 3, 3.25, 3.125], "texture": "#0"}
			}
		},
		{
			"name": "SpiegelWest",
			"from": [4, 9.5, 14.5],
			"to": [10, 14.5, 15.5],
			"rotation": {"angle": -45, "axis": "y", "origin": [8, 7, 8]},
			"faces": {
				"north": {"uv": [4.625, 3.25, 5.375, 3.875], "texture": "#0"},
				"east": {"uv": [4.5, 3.25, 4.625, 3.875], "texture": "#0"},
				"south": {"uv": [5.5, 3.25, 6.25, 3.875], "texture": "#0"},
				"west": {"uv": [5.375, 3.25, 5.5, 3.875], "texture": "#0"},
				"up": {"uv": [5.375, 3.25, 4.625, 3.125], "texture": "#0"},
				"down": {"uv": [6.125, 3.125, 5.375, 3.25], "texture": "#0"}
			}
		},
		{
			"name": "SpiegelOst",
			"from": [6, 9.5, 14.5],
			"to": [12, 14.5, 15.5],
			"rotation": {"angle": 45, "axis": "y", "origin": [8, 7, 8]},
			"faces": {
				"north": {"uv": [6.5, 3.25, 7.25, 3.875], "texture": "#0"},
				"east": {"uv": [6.375, 3.25, 6.5, 3.875], "texture": "#0"},
				"south": {"uv": [7.375, 3.25, 8.125, 3.875], "texture": "#0"},
				"west": {"uv": [7.25, 3.25, 7.375, 3.875], "texture": "#0"},
				"up": {"uv": [7.25, 3.25, 6.5, 3.125], "texture": "#0"},
				"down": {"uv": [8, 3.125, 7.25, 3.25], "texture": "#0"}
			}
		},
		{
			"name": "EmpfArm",
			"from": [7, 8, 1],
			"to": [9, 10, 5],
			"rotation": {"angle": 45, "axis": "x", "origin": [8, 9.4, 4.5]},
			"faces": {
				"north": {"uv": [0.5, 1.375, 0.75, 1.625], "texture": "#0"},
				"east": {"uv": [0, 1.375, 0.5, 1.625], "texture": "#0"},
				"south": {"uv": [1.25, 1.375, 1.5, 1.625], "texture": "#0"},
				"west": {"uv": [0.75, 1.375, 1.25, 1.625], "texture": "#0"},
				"up": {"uv": [0.75, 1.375, 0.5, 0.875], "texture": "#0"},
				"down": {"uv": [1, 0.875, 0.75, 1.375], "texture": "#0"}
			}
		},
		{
			"name": "LMBSockel",
			"from": [6.5, 10.4, 0.5],
			"to": [9.5, 13.4, 3.5],
			"rotation": {"angle": 0, "axis": "y", "origin": [8, 11.4, 1.5]},
			"faces": {
				"north": {"uv": [0.375, 0.375, 0.75, 0.75], "texture": "#0"},
				"east": {"uv": [0, 0.375, 0.375, 0.75], "texture": "#0"},
				"south": {"uv": [1.125, 0.375, 1.5, 0.75], "texture": "#0"},
				"west": {"uv": [0.75, 0.375, 1.125, 0.75], "texture": "#0"},
				"up": {"uv": [0.75, 0.375, 0.375, 0], "texture": "#0"},
				"down": {"uv": [1.125, 0, 0.75, 0.375], "texture": "#0"}
			}
		},
		{
			"name": "LMB",
			"from": [7, 11, 3.5],
			"to": [9, 13, 5.5],
			"rotation": {"angle": 0, "axis": "y", "origin": [8, 11.4, 1.5]},
			"faces": {
				"north": {"uv": [0.25, 3.375, 0.5, 3.625], "texture": "#0"},
				"east": {"uv": [0, 3.375, 0.25, 3.625], "texture": "#0"},
				"south": {"uv": [0.75, 3.375, 1, 3.625], "texture": "#0"},
				"west": {"uv": [0.5, 3.375, 0.75, 3.625], "texture": "#0"},
				"up": {"uv": [0.5, 3.375, 0.25, 3.125], "texture": "#0"},
				"down": {"uv": [0.75, 3.125, 0.5, 3.375], "texture": "#0"}
			}
		}
	],
	"groups": [
		{
			"name": "Radar",
			"origin": [0, 0, 0],
			"color": 0,
			"children": [0, 1,
				{
					"name": "Spiegel",
					"origin": [0, 7, 0],
					"color": 0,
					"children": [2, 3, 4,
						{
							"name": "boneWest",
							"origin": [-4, 12, 6],
							"color": 0,
							"children": [5]
						},
						{
							"name": "boneOst",
							"origin": [4, 12, 6],
							"color": 0,
							"children": [6]
						},
						{
							"name": "boneParabolEmpf",
							"origin": [0, 9, -4],
							"color": 0,
							"children": [7,
								{
									"name": "boneLMB",
									"origin": [0, 11.4, -6.5],
									"color": 0,
									"children": [8, 9]
								}
							]
						}
					]
				}
			]
		}
	]
}