{
  "display": {
    "icon": {
      "item": "futurepack:crystal_bioterium"
    },
    "title": {
      "translate": "advancements.futurepack.crys_bioterium.title"
    },
    "description": {
      "translate": "advancements.futurepack.crys_bioterium.description"
    }
  },
  "parent": "futurepack:tyros",
  "criteria": {
    "bioterium": {
      "trigger": "minecraft:inventory_changed",
      "conditions": {
        "items": [
          {
            "items": [ "futurepack:crystal_bioterium" ]
          }
        ]
      }
    }
  },
  "requirements": [
  	["bioterium"]
  ]
}