{
  "display": {
    "icon": {
      "item": "futurepack:sand_m"
    },
    "title": {
      "translate": "advancements.futurepack.menelaus.title"
    },
    "description": {
      "translate": "advancements.futurepack.menelaus.description"
    }
  },
  "parent": "futurepack:the_impalpable",
  "criteria": {
    "on_menelaus": {
      "trigger": "minecraft:changed_dimension",
      "conditions": {
        "to": "futurepack:menelaus"
      }
    }
  },
  "requirements": [
  	["on_menelaus"]
  ]
}