{
  "display": {
    "icon": {
      "item": "futurepack:industrial_furnace"
    },
    "title": {
      "translate": "advancements.futurepack.need_bucket.title"
    },
    "description": {
      "translate": "advancements.futurepack.need_bucket.description"
    }
  },
  "parent": "futurepack:labor",
  "criteria": {
    "industrie_ofen": {
      "trigger": "minecraft:inventory_changed",
      "conditions": {
        "items": [
          {
            "items": [ "futurepack:industrial_furnace" ]
          }
        ]
      }
    }
  },
  "requirements": [
  	["industrie_ofen"]
  ]
}