{
  "logical_height": 256,
  "infiniburn": "#minecraft:infiniburn_overworld",
  "effects": "futurepack:tyros",
  "ambient_light": 0.0,
  "respawn_anchor_works": false,
  "has_raids": false,
  "min_y": 0,
  "height": 256,
  "natural": true,
  "coordinate_scale": 1.0,
  "piglin_safe": false,
  "bed_works": true,
  "has_skylight": true,
  "has_ceiling": false,
  "ultrawarm": false
}