{
  "type": "futurepack:research_shaped",
  "group": "futurepack",
  "pattern": [
    "ASP",
    "NC ",
    "ASP"
  ],
  "key": {
    "A": {
      "tag": "forge:ingots/aluminum"
    },
    "C": {
      "item": "futurepack:chip_logic"
    },
    "S": {
      "item": "futurepack:ingot_silicon"
    },
    "P": {
      "item": "futurepack:parts_neon"
    },
    "N": {
      "item": "futurepack:coil_neon"
    }
  },
  "result": {
    "item": "futurepack:analyzer"
  }
}