{
  "type": "futurepack:research_shaped",
  "group": "futurepack",
  "pattern": [
    "III",
    "SPN",
    "IOI"
  ],
  "key": {
    "I": {
      "tag": "forge:ingots/iron"
    },
    "N": {
      "tag": "forge:ingots/neon"
    },
    "P": {
      "item": "minecraft:piston"
    },
    "O": {
      "item": "minecraft:furnace"
    },
    "S": {
      "item": "futurepack:coil_copper"
    }
  },
  "result": {
    "item": "futurepack:t0_generator"
  }
}