{
  "type": "futurepack:research_shaped",
  "group": "futurepack",
  "pattern": [
    "I I",
    " P ",
    "I I"
  ],
  "key": {
    "I": {
      "tag": "forge:ingots/iron"
    },
    "P": {
      "item": "futurepack:parts_iron"
    }
  },
  "result": {
    "item": "futurepack:coil_core",
    "count": 16
  }
}