{
  "type": "futurepack:research_shaped",
  "group": "futurepack",
  "pattern": [
    " C ",
    "CMC",
    " C "
  ],
  "key": {
    "C": {
      "item": "futurepack:composite_metal"
    },
    "M": {
      "item": "minecraft:magma_block"
    }
  },
  "result": {
    "item": "futurepack:deco_armee",
    "count": 4
  }
}