{
  "type": "futurepack:research_shaped",
  "group": "futurepack",
  "pattern": [
    "SCS",
    "SCS",
    "ECE"
  ],
  "key": {
    "S": {
      "item": "futurepack:coil_copper"
    },
    "C": {
      "tag": "forge:ingots/copper"
    },
    "E": {
      "tag": "forge:ingots/iron"
    }
  },
  "result": {
    "item": "futurepack:extern_cooler"
  }
}