{
  "type": "minecraft:crafting_shaped",
  "group": "futurepack",
  "pattern": [
    " B ",
    "SSS",
    " B "
  ],
  "key": {
    "B": {
      "item": "minecraft:blaze_powder"
    },
    "S": {
      "item": "minecraft:sugar"
    }
  },
  "result": {
    "item": "minecraft:gunpowder",
    "count": 4
  }
}