{
  "type": "futurepack:maschin_shaped",
  "group": "futurepack",
  "pattern": [
    "IOI",
    "DFE",
    "CMC"
  ],
  "key": {
    "I": {
      "item": "futurepack:coil_iron"
    },
    "O": {
      "item": "futurepack:industrial_furnace"
    },
    "D": {
      "item": "futurepack:chip_damage_control"
    },
    "F": {
      "item": "futurepack:color_iron_black"
    },
    "E": {
      "item": "futurepack:extern_cooler"
    },
    "C": {
      "item": "futurepack:composite_metal"
    },
    "M": {
      "item": "futurepack:maschineboard"
    }
  },
  "result": {
    "item": "futurepack:industrial_neon_furnace_black"
  }
}