{
  "type": "futurepack:research_shaped",
  "group": "futurepack",
  "pattern": [
    "EFE",
    "MAM",
    "PFP"
  ],
  "key": {
    "E": {
      "item": "futurepack:erse"
    },
    "F": {
      "item": "minecraft:cooked_beef"
    },
    "M": {
      "item": "minecraft:cooked_chicken"
    },
    "A": {
      "item": "futurepack:astrofood_empty"
    },
    "P": {
      "item": "minecraft:brown_mushroom"
    }
  },
  "result": {
    "item": "futurepack:astrofood1"
  }
}