{
  "type": "minecraft:crafting_shaped",
  "group": "futurepack",
  "pattern": [
    "B"
  ],
  "key": {
    "B": {
      "item": "futurepack:wakurium_brick"
    }
  },
  "result": {
    "item": "futurepack:ingot_wakurium",
    "count": 4
  }
}