{
  "type": "futurepack:research_shaped",
  "group": "futurepack",
  "pattern": [
    " C ",
    "TNT",
    "TST"
  ],
  "key": {
    "C": {
      "item": "futurepack:parts_copper"
    },
    "T": {
      "tag": "forge:ingots/neon"
    },
    "N": {
      "tag": "forge:ingots/gold"
    },
    "S": {
      "item": "futurepack:coil_gold"
    }
  },
  "result": {
    "item": "futurepack:battery_neon",
    "nbt": {
      "neon": {
        "maxNE": 4000,
        "ne": 0
      }
    }
  }
}