{
  "type": "futurepack:research_shaped",
  "group": "futurepack",
  "pattern": [
    "MMM"
  ],
  "key": {
    "M": {
      "item": "futurepack:planks_palirie"
    }
  },
  "result": {
    "item": "futurepack:planks_palirie_slab",
    "count": 6
  }
}