{
  "type": "futurepack:research_shaped",
  "group": "futurepack",
  "pattern": [
    "MSM",
    "MSM"
  ],
  "key": {
    "M": {
      "item": "futurepack:planks_mushroom"
    },
    "S": {
    	"tag": "forge:rods/wooden"
    }
  },
  "result": {
    "item": "futurepack:planks_mushroom_fence",
    "count": 3
  }
}