{
  "type": "minecraft:crafting_shapeless",
  "group": "futurepack",
  "ingredients": [
    {
      "item": "futurepack:log_palirie"
    }
  ],
  "result": {
    "item": "futurepack:planks_palirie",
    "count": 4
  }
}