{
  "type": "futurepack:maschin_shaped",
  "group": "futurepack",
  "pattern": [
    "IOI",
    "NFN",
    "CMC"
  ],
  "key": {
    "M": {
      "item": "futurepack:maschineboard"
    },
    "C": {
      "item": "futurepack:composite_metal"
    },
    "I": {
      "tag": "forge:rods/iron"
    },
    "O": {
      "item": "minecraft:furnace"
    },
    "N": {
      "tag": "forge:ingots/zinc"
    },
    "F": {
      "item": "futurepack:color_iron_light_gray"
    }
  },
  "result": {
    "item": "futurepack:infusion_generator_gray"
  }
}