{
  "type": "futurepack:research_shaped",
  "group": "futurepack",
  "pattern": [
    " K ",
    "SCS",
    " B "
  ],
  "key": {
    "S": {
      "item": "futurepack:ingot_silicon"
    },
    "K": {
      "tag": "forge:gems/glowtite"
    },
    "C": {
      "item": "futurepack:core_tct"
    },
    "B": {
      "item": "futurepack:energy_cell"
    }
  },
  "result": {
    "item": "futurepack:dungeon_key_1"
  }
}