{
  "type": "futurepack:maschin_shaped",
  "group": "futurepack",
  "pattern": [
    "CGC",
    "KLK",
    "QRQ"
  ],
  "key": {
    "Q": {
      "item": "futurepack:parts_quartz"
    },
    "G": {
      "item": "futurepack:parts_gold"
    },
    "R": {
      "tag": "futurepack:rams"
    },
    "K": {
      "item": "futurepack:coil_copper"
    },
    "C": {
      "tag": "futurepack:cores"
    },
    "L": {
      "tag": "futurepack:chips"
    }
  },
  "result": {
    "item": "futurepack:double_maschineboard"
  }
}