{
    "variants": {
        "variant=stone":                { "model": "futurepack:stone_stone_m" },
        "variant=cobblestone":          { "model": "futurepack:stone_cobble_m" },
        "variant=brick":                { "model": "futurepack:stone_brick_m" },
        "variant=cracked_brick":        { "model": "futurepack:stone_cracked_m" },
        "variant=sandstone":            { "model": "futurepack:stone_sand_m" },
        "variant=smooth_sandstone":     { "model": "futurepack:stone_smoothsand_m" },
        "variant=chiseled_sandstone":   { "model": "futurepack:stone_chiseledsand_m" },
        "variant=frozen_cobblestone":   { "model": "futurepack:stone_cobble_frozen"},
        "variant=frozen_stone":         { "model": "futurepack:stone_stone_frozen"}
    }
}
