{
    "type": "botanypots:crop",
    "conditions": [
        {
            "type": "forge:mod_loaded",
            "modid": "botanypots"
        }
    ],
    "seed": {
        "item": "futurepack:erse"
    },
    "categories": [
        "dirt"
    ],
    "growthTicks": 800,
    "display": {
        "block": "futurepack:erse",
        "properties": {
            "age": 7
        }
    },
    "results": [
        {
            "chance": 0.90,
            "output": {
                "item": "futurepack:erse"
            },
            "minRolls": 1,
            "maxRolls": 1
        },
        {
            "chance": 0.05,
            "output": {
                "item": "futurepack:erse"
            },
            "minRolls": 1,
            "maxRolls": 2
        }
    ]
}