{
  "animation": {
    "interpolate": true,
    "frames": [
      {
        "index": 0,
        "time": 4
      },
	  {
        "index": 1,
        "time": 4
      },
      {
        "index": 2,
        "time": 4
      },
      {
        "index": 3,
        "time": 4
      },
      {
        "index": 4,
        "time": 4
	  },
	  {
        "index": 5,
        "time": 4
      },
      {
        "index": 6,
        "time": 4
      },
      {
        "index": 7,
        "time": 4
      },
      {
        "index": 8,
        "time": 4
      },
      {
        "index": 9,
        "time": 4
      }
    ]
  }
}