{
    "pools": 
    [
		{
            "name":"story_crystal_science",
            "rolls": 1,
            "entries": 
            [
                {
                    "type": "item",
                    "name": "futurepack:dungeon_tablet",
                    "weight": 100,
                    "functions": 
                    [
                        {
                            "function": "minecraft:set_count",
                            "count": 1
                        },
                        {
                            "function": "minecraft:set_nbt",
                            "tag": "{research_path:\"futurepack:story\/crystal_science\"}"
                        }
                    ]
                }
            ]
        }
    ]
}