{
  "replace": false,
  "values": [
    "futurepack:color_iron_white",
    "futurepack:color_iron_orange",
    "futurepack:color_iron_magenta",
    "futurepack:color_iron_light_blue",
    "futurepack:color_iron_yellow",
    "futurepack:color_iron_lime",
    "futurepack:color_iron_pink",
    "futurepack:color_iron_gray",
    "futurepack:color_iron_light_gray",
    "futurepack:color_iron_cyan",
    "futurepack:color_iron_purple",
    "futurepack:color_iron_blue",
    "futurepack:color_iron_brown",
    "futurepack:color_iron_green",
    "futurepack:color_iron_red",
    "futurepack:color_iron_black",
    "futurepack:color_luftung_white",
    "futurepack:color_luftung_orange",
    "futurepack:color_luftung_magenta",
    "futurepack:color_luftung_light_blue",
    "futurepack:color_luftung_yellow",
    "futurepack:color_luftung_lime",
    "futurepack:color_luftung_pink",
    "futurepack:color_luftung_gray",
    "futurepack:color_luftung_light_gray",
    "futurepack:color_luftung_cyan",
    "futurepack:color_luftung_purple",
    "futurepack:color_luftung_blue",
    "futurepack:color_luftung_brown",
    "futurepack:color_luftung_green",
    "futurepack:color_luftung_red",
    "futurepack:color_luftung_black",
    "futurepack:color_glass_white",
    "futurepack:color_glass_orange",
    "futurepack:color_glass_magenta",
    "futurepack:color_glass_light_blue",
    "futurepack:color_glass_yellow",
    "futurepack:color_glass_lime",
    "futurepack:color_glass_pink",
    "futurepack:color_glass_gray",
    "futurepack:color_glass_light_gray",
    "futurepack:color_glass_cyan",
    "futurepack:color_glass_purple",
    "futurepack:color_glass_blue",
    "futurepack:color_glass_brown",
    "futurepack:color_glass_green",
    "futurepack:color_glass_red",
    "futurepack:color_glass_black",
    "futurepack:color_gitter_white",
    "futurepack:color_gitter_orange",
    "futurepack:color_gitter_magenta",
    "futurepack:color_gitter_light_blue",
    "futurepack:color_gitter_yellow",
    "futurepack:color_gitter_lime",
    "futurepack:color_gitter_pink",
    "futurepack:color_gitter_gray",
    "futurepack:color_gitter_light_gray",
    "futurepack:color_gitter_cyan",
    "futurepack:color_gitter_purple",
    "futurepack:color_gitter_blue",
    "futurepack:color_gitter_brown",
    "futurepack:color_gitter_green",
    "futurepack:color_gitter_red",
    "futurepack:color_gitter_black",
    "futurepack:color_iron_fence_white",
    "futurepack:color_iron_fence_orange",
    "futurepack:color_iron_fence_magenta",
    "futurepack:color_iron_fence_light_blue",
    "futurepack:color_iron_fence_yellow",
    "futurepack:color_iron_fence_lime",
    "futurepack:color_iron_fence_pink",
    "futurepack:color_iron_fence_gray",
    "futurepack:color_iron_fence_light_gray",
    "futurepack:color_iron_fence_cyan",
    "futurepack:color_iron_fence_purple",
    "futurepack:color_iron_fence_blue",
    "futurepack:color_iron_fence_brown",
    "futurepack:color_iron_fence_green",
    "futurepack:color_iron_fence_red",
    "futurepack:color_iron_fence_black",
    "futurepack:color_gitter_pane_white",
    "futurepack:color_gitter_pane_orange",
    "futurepack:color_gitter_pane_magenta",
    "futurepack:color_gitter_pane_light_blue",
    "futurepack:color_gitter_pane_yellow",
    "futurepack:color_gitter_pane_lime",
    "futurepack:color_gitter_pane_pink",
    "futurepack:color_gitter_pane_gray",
    "futurepack:color_gitter_pane_light_gray",
    "futurepack:color_gitter_pane_cyan",
    "futurepack:color_gitter_pane_purple",
    "futurepack:color_gitter_pane_blue",
    "futurepack:color_gitter_pane_brown",
    "futurepack:color_gitter_pane_green",
    "futurepack:color_gitter_pane_red",
    "futurepack:color_gitter_pane_black",
    "futurepack:color_iron_fence_gate_white",
    "futurepack:color_iron_fence_gate_orange",
    "futurepack:color_iron_fence_gate_magenta",
    "futurepack:color_iron_fence_gate_light_blue",
    "futurepack:color_iron_fence_gate_yellow",
    "futurepack:color_iron_fence_gate_lime",
    "futurepack:color_iron_fence_gate_pink",
    "futurepack:color_iron_fence_gate_gray",
    "futurepack:color_iron_fence_gate_light_gray",
    "futurepack:color_iron_fence_gate_cyan",
    "futurepack:color_iron_fence_gate_purple",
    "futurepack:color_iron_fence_gate_blue",
    "futurepack:color_iron_fence_gate_brown",
    "futurepack:color_iron_fence_gate_green",
    "futurepack:color_iron_fence_gate_red",
    "futurepack:color_iron_fence_gate_black",
    "futurepack:color_iron_stair_white",
    "futurepack:color_iron_stair_orange",
    "futurepack:color_iron_stair_magenta",
    "futurepack:color_iron_stair_light_blue",
    "futurepack:color_iron_stair_yellow",
    "futurepack:color_iron_stair_lime",
    "futurepack:color_iron_stair_pink",
    "futurepack:color_iron_stair_gray",
    "futurepack:color_iron_stair_light_gray",
    "futurepack:color_iron_stair_cyan",
    "futurepack:color_iron_stair_purple",
    "futurepack:color_iron_stair_blue",
    "futurepack:color_iron_stair_brown",
    "futurepack:color_iron_stair_green",
    "futurepack:color_iron_stair_red",
    "futurepack:color_iron_stair_black",
    "futurepack:color_gitter_stair_white",
    "futurepack:color_gitter_stair_orange",
    "futurepack:color_gitter_stair_magenta",
    "futurepack:color_gitter_stair_light_blue",
    "futurepack:color_gitter_stair_yellow",
    "futurepack:color_gitter_stair_lime",
    "futurepack:color_gitter_stair_pink",
    "futurepack:color_gitter_stair_gray",
    "futurepack:color_gitter_stair_light_gray",
    "futurepack:color_gitter_stair_cyan",
    "futurepack:color_gitter_stair_purple",
    "futurepack:color_gitter_stair_blue",
    "futurepack:color_gitter_stair_brown",
    "futurepack:color_gitter_stair_green",
    "futurepack:color_gitter_stair_red",
    "futurepack:color_gitter_stair_black",
    "futurepack:color_iron_slab_white",
    "futurepack:color_iron_slab_orange",
    "futurepack:color_iron_slab_magenta",
    "futurepack:color_iron_slab_light_blue",
    "futurepack:color_iron_slab_yellow",
    "futurepack:color_iron_slab_lime",
    "futurepack:color_iron_slab_pink",
    "futurepack:color_iron_slab_gray",
    "futurepack:color_iron_slab_light_gray",
    "futurepack:color_iron_slab_cyan",
    "futurepack:color_iron_slab_purple",
    "futurepack:color_iron_slab_blue",
    "futurepack:color_iron_slab_brown",
    "futurepack:color_iron_slab_green",
    "futurepack:color_iron_slab_red",
    "futurepack:color_iron_slab_black",
    "futurepack:color_gitter_slab_white",
    "futurepack:color_gitter_slab_orange",
    "futurepack:color_gitter_slab_magenta",
    "futurepack:color_gitter_slab_light_blue",
    "futurepack:color_gitter_slab_yellow",
    "futurepack:color_gitter_slab_lime",
    "futurepack:color_gitter_slab_pink",
    "futurepack:color_gitter_slab_gray",
    "futurepack:color_gitter_slab_light_gray",
    "futurepack:color_gitter_slab_cyan",
    "futurepack:color_gitter_slab_purple",
    "futurepack:color_gitter_slab_blue",
    "futurepack:color_gitter_slab_brown",
    "futurepack:color_gitter_slab_green",
    "futurepack:color_gitter_slab_red",
    "futurepack:color_gitter_slab_black",
    "futurepack:color_luftung_slab_white",
    "futurepack:color_luftung_slab_orange",
    "futurepack:color_luftung_slab_magenta",
    "futurepack:color_luftung_slab_light_blue",
    "futurepack:color_luftung_slab_yellow",
    "futurepack:color_luftung_slab_lime",
    "futurepack:color_luftung_slab_pink",
    "futurepack:color_luftung_slab_gray",
    "futurepack:color_luftung_slab_light_gray",
    "futurepack:color_luftung_slab_cyan",
    "futurepack:color_luftung_slab_purple",
    "futurepack:color_luftung_slab_blue",
    "futurepack:color_luftung_slab_brown",
    "futurepack:color_luftung_slab_green",
    "futurepack:color_luftung_slab_red",
    "futurepack:color_luftung_slab_black",
    "futurepack:color_plasma_lamp_white",
    "futurepack:color_plasma_lamp_orange",
    "futurepack:color_plasma_lamp_magenta",
    "futurepack:color_plasma_lamp_light_blue",
    "futurepack:color_plasma_lamp_yellow",
    "futurepack:color_plasma_lamp_lime",
    "futurepack:color_plasma_lamp_pink",
    "futurepack:color_plasma_lamp_gray",
    "futurepack:color_plasma_lamp_light_gray",
    "futurepack:color_plasma_lamp_cyan",
    "futurepack:color_plasma_lamp_purple",
    "futurepack:color_plasma_lamp_blue",
    "futurepack:color_plasma_lamp_brown",
    "futurepack:color_plasma_lamp_green",
    "futurepack:color_plasma_lamp_red",
    "futurepack:color_plasma_lamp_black",
    "futurepack:metal_block",
    "futurepack:metal_block_ventilation",
    "futurepack:metal_block_gitter",
    "futurepack:metal_glass",
    "futurepack:metal_slab",
    "futurepack:metal_ventilation_slab",
    "futurepack:metal_stair",
    "futurepack:metal_stair_gitter",
    "futurepack:metal_fence",
    "futurepack:metal_gitter_pane",
    "futurepack:metal_fence_gate",
    "futurepack:metal_gitter_slab",
    "futurepack:block_tin",
    "futurepack:block_zinc",
    "futurepack:block_copper",
    "futurepack:block_crystal_neon",
    "futurepack:block_crystal_retium",
    "futurepack:block_crystal_glowtite",
    "futurepack:block_crystal_bioterium",
    "futurepack:block_crystal_alutin",
    "futurepack:block_compressed_neon",
    "futurepack:block_compressed_retium",
    "futurepack:block_compressed_glowtite",
    "futurepack:block_compressed_bioterium",
    "futurepack:block_compressed_quantanium",
    "futurepack:block_compressed_wakurium",
    "futurepack:block_compressed_aluminium",
    "futurepack:ironladder",
    "futurepack:color_neon_lamp_white",
    "futurepack:color_neon_lamp_orange",
    "futurepack:color_neon_lamp_magenta",
    "futurepack:color_neon_lamp_light_blue",
    "futurepack:color_neon_lamp_yellow",
    "futurepack:color_neon_lamp_lime",
    "futurepack:color_neon_lamp_pink",
    "futurepack:color_neon_lamp_gray",
    "futurepack:color_neon_lamp_light_gray",
    "futurepack:color_neon_lamp_cyan",
    "futurepack:color_neon_lamp_purple",
    "futurepack:color_neon_lamp_blue",
    "futurepack:color_neon_lamp_brown",
    "futurepack:color_neon_lamp_green",
    "futurepack:color_neon_lamp_red",
    "futurepack:color_neon_lamp_black",
    "futurepack:deco_armee",
    "futurepack:deco_forscher",
    "futurepack:deco_industrial",
    "futurepack:quartz_glass",
    "futurepack:neon_brick",
    "futurepack:retium_brick",
    "futurepack:glowtite_brick",
    "futurepack:bioterium_brick",
    "futurepack:quantanium_brick",
    "futurepack:wakurium_brick",
    "futurepack:composite_door",
    "futurepack:composite_trapdoor",
    "futurepack:glass_door",
    "futurepack:glass_trapdoor",
    "futurepack:thruster_white_light_blue",
    "futurepack:thruster_white_yellow",
    "futurepack:thruster_white_lime",
    "futurepack:thruster_white_orange",
    "futurepack:thruster_white_purple",
    "futurepack:thruster_maneuver_white_blue",
    "futurepack:thruster_maneuver_white_yellow",
    "futurepack:thruster_maneuver_white_purple",
    "futurepack:thruster_light_gray_light_blue",
    "futurepack:thruster_light_gray_yellow",
    "futurepack:thruster_light_gray_lime",
    "futurepack:thruster_light_gray_orange",
    "futurepack:thruster_light_gray_purple",
    "futurepack:thruster_maneuver_light_gray_blue",
    "futurepack:thruster_maneuver_light_gray_yellow",
    "futurepack:thruster_maneuver_light_gray_purple",
    "futurepack:thruster_black_light_blue",
    "futurepack:thruster_black_yellow",
    "futurepack:thruster_black_lime",
    "futurepack:thruster_black_orange",
    "futurepack:thruster_black_purple",
    "futurepack:thruster_maneuver_black_blue",
    "futurepack:thruster_maneuver_black_yellow",
    "futurepack:thruster_maneuver_black_purple"
  ]
}