{
    "parent": "futurepack:block/glowmelo_6",
	"textures":{
		"side":"futurepack:blocks/glowmelo_6",
		"top":"futurepack:blocks/glowmelo_top_6"
	},
    "display": {
        "thirdperson": {
            "rotation": [ 10, -45, 170 ],
            "translation": [ 0, 1.5, -2.75 ],
            "scale": [ 0.375, 0.375, 0.375 ]
        }
    }
}
