{
  "replace": false,
  "values": [
    "futurepack:crystal_neon",
    "futurepack:crystal_alutin",
    "futurepack:crystal_retium",
    "futurepack:crystal_glowtite",
    "futurepack:crystal_bioterium"
  ]
}