{
  "type": "smelting",
  "ingredient": [
  	{
      "item": "futurepack:log_tyros"
  	},
  	{
      "item": "futurepack:log_mushroom"
  	},
  	{
      "item": "futurepack:log_palirie"
  	}
  ],
  "result": "minecraft:charcoal",
  "experience": 0.5,
  "cookingtime": 200
}