{
    "coolDown":100,
    "entrys":
	[
		{ "id":"futurepack:cyber_zombie", "count":1, "data":"{CustomName:\"\\\"General\\\"\",CustomNameVisible:1,Health:80,Attributes:[{Name:\"generic.knockbackResistance\",Base:0.1f},{Name:\"generic.maxHealth\",Base:40}],HandItems:[{id:\"minecraft:iron_sword\",Count:1},{id:\"futurepack:escenner\",Count:1}]}" }
    ],
    "message":{"translate":"dungeon.message.the_general","text":"Looks like the leader of this squad."}
}
 