{
    "coolDown":300,
    "entrys":
	[
		{ "id":"futurepack:evil_robot", "count":1, "data":"{}" },
		{ "id":"minecraft:stray", "count":4, "data":"{HandItems:[{id:\"minecraft:bow\",Count:1},{}]}" }
    ],
    "message":{"translate":"dungeon.message.evil_arrow","text":"Supported by Arrows!"}
}