{
	"parent": "block/cube",
	"textures": {
	"particle":"futurepack:blocks/inventory/a_bc_s",
	"down":"futurepack:blocks/inventory/a_bc_s_unten",
	"up":"futurepack:blocks/inventory/a_bc_s_oben",
	"north":"futurepack:blocks/inventory/a_bc_s",
	"east":"futurepack:blocks/inventory/a_bc_s_seite",
	"south":"futurepack:blocks/inventory/a_bc_s_hinten",
	"west":"futurepack:blocks/inventory/a_bc_s_seite"
	}
}
