{
	"parent": "block/cube",
	"textures": {
	"particle":"futurepack:blocks/machines/assembler_vorne_2",
	"down":"futurepack:blocks/deko/color_iron_light_gray",
	"up":"futurepack:blocks/deko/color_iron_light_gray",
	"north":"futurepack:blocks/machines/assembler_vorne_2",
	"east":"futurepack:blocks/machines/assembler_links_2",
	"south":"futurepack:blocks/deko/color_iron_light_gray",
	"west":"futurepack:blocks/machines/assembler_rechts_2"       
	}
}
