{
	"parent": "block/cube",
	"textures": 
	{
		"particle":"futurepack:blocks/misc/bedrock_rift",
		"down":"minecraft:block/bedrock",
		"up":"futurepack:blocks/misc/bedrock_rift",
		"north":"minecraft:block/bedrock",
		"east":"minecraft:block/bedrock",
		"south":"minecraft:block/bedrock",
		"west":"minecraft:block/bedrock"
	}
}
