{
  "parent": "block/slab_top",
  "textures": {
    "bottom": "futurepack:blocks/deko/luftung_black",
    "top": "futurepack:blocks/deko/luftung_black",
    "side": "futurepack:blocks/deko/luftung_black"
  }
}