{
  "parent": "block/stairs",
  "textures": {
    "bottom": "futurepack:blocks/deko/gitter_white",
    "top": "futurepack:blocks/deko/gitter_white",
    "side": "futurepack:blocks/deko/gitter_white"
  }
}