{
	"parent": "futurepack:block/ftl_drive_base",
	"textures": {
	"up":"futurepack:blocks/multiblocks/ftl_drive_top_6",
	"south":"futurepack:blocks/multiblocks/ftl_drive_left_1",
	"west":"futurepack:blocks/multiblocks/ftl_drive_front_2"
	}
}
