{
	"parent": "futurepack:block/ftl_drive_base",
	"textures": {
	"down":"futurepack:blocks/multiblocks/ftl_drive_bottom_1",	
	"north":"futurepack:blocks/multiblocks/ftl_drive_left_6",
	"west":"futurepack:blocks/multiblocks/ftl_drive_front_3"
	}
}
