{
    "parent": "block/block",
	"textures": {
        "particle": "futurepack:blocks/terrain/glowmelo_1",
		"side": "futurepack:blocks/terrain/glowmelo_1",
		"top": "futurepack:blocks/terrain/glowmelo_top_1"
    },
	"elements": [
        {   "from": [ 6, 10, 6 ],
            "to": [ 10, 16, 10 ],
            "faces": {
                "down":  { "texture": "#top"},
                "up":    { "texture": "#top"},
                "north": { "texture": "#side"},
                "south": { "texture": "#side"},
                "west":  { "texture": "#side"},
                "east":  { "texture": "#side"}
            }
        }
    ]
}
