{
  "parent": "minecraft:block/grass_block",
  "textures": {
    "particle": "minecraft:block/dirt",
    "bottom": "minecraft:block/dirt",
    "top": "futurepack:blocks/terrain/grass_top",
    "side": "futurepack:blocks/terrain/grass_side",
    "overlay": "futurepack:blocks/terrain/grass_side_overlay"
  }
}