{
    "parent": "block/cube",
    "textures": 
    {
        "particle": "futurepack:blocks/deko/color_iron_white",
        "down": "futurepack:blocks/deko/color_iron_white",
        "up": "futurepack:blocks/machines/protonen_colektor_top_w",
        "north": "futurepack:blocks/machines/protonen_colektor_side_w",
        "east": "futurepack:blocks/machines/protonen_colektor_side_w",
        "south": "futurepack:blocks/machines/protonen_colektor_side_w",
        "west": "futurepack:blocks/machines/protonen_colektor_side_w"
    }
}
