{
  "parent": "block/slab_top",
  "textures": {
    "bottom": "futurepack:blocks/deko/metal_block_luftschacht",
    "top": "futurepack:blocks/deko/metal_block_luftschacht",
    "side": "futurepack:blocks/deko/metal_block_luftschacht"
  }
}