{
	"parent": "block/cube",
	"textures": {
	"particle":"futurepack:blocks/quantanium/ore_teleporter_side",
	"down":"futurepack:blocks/quantanium/single",
	"up":"futurepack:blocks/quantanium/ore_teleporter_front",
	"north":"futurepack:blocks/quantanium/ore_teleporter_side",
	"east":"futurepack:blocks/quantanium/ore_teleporter_side",
	"south":"futurepack:blocks/quantanium/ore_teleporter_side",
	"west":"futurepack:blocks/quantanium/ore_teleporter_side"
	}
}
