{
  "parent": "block/stairs",
  "textures": {
    "bottom": "futurepack:blocks/terrain/planks_tyros",
    "top": "futurepack:blocks/terrain/planks_tyros",
    "side": "futurepack:blocks/terrain/planks_tyros"
  }
}