{
	"credit": "Made with Blockbench",
	"parent": "block/block",
	"textures": {
		"2": "futurepack:blocks/deko/color_iron_light_gray",
		"4": "futurepack:blocks/crystal/bneon_block",
		"5": "futurepack:blocks/deko/glass_trapdoor",
		"6": "futurepack:blocks/logistic/insert_node_down",
		"7": "futurepack:blocks/misc/magnet_block_seite",
		"particle": "futurepack:blocks/deko/glass_trapdoor"
	},
	"elements": [
		{
			"name": "top",
			"from": [12, 16, 4],
			"to": [14, 18, 12],
			"rotation": {"angle": 0, "axis": "y", "origin": [13, 17, 5]},
			"faces": {
				"east": {"uv": [4, 2, 12, 4], "texture": "#7"},
				"west": {"uv": [4, 2, 12, 4], "texture": "#7"},
				"up": {"uv": [12, 4, 14, 12], "texture": "#7"},
				"down": {"uv": [2, 5, 4, 13], "texture": "#7"}
			}
		},
		{
			"name": "top",
			"from": [2, 16, 4],
			"to": [4, 18, 12],
			"rotation": {"angle": 0, "axis": "y", "origin": [3, 17, 5]},
			"faces": {
				"east": {"uv": [4, 2, 12, 4], "texture": "#7"},
				"west": {"uv": [4, 2, 12, 4], "texture": "#7"},
				"up": {"uv": [2, 4, 4, 12], "texture": "#7"},
				"down": {"uv": [12, 4, 14, 12], "texture": "#7"}
			}
		},
		{
			"name": "top",
			"from": [2, 16, 2],
			"to": [14, 18, 4],
			"rotation": {"angle": 0, "axis": "y", "origin": [3, 17, 3]},
			"faces": {
				"north": {"uv": [2, 2, 14, 4], "texture": "#7"},
				"east": {"uv": [12, 2, 14, 4], "texture": "#7"},
				"south": {"uv": [2, 2, 14, 4], "texture": "#7"},
				"west": {"uv": [2, 2, 4, 4], "texture": "#7"},
				"up": {"uv": [2, 2, 14, 4], "texture": "#7"},
				"down": {"uv": [2, 3, 14, 5], "texture": "#7"}
			}
		},
		{
			"name": "top",
			"from": [2, 16, 12],
			"to": [14, 18, 14],
			"rotation": {"angle": 0, "axis": "y", "origin": [3, 17, 13]},
			"faces": {
				"north": {"uv": [2, 2, 14, 4], "texture": "#7"},
				"east": {"uv": [2, 2, 4, 4], "texture": "#7"},
				"south": {"uv": [2, 2, 14, 4], "texture": "#7"},
				"west": {"uv": [12, 2, 14, 4], "texture": "#7"},
				"up": {"uv": [2, 12, 14, 14], "texture": "#7"},
				"down": {"uv": [2, 12, 14, 14], "texture": "#7"}
			}
		},
		{
			"name": "glass_middle",
			"from": [4, 4, 4],
			"to": [12, 12, 12],
			"faces": {
				"north": {"uv": [2, 2, 14, 14], "texture": "#5"},
				"east": {"uv": [2, 2, 14, 14], "texture": "#5"},
				"south": {"uv": [2, 2, 14, 14], "texture": "#5"},
				"west": {"uv": [2, 2, 14, 14], "texture": "#5"},
				"up": {"uv": [2, 2, 14, 14], "texture": "#5"},
				"down": {"uv": [2, 2, 14, 14], "texture": "#5"}
			}
		},
		{
			"name": "tube_side",
			"from": [7, 7, 11],
			"to": [9, 9, 15],
			"faces": {
				"north": {"uv": [0, 0, 2, 2], "texture": "#4"},
				"east": {"uv": [0, 0, 4, 2], "texture": "#4"},
				"south": {"uv": [0, 0, 2, 2], "texture": "#4"},
				"west": {"uv": [0, 0, 4, 2], "texture": "#4"},
				"up": {"uv": [0, 0, 2, 4], "texture": "#4"},
				"down": {"uv": [0, 0, 2, 4], "texture": "#4"}
			}
		},
		{
			"name": "side",
			"from": [6, 0, 15],
			"to": [10, 10, 16],
			"faces": {
				"north": {"uv": [6, 6, 10, 16], "texture": "#2"},
				"east": {"uv": [7, 6, 8, 16], "texture": "#2"},
				"south": {"uv": [5, 6, 9, 16], "texture": "#2"},
				"west": {"uv": [6, 6, 7, 16], "texture": "#2"},
				"up": {"uv": [0, 0, 1, 4], "rotation": 270, "texture": "#2"},
				"down": {"uv": [0, 0, 1, 4], "rotation": 90, "texture": "#2"}
			}
		},
		{
			"from": [6, 0, 6],
			"to": [10, 1, 10],
			"rotation": {"angle": 0, "axis": "y", "origin": [12, 8, 13]},
			"faces": {
				"north": {"uv": [6, 0, 10, 1], "texture": "#2"},
				"east": {"uv": [5, 0, 9, 1], "texture": "#2"},
				"south": {"uv": [5, 0, 9, 1], "texture": "#2"},
				"west": {"uv": [6, 0, 10, 1], "texture": "#2"},
				"up": {"uv": [6, 6, 10, 10], "texture": "#2"},
				"down": {"uv": [6, 6, 10, 10], "texture": "#2"}
			}
		},
		{
			"name": "tube_side",
			"from": [7, 1, 7],
			"to": [9, 5, 9],
			"faces": {
				"north": {"uv": [0, 0, 2, 4], "rotation": 180, "texture": "#4"},
				"east": {"uv": [0, 0, 4, 2], "rotation": 270, "texture": "#4"},
				"south": {"uv": [0, 0, 2, 4], "texture": "#4"},
				"west": {"uv": [0, 0, 4, 2], "rotation": 90, "texture": "#4"},
				"up": {"uv": [0, 0, 2, 2], "rotation": 180, "texture": "#4"},
				"down": {"uv": [0, 0, 2, 2], "texture": "#4"}
			}
		},
		{
			"name": "tube_side",
			"from": [11, 7, 7],
			"to": [15, 9, 9],
			"faces": {
				"north": {"uv": [0, 0, 4, 2], "texture": "#4"},
				"east": {"uv": [0, 0, 2, 2], "texture": "#4"},
				"south": {"uv": [0, 0, 4, 2], "texture": "#4"},
				"west": {"uv": [0, 0, 2, 2], "texture": "#4"},
				"up": {"uv": [0, 0, 2, 4], "rotation": 270, "texture": "#4"},
				"down": {"uv": [0, 0, 2, 4], "rotation": 90, "texture": "#4"}
			}
		},
		{
			"name": "side",
			"from": [15, 0, 6],
			"to": [16, 10, 10],
			"faces": {
				"north": {"uv": [7, 6, 8, 16], "texture": "#2"},
				"east": {"uv": [5, 6, 9, 16], "texture": "#2"},
				"south": {"uv": [6, 6, 7, 16], "texture": "#2"},
				"west": {"uv": [6, 6, 10, 16], "texture": "#2"},
				"up": {"uv": [0, 0, 1, 4], "rotation": 180, "texture": "#2"},
				"down": {"uv": [0, 0, 1, 4], "rotation": 180, "texture": "#2"}
			}
		},
		{
			"name": "tube_side",
			"from": [7, 7, 1],
			"to": [9, 9, 5],
			"faces": {
				"north": {"uv": [0, 0, 2, 2], "texture": "#4"},
				"east": {"uv": [0, 0, 4, 2], "texture": "#4"},
				"south": {"uv": [0, 0, 2, 2], "texture": "#4"},
				"west": {"uv": [0, 0, 4, 2], "texture": "#4"},
				"up": {"uv": [0, 0, 2, 4], "rotation": 180, "texture": "#4"},
				"down": {"uv": [0, 0, 2, 4], "rotation": 180, "texture": "#4"}
			}
		},
		{
			"name": "side",
			"from": [6, 0, 0],
			"to": [10, 10, 1],
			"faces": {
				"north": {"uv": [5, 6, 9, 16], "texture": "#2"},
				"east": {"uv": [6, 6, 7, 16], "texture": "#2"},
				"south": {"uv": [6, 6, 10, 16], "texture": "#2"},
				"west": {"uv": [7, 6, 8, 16], "texture": "#2"},
				"up": {"uv": [0, 0, 1, 4], "rotation": 90, "texture": "#2"},
				"down": {"uv": [0, 0, 1, 4], "rotation": 270, "texture": "#2"}
			}
		},
		{
			"name": "tube_side",
			"from": [1, 7, 7],
			"to": [5, 9, 9],
			"faces": {
				"north": {"uv": [0, 0, 4, 2], "texture": "#4"},
				"east": {"uv": [0, 0, 2, 2], "texture": "#4"},
				"south": {"uv": [0, 0, 4, 2], "texture": "#4"},
				"west": {"uv": [0, 0, 2, 2], "texture": "#4"},
				"up": {"uv": [0, 0, 2, 4], "rotation": 90, "texture": "#4"},
				"down": {"uv": [0, 0, 2, 4], "rotation": 270, "texture": "#4"}
			}
		},
		{
			"name": "side",
			"from": [0, 0, 6],
			"to": [1, 10, 10],
			"faces": {
				"north": {"uv": [6, 6, 7, 16], "texture": "#2"},
				"east": {"uv": [6, 6, 10, 16], "texture": "#2"},
				"south": {"uv": [7, 6, 8, 16], "texture": "#2"},
				"west": {"uv": [5, 6, 9, 16], "texture": "#2"},
				"up": {"uv": [0, 0, 1, 4], "texture": "#2"},
				"down": {"uv": [0, 0, 1, 4], "texture": "#2"}
			}
		},
		{
			"name": "out",
			"from": [4, 12, 4],
			"to": [12, 18, 12],
			"rotation": {"angle": 0, "axis": "y", "origin": [10, 20, 18]},
			"faces": {
				"north": {"uv": [10, 8, 14, 14], "texture": "#2"},
				"east": {"uv": [10, 8, 14, 14], "texture": "#2"},
				"south": {"uv": [10, 8, 14, 14], "texture": "#2"},
				"west": {"uv": [10, 8, 14, 14], "texture": "#2"},
				"up": {"uv": [4, 4, 12, 12], "texture": "#6"},
				"down": {"uv": [4, 4, 12, 12], "texture": "#2"}
			}
		}
	],
	"display": {
		"thirdperson_righthand": {
			"rotation": [75, 45, 0],
			"translation": [0, 2.5, 0],
			"scale": [0.375, 0.375, 0.375]
		},
		"thirdperson_lefthand": {
			"rotation": [75, 45, 0],
			"translation": [0, 2.5, 0],
			"scale": [0.375, 0.375, 0.375]
		},
		"firstperson_righthand": {
			"rotation": [0, 45, 0],
			"scale": [0.4, 0.4, 0.4]
		},
		"firstperson_lefthand": {
			"rotation": [0, 225, 0],
			"scale": [0.4, 0.4, 0.4]
		},
		"ground": {
			"translation": [0, 3, 0],
			"scale": [0.25, 0.25, 0.25]
		},
		"gui": {
			"rotation": [30, 225, 0],
			"scale": [0.625, 0.625, 0.625]
		},
		"fixed": {
			"scale": [0.5, 0.5, 0.5]
		}
	},
	"groups": [
		{
			"name": "top_outlet",
			"origin": [8, 8, 8],
			"children": [0, 1, 2, 3]
		}, 4,
		{
			"name": "side_inlet",
			"origin": [8, 8, 8],
			"children": [5, 6]
		},
		{
			"name": "bottom",
			"origin": [8, 8, 8],
			"children": [7, 8]
		},
		{
			"name": "side_inlet",
			"origin": [8, 8, 8],
			"children": [9, 10]
		},
		{
			"name": "side_inlet",
			"origin": [8, 8, 8],
			"children": [11, 12]
		},
		{
			"name": "side_inlet",
			"origin": [8, 8, 8],
			"children": [13, 14]
		}, 15]
}