{
	"parent": "block/cube",
	"textures": {
		"particle":"futurepack:blocks/machines/desintegrator_g_front_off",
		"down":"futurepack:blocks/deko/color_iron_light_gray",
		"up":"futurepack:blocks/machines/desintegrator_top_g_off",
		"north":"futurepack:blocks/machines/desintegrator_g_front_off",
		"east":"futurepack:blocks/deko/color_iron_light_gray",
		"south":"futurepack:blocks/deko/luftung_light_gray",
		"west":"futurepack:blocks/deko/color_iron_light_gray"
	}
}