{
    "parent": "block/cube",
    "textures": {
    "particle":"futurepack:blocks/misc/saplingsoul_sand",
    "down":"futurepack:blocks/misc/saplingsoul_sand",
    "up":"futurepack:blocks/misc/saplingsoul_sand_full",
    "north":"futurepack:blocks/misc/saplingsoul_sand",
    "east":"futurepack:blocks/misc/saplingsoul_sand",
    "south":"futurepack:blocks/misc/saplingsoul_sand",
    "west":"futurepack:blocks/misc/saplingsoul_sand"
    }
}
