{
	"parent": "block/cube",
	"textures": {
	"particle":"futurepack:blocks/machines/super_crusher_front_2",
	"down":"futurepack:blocks/deko/color_iron_black",
	"up":"futurepack:blocks/machines/super_crusher_top_2",
	"north":"futurepack:blocks/machines/super_crusher_front_2",
	"east":"futurepack:blocks/deko/color_iron_black",
	"south":"futurepack:blocks/machines/super_crusher_hinten_2",
	"west":"futurepack:blocks/deko/color_iron_black"
	}
}
