{
  "inventorys": [
    {
      "pos": "7-3-1",
      "loot": "futurepack:chests/ld_crystal"
    }
  ],
  "doors": [
    {
      "facing": 4,
      "w": 1,
      "h": 3,
      "d": 3,
      "start": "0,2,1"
    }
  ],
  "data": {
    "0-0-1": 0,
    "0-0-2": 0,
    "0-0-3": 0,
    "0-1-0": 1,
    "0-1-1": 2,
    "0-1-2": 3,
    "0-1-3": 2,
    "0-1-4": 1,
    "0-2-0": 1,
    "0-2-1": 4,
    "0-2-2": 5,
    "0-2-3": 5,
    "0-2-4": 1,
    "0-3-0": 6,
    "0-3-1": 4,
    "0-3-2": 5,
    "0-3-3": 5,
    "0-3-4": 6,
    "0-4-0": 1,
    "0-4-1": 5,
    "0-4-2": 5,
    "0-4-3": 5,
    "0-4-4": 1,
    "0-5-0": 1,
    "0-5-1": 2,
    "0-5-2": 3,
    "0-5-3": 2,
    "0-5-4": 1,
    "1-0-1": 0,
    "1-0-2": 0,
    "1-0-3": 0,
    "1-1-0": 1,
    "1-1-1": 7,
    "1-1-2": 3,
    "1-1-3": 7,
    "1-1-4": 1,
    "1-2-0": 8,
    "1-2-1": 9,
    "1-2-2": 4,
    "1-2-3": 9,
    "1-2-4": 1,
    "1-3-0": 6,
    "1-3-1": 10,
    "1-3-2": 4,
    "1-3-3": 10,
    "1-3-4": 6,
    "1-4-0": 1,
    "1-4-1": 4,
    "1-4-2": 4,
    "1-4-3": 4,
    "1-4-4": 8,
    "1-5-0": 1,
    "1-5-1": 2,
    "1-5-2": 3,
    "1-5-3": 8,
    "1-5-4": 1,
    "2-0-1": 0,
    "2-0-2": 0,
    "2-0-3": 0,
    "2-1-0": 1,
    "2-1-1": 8,
    "2-1-2": 8,
    "2-1-3": 2,
    "2-1-4": 1,
    "2-2-0": 1,
    "2-2-1": 4,
    "2-2-2": 8,
    "2-2-3": 4,
    "2-2-4": 1,
    "2-3-0": 8,
    "2-3-1": 4,
    "2-3-2": 4,
    "2-3-3": 4,
    "2-3-4": 8,
    "2-4-0": 1,
    "2-4-1": 4,
    "2-4-2": 4,
    "2-4-3": 4,
    "2-4-4": 1,
    "2-5-0": 1,
    "2-5-1": 2,
    "2-5-2": 8,
    "2-5-3": 2,
    "2-5-4": 1,
    "3-0-1": 0,
    "3-0-2": 0,
    "3-0-3": 0,
    "3-1-0": 1,
    "3-1-1": 8,
    "3-1-2": 8,
    "3-1-3": 8,
    "3-1-4": 1,
    "3-2-0": 1,
    "3-2-1": 7,
    "3-2-2": 8,
    "3-2-3": 8,
    "3-2-4": 1,
    "3-3-0": 6,
    "3-3-1": 9,
    "3-3-2": 8,
    "3-3-3": 8,
    "3-3-4": 6,
    "3-4-0": 8,
    "3-4-1": 10,
    "3-4-2": 8,
    "3-4-3": 4,
    "3-4-4": 1,
    "3-5-0": 1,
    "3-5-1": 8,
    "3-5-2": 8,
    "3-5-3": 8,
    "3-5-4": 1,
    "4-0-1": 0,
    "4-0-2": 0,
    "4-0-3": 0,
    "4-1-0": 1,
    "4-1-1": 7,
    "4-1-2": 8,
    "4-1-3": 7,
    "4-1-4": 1,
    "4-2-0": 1,
    "4-2-1": 9,
    "4-2-2": 4,
    "4-2-3": 9,
    "4-2-4": 1,
    "4-3-0": 6,
    "4-3-1": 10,
    "4-3-2": 4,
    "4-3-3": 10,
    "4-3-4": 6,
    "4-4-0": 1,
    "4-4-1": 4,
    "4-4-2": 8,
    "4-4-3": 4,
    "4-4-4": 1,
    "4-5-0": 1,
    "4-5-1": 8,
    "4-5-2": 8,
    "4-5-3": 2,
    "4-5-4": 1,
    "5-0-1": 0,
    "5-0-2": 0,
    "5-0-3": 0,
    "5-1-0": 1,
    "5-1-1": 2,
    "5-1-2": 3,
    "5-1-3": 2,
    "5-1-4": 1,
    "5-2-0": 1,
    "5-2-1": 4,
    "5-2-2": 7,
    "5-2-3": 4,
    "5-2-4": 1,
    "5-3-0": 6,
    "5-3-1": 4,
    "5-3-2": 9,
    "5-3-3": 4,
    "5-3-4": 6,
    "5-4-0": 8,
    "5-4-1": 4,
    "5-4-2": 10,
    "5-4-3": 4,
    "5-4-4": 1,
    "5-5-0": 1,
    "5-5-1": 2,
    "5-5-2": 8,
    "5-5-3": 2,
    "5-5-4": 1,
    "6-0-1": 0,
    "6-0-2": 0,
    "6-0-3": 0,
    "6-1-0": 1,
    "6-1-1": 7,
    "6-1-2": 3,
    "6-1-3": 7,
    "6-1-4": 1,
    "6-2-0": 1,
    "6-2-1": 11,
    "6-2-2": 8,
    "6-2-3": 9,
    "6-2-4": 1,
    "6-3-0": 6,
    "6-3-1": 8,
    "6-3-2": 7,
    "6-3-3": 10,
    "6-3-4": 6,
    "6-4-0": 8,
    "6-4-1": 4,
    "6-4-2": 11,
    "6-4-3": 8,
    "6-4-4": 1,
    "6-5-0": 1,
    "6-5-1": 8,
    "6-5-2": 3,
    "6-5-3": 2,
    "6-5-4": 1,
    "7-0-1": 0,
    "7-0-2": 0,
    "7-0-3": 0,
    "7-1-0": 1,
    "7-1-1": 2,
    "7-1-2": 8,
    "7-1-3": 7,
    "7-1-4": 1,
    "7-2-0": 1,
    "7-2-1": 8,
    "7-2-2": 4,
    "7-2-3": 9,
    "7-2-4": 1,
    "7-3-0": 6,
    "7-3-1": 12,
    "7-3-2": 4,
    "7-3-3": 10,
    "7-3-4": 8,
    "7-4-0": 1,
    "7-4-1": 8,
    "7-4-2": 8,
    "7-4-3": 8,
    "7-4-4": 1,
    "7-5-0": 1,
    "7-5-1": 2,
    "7-5-2": 8,
    "7-5-3": 2,
    "7-5-4": 1,
    "8-1-0": 1,
    "8-1-1": 1,
    "8-1-2": 1,
    "8-1-3": 1,
    "8-1-4": 1,
    "8-2-0": 1,
    "8-2-1": 1,
    "8-2-2": 1,
    "8-2-3": 1,
    "8-2-4": 1,
    "8-3-0": 1,
    "8-3-1": 1,
    "8-3-2": 1,
    "8-3-3": 1,
    "8-3-4": 1,
    "8-4-0": 1,
    "8-4-1": 1,
    "8-4-2": 1,
    "8-4-3": 1,
    "8-4-4": 1,
    "8-5-0": 1,
    "8-5-1": 1,
    "8-5-2": 1,
    "8-5-3": 1,
    "8-5-4": 1
  },
  "stateMap": {
    "0": "minecraft:stone:",
    "1": "futurepack:color_iron_gray:",
    "2": "futurepack:quantanium:down\u003dtrue;east\u003dtrue;north\u003dtrue;south\u003dtrue;up\u003dtrue;west\u003dtrue",
    "3": "futurepack:color_iron_black:",
    "4": "minecraft:air:",
    "5": "futurepack:color_gitter_pane_gray:east\u003dfalse;north\u003dfalse;south\u003dfalse;waterlogged\u003dfalse;west\u003dfalse",
    "6": "futurepack:color_iron_purple:",
    "7": "futurepack:sand_neon:",
    "8": "futurepack:block_crystal_neon:",
    "9": "futurepack:crystal_neon:growth\u003dbottom",
    "10": "futurepack:crystal_neon:growth\u003dtop",
    "11": "futurepack:crystal_neon:growth\u003dsmall",
    "12": "futurepack:wardrobe_light_gray_normal_2:"
  }
}