{
  "data": {
    "0-1-5": "0",
    "0-2-4": "1",
    "0-2-5": "0",
    "0-2-6": "1",
    "0-3-5": "0",
    "1-0-5": "0",
    "1-1-3": "2",
    "1-1-4": "3",
    "1-1-5": "4",
    "1-1-6": "3",
    "1-1-7": "2",
    "1-2-3": "5",
    "1-2-4": "6",
    "1-2-5": "4",
    "1-2-6": "6",
    "1-2-7": "5",
    "1-3-3": "2",
    "1-3-4": "7",
    "1-3-5": "4",
    "1-3-6": "7",
    "1-3-7": "2",
    "1-4-5": "0",
    "2-0-3": "2",
    "2-0-4": "8",
    "2-0-5": "1",
    "2-0-6": "8",
    "2-0-7": "2",
    "2-1-3": "2",
    "2-1-4": "6",
    "2-1-5": "6",
    "2-1-6": "6",
    "2-1-7": "2",
    "2-2-2": "0",
    "2-2-3": "9",
    "2-2-4": "6",
    "2-2-5": "6",
    "2-2-6": "6",
    "2-2-7": "9",
    "2-2-8": "0",
    "2-3-3": "2",
    "2-3-4": "6",
    "2-3-5": "6",
    "2-3-6": "6",
    "2-3-7": "2",
    "2-4-3": "2",
    "2-4-4": "8",
    "2-4-5": "1",
    "2-4-6": "8",
    "2-4-7": "2",
    "3-0-2": "2",
    "3-0-3": "a",
    "3-0-4": "b",
    "3-0-5": "c",
    "3-0-6": "b",
    "3-0-7": "d",
    "3-0-8": "2",
    "3-1-1": "2",
    "3-1-2": "2",
    "3-1-3": "6",
    "3-1-4": "6",
    "3-1-5": "6",
    "3-1-6": "6",
    "3-1-7": "6",
    "3-1-8": "2",
    "3-1-9": "2",
    "3-2-1": "5",
    "3-2-2": "9",
    "3-2-3": "6",
    "3-2-4": "6",
    "3-2-5": "6",
    "3-2-6": "6",
    "3-2-7": "6",
    "3-2-8": "9",
    "3-2-9": "5",
    "3-3-1": "2",
    "3-3-2": "2",
    "3-3-3": "6",
    "3-3-4": "6",
    "3-3-5": "6",
    "3-3-6": "6",
    "3-3-7": "6",
    "3-3-8": "2",
    "3-3-9": "2",
    "3-4-2": "2",
    "3-4-3": "a",
    "3-4-4": "b",
    "3-4-5": "c",
    "3-4-6": "b",
    "3-4-7": "d",
    "3-4-8": "2",
    "4-0-2": "e",
    "4-0-3": "f",
    "4-0-4": "1",
    "4-0-5": "10",
    "4-0-6": "1",
    "4-0-7": "11",
    "4-0-8": "12",
    "4-1-1": "13",
    "4-1-2": "6",
    "4-1-3": "6",
    "4-1-4": "6",
    "4-1-5": "6",
    "4-1-6": "6",
    "4-1-7": "6",
    "4-1-8": "6",
    "4-1-9": "14",
    "4-2-0": "1",
    "4-2-1": "6",
    "4-2-2": "6",
    "4-2-3": "6",
    "4-2-4": "6",
    "4-2-5": "15",
    "4-2-6": "6",
    "4-2-7": "6",
    "4-2-8": "6",
    "4-2-9": "6",
    "4-2-10": "1",
    "4-3-1": "16",
    "4-3-2": "6",
    "4-3-3": "6",
    "4-3-4": "6",
    "4-3-5": "6",
    "4-3-6": "6",
    "4-3-7": "6",
    "4-3-8": "6",
    "4-3-9": "17",
    "4-4-2": "e",
    "4-4-3": "f",
    "4-4-4": "1",
    "4-4-5": "10",
    "4-4-6": "1",
    "4-4-7": "11",
    "4-4-8": "12",
    "5-0-1": "0",
    "5-0-2": "1",
    "5-0-3": "11",
    "5-0-4": "18",
    "5-0-5": "19",
    "5-0-6": "18",
    "5-0-7": "f",
    "5-0-8": "1",
    "5-0-9": "0",
    "5-1-0": "0",
    "5-1-1": "4",
    "5-1-2": "6",
    "5-1-3": "6",
    "5-1-4": "6",
    "5-1-5": "1a",
    "5-1-6": "6",
    "5-1-7": "6",
    "5-1-8": "6",
    "5-1-9": "4",
    "5-1-10": "0",
    "5-2-0": "0",
    "5-2-1": "4",
    "5-2-2": "6",
    "5-2-3": "6",
    "5-2-4": "6",
    "5-2-5": "1b",
    "5-2-6": "6",
    "5-2-7": "6",
    "5-2-8": "6",
    "5-2-9": "4",
    "5-2-10": "0",
    "5-3-0": "0",
    "5-3-1": "4",
    "5-3-2": "6",
    "5-3-3": "6",
    "5-3-4": "6",
    "5-3-5": "1a",
    "5-3-6": "6",
    "5-3-7": "6",
    "5-3-8": "6",
    "5-3-9": "4",
    "5-3-10": "0",
    "5-4-1": "0",
    "5-4-2": "1",
    "5-4-3": "11",
    "5-4-4": "18",
    "5-4-5": "1c",
    "5-4-6": "18",
    "5-4-7": "f",
    "5-4-8": "1",
    "5-4-9": "0",
    "6-0-2": "e",
    "6-0-3": "f",
    "6-0-4": "1",
    "6-0-5": "10",
    "6-0-6": "1",
    "6-0-7": "11",
    "6-0-8": "12",
    "6-1-1": "13",
    "6-1-2": "6",
    "6-1-3": "6",
    "6-1-4": "6",
    "6-1-5": "6",
    "6-1-6": "6",
    "6-1-7": "6",
    "6-1-8": "6",
    "6-1-9": "14",
    "6-2-0": "1",
    "6-2-1": "6",
    "6-2-2": "6",
    "6-2-3": "6",
    "6-2-4": "6",
    "6-2-5": "6",
    "6-2-6": "6",
    "6-2-7": "6",
    "6-2-8": "6",
    "6-2-9": "6",
    "6-2-10": "1",
    "6-3-1": "16",
    "6-3-2": "6",
    "6-3-3": "6",
    "6-3-4": "6",
    "6-3-5": "6",
    "6-3-6": "6",
    "6-3-7": "6",
    "6-3-8": "6",
    "6-3-9": "17",
    "6-4-2": "e",
    "6-4-3": "f",
    "6-4-4": "1",
    "6-4-5": "10",
    "6-4-6": "1",
    "6-4-7": "11",
    "6-4-8": "12",
    "7-0-2": "2",
    "7-0-3": "1d",
    "7-0-4": "c",
    "7-0-5": "b",
    "7-0-6": "c",
    "7-0-7": "1e",
    "7-0-8": "2",
    "7-1-1": "2",
    "7-1-2": "2",
    "7-1-3": "6",
    "7-1-4": "6",
    "7-1-5": "6",
    "7-1-6": "6",
    "7-1-7": "6",
    "7-1-8": "2",
    "7-1-9": "2",
    "7-2-1": "5",
    "7-2-2": "9",
    "7-2-3": "6",
    "7-2-4": "6",
    "7-2-5": "6",
    "7-2-6": "6",
    "7-2-7": "6",
    "7-2-8": "9",
    "7-2-9": "5",
    "7-3-1": "2",
    "7-3-2": "2",
    "7-3-3": "6",
    "7-3-4": "6",
    "7-3-5": "6",
    "7-3-6": "6",
    "7-3-7": "6",
    "7-3-8": "2",
    "7-3-9": "2",
    "7-4-2": "2",
    "7-4-3": "1d",
    "7-4-4": "c",
    "7-4-5": "b",
    "7-4-6": "c",
    "7-4-7": "1e",
    "7-4-8": "2",
    "8-0-3": "2",
    "8-0-4": "10",
    "8-0-5": "1",
    "8-0-6": "10",
    "8-0-7": "2",
    "8-1-3": "2",
    "8-1-4": "6",
    "8-1-5": "6",
    "8-1-6": "6",
    "8-1-7": "2",
    "8-2-2": "0",
    "8-2-3": "9",
    "8-2-4": "6",
    "8-2-5": "6",
    "8-2-6": "6",
    "8-2-7": "9",
    "8-2-8": "0",
    "8-3-3": "2",
    "8-3-4": "6",
    "8-3-5": "6",
    "8-3-6": "6",
    "8-3-7": "2",
    "8-4-3": "2",
    "8-4-4": "10",
    "8-4-5": "1",
    "8-4-6": "10",
    "8-4-7": "2",
    "9-0-3": "2",
    "9-0-4": "1f",
    "9-0-5": "1",
    "9-0-6": "1f",
    "9-0-7": "2",
    "9-1-3": "2",
    "9-1-4": "6",
    "9-1-5": "6",
    "9-1-6": "6",
    "9-1-7": "2",
    "9-2-3": "5",
    "9-2-4": "6",
    "9-2-5": "6",
    "9-2-6": "6",
    "9-2-7": "5",
    "9-3-3": "2",
    "9-3-4": "6",
    "9-3-5": "6",
    "9-3-6": "6",
    "9-3-7": "2",
    "9-4-3": "2",
    "9-4-4": "1f",
    "9-4-5": "1",
    "9-4-6": "1f",
    "9-4-7": "2"
  },
  "inventorys": [],
  "doors": [
    {
      "facing": 5,
      "w": 1,
      "h": 3,
      "d": 3,
      "start": "9,1,4"
    }
  ],
  "stateMap": {
    "0": "futurepack:wakurium_brick:",
    "1": "futurepack:color_iron_black:",
    "10": "futurepack:quantanium:down\u003dfalse;east\u003dtrue;north\u003dfalse;south\u003dfalse;up\u003dfalse;west\u003dtrue",
    "11": "futurepack:quantanium:down\u003dfalse;east\u003dtrue;north\u003dfalse;south\u003dtrue;up\u003dfalse;west\u003dtrue",
    "12": "futurepack:quantanium:down\u003dfalse;east\u003dfalse;north\u003dtrue;south\u003dfalse;up\u003dfalse;west\u003dfalse",
    "13": "futurepack:color_iron_stair_black:facing\u003dnorth;half\u003dbottom;shape\u003dstraight;waterlogged\u003dfalse",
    "14": "futurepack:color_iron_stair_black:facing\u003dsouth;half\u003dbottom;shape\u003dstraight;waterlogged\u003dfalse",
    "15": "futurepack:fp_lever:face\u003dwall;facing\u003dwest;powered\u003dfalse",
    "16": "futurepack:color_iron_stair_black:facing\u003dnorth;half\u003dtop;shape\u003dstraight;waterlogged\u003dfalse",
    "17": "futurepack:color_iron_stair_black:facing\u003dsouth;half\u003dtop;shape\u003dstraight;waterlogged\u003dfalse",
    "18": "futurepack:quantanium:down\u003dfalse;east\u003dfalse;north\u003dtrue;south\u003dtrue;up\u003dfalse;west\u003dfalse",
    "19": "futurepack:quantanium:down\u003dfalse;east\u003dtrue;north\u003dtrue;south\u003dtrue;up\u003dtrue;west\u003dtrue",
    "1a": "futurepack:quantanium:down\u003dtrue;east\u003dfalse;north\u003dfalse;south\u003dfalse;up\u003dtrue;west\u003dfalse",
    "1b": "futurepack:dungeon_core:",
    "1c": "futurepack:quantanium:down\u003dtrue;east\u003dtrue;north\u003dtrue;south\u003dtrue;up\u003dfalse;west\u003dtrue",
    "1d": "futurepack:quantanium:down\u003dfalse;east\u003dfalse;north\u003dfalse;south\u003dtrue;up\u003dfalse;west\u003dtrue",
    "1e": "futurepack:quantanium:down\u003dfalse;east\u003dfalse;north\u003dtrue;south\u003dfalse;up\u003dfalse;west\u003dtrue",
    "1f": "futurepack:quantanium:down\u003dfalse;east\u003dfalse;north\u003dfalse;south\u003dfalse;up\u003dfalse;west\u003dtrue",
    "2": "futurepack:color_iron_gray:",
    "3": "futurepack:color_iron_stair_black:facing\u003dwest;half\u003dbottom;shape\u003dstraight;waterlogged\u003dfalse",
    "4": "futurepack:color_gitter_black:",
    "5": "futurepack:color_iron_purple:",
    "6": "minecraft:air:",
    "7": "futurepack:color_iron_stair_black:facing\u003dwest;half\u003dtop;shape\u003dstraight;waterlogged\u003dfalse",
    "8": "futurepack:quantanium:down\u003dfalse;east\u003dtrue;north\u003dfalse;south\u003dfalse;up\u003dfalse;west\u003dfalse",
    "9": "futurepack:color_gitter_purple:",
    "a": "futurepack:quantanium:down\u003dfalse;east\u003dtrue;north\u003dfalse;south\u003dtrue;up\u003dfalse;west\u003dfalse",
    "b": "futurepack:quantanium:down\u003dfalse;east\u003dfalse;north\u003dtrue;south\u003dtrue;up\u003dfalse;west\u003dtrue",
    "c": "futurepack:quantanium:down\u003dfalse;east\u003dtrue;north\u003dtrue;south\u003dtrue;up\u003dfalse;west\u003dfalse",
    "d": "futurepack:quantanium:down\u003dfalse;east\u003dtrue;north\u003dtrue;south\u003dfalse;up\u003dfalse;west\u003dfalse",
    "e": "futurepack:quantanium:down\u003dfalse;east\u003dfalse;north\u003dfalse;south\u003dtrue;up\u003dfalse;west\u003dfalse",
    "f": "futurepack:quantanium:down\u003dfalse;east\u003dtrue;north\u003dtrue;south\u003dfalse;up\u003dfalse;west\u003dtrue"
  }
}