{
    "data": 
    {
        "0-2-1": "futurepack:color_iron:1",
        "0-3-1": "futurepack:color_iron:0",
        "1-0-1": "futurepack:color_iron:7",
        "1-1-1": "minecraft:air:0",
        "1-1-2": "futurepack:color_iron:7",
        "1-2-0": "futurepack:color_iron:15",
        "1-2-1": "minecraft:air:0",
        "1-2-2": "futurepack:color_iron:15",
        "1-3-1": "minecraft:air:0",
        "2-0-1": "futurepack:color_iron:7",
        "2-1-0": "futurepack:color_iron:7",
        "2-1-1": "minecraft:air:0",
        "2-1-2": "futurepack:color_iron:7",
        "2-1-3": "futurepack:color_iron:7",
        "2-2-0": "futurepack:color_iron:1",
        "2-2-1": "minecraft:air:0",
        "2-2-2": "minecraft:air:0",
        "2-2-3": "futurepack:color_iron:1",
        "2-3-0": "futurepack:color_iron:0",
        "2-3-1": "minecraft:air:0",
        "2-3-2": "futurepack:color_iron:0",
        "2-3-3": "futurepack:color_iron:0",
        "2-4-1": "futurepack:color_iron:0",
        "3-0-1": "futurepack:color_iron:7",
        "3-0-3": "futurepack:color_iron:7",
        "3-1-0": "futurepack:color_iron:7",
        "3-1-1": "minecraft:air:0",
        "3-1-2": "minecraft:air:0",
        "3-1-3": "minecraft:air:0",
        "3-1-4": "futurepack:color_iron:7",
        "3-2-0": "futurepack:color_iron:15",
        "3-2-1": "minecraft:air:0",
        "3-2-2": "minecraft:air:0",
        "3-2-3": "minecraft:air:0",
        "3-2-4": "futurepack:color_iron:15",
        "3-3-0": "futurepack:color_iron:0",
        "3-3-1": "minecraft:air:0",
        "3-3-2": "minecraft:air:0",
        "3-4-0": "futurepack:color_iron:0",
        "3-4-1": "futurepack:color_iron:0",
        "4-0-1": "futurepack:color_iron:7",
        "4-0-2": "futurepack:color_iron:7",
        "4-0-3": "futurepack:color_iron:7",
        "4-1-0": "futurepack:color_iron:7",
        "4-1-1": "minecraft:air:0",
        "4-1-2": "minecraft:air:0",
        "4-1-3": "minecraft:air:0",
        "4-1-4": "futurepack:color_iron:7",
        "4-2-0": "futurepack:color_iron:1",
        "4-2-1": "minecraft:air:0",
        "4-2-2": "minecraft:air:0",
        "4-2-3": "minecraft:air:0",
        "4-2-4": "futurepack:color_iron:1",
        "4-3-0": "futurepack:color_iron:0",
        "4-3-1": "minecraft:air:0",
        "4-3-2": "minecraft:air:0",
        "4-3-3": "minecraft:air:0",
        "4-3-4": "futurepack:color_iron:0",
        "4-4-0": "futurepack:color_iron:0",
        "4-4-1": "futurepack:color_iron:0",
        "4-4-2": "futurepack:color_iron:0",
        "4-4-3": "futurepack:color_iron:0",
        "4-4-4": "futurepack:color_iron:0"
    },

    "inventorys": 
    [
        
    ],

    "doors": 
    [
        {
            "facing": 5,
            "w": 1,
            "h": 3,
            "d": 3,
            "start": "4,1,1"
        }
    ]
}