{
    "data": 
    {
        "0-0-2": "futurepack:color_iron:7",
        "0-0-3": "futurepack:color_iron:7",
        "0-0-4": "futurepack:color_iron:7",
        "0-0-5": "futurepack:color_iron:7",
        "0-0-8": "futurepack:color_iron:7",
        "0-0-9": "futurepack:color_iron:7",
        "0-0-10": "futurepack:color_iron:7",
        "0-0-11": "futurepack:color_iron:7",
        "0-1-2": "futurepack:color_iron:7",
        "0-1-3": "futurepack:color_iron:7",
        "0-1-4": "futurepack:color_iron:7",
        "0-1-5": "futurepack:color_iron:7",
        "0-1-8": "futurepack:color_iron:7",
        "0-1-9": "futurepack:color_iron:7",
        "0-1-10": "futurepack:color_iron:7",
        "0-1-11": "futurepack:color_iron:7",
        "0-2-2": "futurepack:color_iron:15",
        "0-2-3": "futurepack:color_iron:1",
        "0-2-4": "futurepack:color_iron:15",
        "0-2-5": "futurepack:color_iron:1",
        "0-2-8": "futurepack:color_iron:15",
        "0-2-9": "futurepack:color_iron:1",
        "0-2-10": "futurepack:color_iron:15",
        "0-2-11": "futurepack:color_iron:1",
        "0-3-2": "futurepack:color_iron:0",
        "0-3-3": "futurepack:color_iron:0",
        "0-3-4": "futurepack:color_iron:0",
        "0-3-5": "futurepack:color_iron:15",
        "0-3-6": "futurepack:color_iron:1",
        "0-3-7": "futurepack:color_iron:15",
        "0-3-8": "futurepack:color_iron:1",
        "0-3-9": "futurepack:color_iron:0",
        "0-3-10": "futurepack:color_iron:0",
        "0-3-11": "futurepack:color_iron:0",
        "0-4-2": "futurepack:color_iron:0",
        "0-4-3": "futurepack:color_iron:0",
        "0-4-4": "futurepack:color_iron:0",
        "0-4-5": "futurepack:color_iron:0",
        "0-4-6": "futurepack:color_iron:0",
        "0-4-7": "futurepack:color_iron:0",
        "0-4-8": "futurepack:color_iron:0",
        "0-4-9": "futurepack:color_iron:0",
        "0-4-10": "futurepack:color_iron:0",
        "0-4-11": "futurepack:color_iron:0",
        "1-0-0": "futurepack:color_iron:7",
        "1-0-1": "futurepack:color_iron:7",
        "1-0-2": "futurepack:color_iron:7",
        "1-0-3": "futurepack:color_iron:7",
        "1-0-4": "futurepack:color_iron:7",
        "1-0-5": "futurepack:color_iron:7",
        "1-0-6": "futurepack:color_iron:7",
        "1-0-7": "futurepack:color_iron:7",
        "1-0-8": "futurepack:color_iron:7",
        "1-0-9": "futurepack:color_iron:7",
        "1-0-10": "futurepack:color_iron:7",
        "1-0-11": "futurepack:color_iron:7",
        "1-0-12": "futurepack:color_iron:7",
        "1-0-13": "futurepack:color_iron:7",
        "1-1-0": "futurepack:color_iron:7",
        "1-1-1": "futurepack:color_iron:7",
        "1-1-2": "minecraft:air:0",
        "1-1-3": "futurepack:wandrope:9",
        "1-1-4": "futurepack:wandrope:9",
        "1-1-5": "minecraft:air:0",
        "1-1-6": "futurepack:color_luftung:7",
        "1-1-7": "futurepack:color_luftung:7",
        "1-1-8": "minecraft:air:0",
        "1-1-9": "minecraft:air:0",
        "1-1-10": "minecraft:air:0",
        "1-1-11": "minecraft:air:0",
        "1-1-12": "futurepack:color_iron:7",
        "1-1-13": "futurepack:color_iron:7",
        "1-2-0": "futurepack:color_iron:15",
        "1-2-1": "futurepack:color_iron:1",
        "1-2-2": "minecraft:air:0",
        "1-2-3": "minecraft:air:0",
        "1-2-4": "minecraft:air:0",
        "1-2-5": "minecraft:air:0",
        "1-2-6": "futurepack:color_luftung:7",
        "1-2-7": "futurepack:color_luftung:7",
        "1-2-8": "futurepack:color_iron_step_half_0:7",
        "1-2-9": "futurepack:color_iron_step_half_0:7",
        "1-2-10": "futurepack:color_iron_step_half_0:7",
        "1-2-11": "futurepack:color_iron_step_half_0:7",
        "1-2-12": "futurepack:color_iron:15",
        "1-2-13": "futurepack:color_iron:1",
        "1-3-0": "futurepack:color_iron:0",
        "1-3-1": "futurepack:color_iron:0",
        "1-3-2": "minecraft:air:0",
        "1-3-3": "minecraft:air:0",
        "1-3-4": "minecraft:air:0",
        "1-3-5": "minecraft:air:0",
        "1-3-6": "futurepack:color_iron_fence:7",
        "1-3-7": "minecraft:air:0",
        "1-3-8": "minecraft:air:0",
        "1-3-9": "minecraft:air:0",
        "1-3-10": "minecraft:air:0",
        "1-3-11": "minecraft:air:0",
        "1-3-12": "futurepack:color_iron:0",
        "1-3-13": "futurepack:color_iron:0",
        "1-4-0": "futurepack:color_iron:0",
        "1-4-1": "futurepack:color_iron:0",
        "1-4-2": "futurepack:color_iron:0",
        "1-4-3": "futurepack:color_iron:0",
        "1-4-4": "futurepack:color_iron:0",
        "1-4-5": "futurepack:color_iron:0",
        "1-4-6": "futurepack:color_iron:0",
        "1-4-7": "futurepack:color_iron:0",
        "1-4-8": "futurepack:color_iron:0",
        "1-4-9": "futurepack:color_iron:0",
        "1-4-10": "futurepack:color_iron:0",
        "1-4-11": "futurepack:color_iron:0",
        "1-4-12": "futurepack:color_iron:0",
        "1-4-13": "futurepack:color_iron:0",
        "2-0-0": "futurepack:color_iron:7",
        "2-0-1": "futurepack:color_iron:7",
        "2-0-2": "futurepack:color_iron:7",
        "2-0-3": "futurepack:color_iron:7",
        "2-0-4": "futurepack:color_iron:7",
        "2-0-5": "futurepack:color_iron:7",
        "2-0-6": "futurepack:color_iron:7",
        "2-0-7": "futurepack:color_iron:7",
        "2-0-8": "futurepack:color_iron:7",
        "2-0-9": "futurepack:color_iron:7",
        "2-0-10": "futurepack:color_iron:7",
        "2-0-11": "futurepack:color_iron:7",
        "2-0-12": "futurepack:color_iron:7",
        "2-0-13": "futurepack:color_iron:7",
        "2-1-0": "minecraft:air:0",
        "2-1-1": "minecraft:air:0",
        "2-1-2": "minecraft:air:0",
        "2-1-3": "minecraft:air:0",
        "2-1-4": "minecraft:air:0",
        "2-1-5": "minecraft:air:0",
        "2-1-6": "minecraft:air:0",
        "2-1-7": "minecraft:air:0",
        "2-1-8": "minecraft:air:0",
        "2-1-9": "minecraft:air:0",
        "2-1-10": "minecraft:air:0",
        "2-1-11": "minecraft:air:0",
        "2-1-12": "minecraft:air:0",
        "2-1-13": "minecraft:air:0",
        "2-2-0": "minecraft:air:0",
        "2-2-1": "minecraft:air:0",
        "2-2-2": "minecraft:air:0",
        "2-2-3": "minecraft:air:0",
        "2-2-4": "minecraft:air:0",
        "2-2-5": "minecraft:air:0",
        "2-2-6": "minecraft:air:0",
        "2-2-7": "minecraft:air:0",
        "2-2-8": "minecraft:air:0",
        "2-2-9": "minecraft:air:0",
        "2-2-10": "minecraft:air:0",
        "2-2-11": "minecraft:air:0",
        "2-2-12": "minecraft:air:0",
        "2-2-13": "minecraft:air:0",
        "2-3-0": "minecraft:air:0",
        "2-3-1": "minecraft:air:0",
        "2-3-2": "minecraft:air:0",
        "2-3-3": "minecraft:air:0",
        "2-3-4": "minecraft:air:0",
        "2-3-5": "minecraft:air:0",
        "2-3-6": "minecraft:air:0",
        "2-3-7": "minecraft:air:0",
        "2-3-8": "minecraft:air:0",
        "2-3-9": "minecraft:air:0",
        "2-3-10": "minecraft:air:0",
        "2-3-11": "minecraft:air:0",
        "2-3-12": "minecraft:air:0",
        "2-3-13": "minecraft:air:0",
        "2-4-0": "futurepack:color_iron:0",
        "2-4-1": "futurepack:color_iron:0",
        "2-4-2": "futurepack:color_iron:0",
        "2-4-3": "futurepack:color_plasma_on:0",
        "2-4-4": "futurepack:color_iron:0",
        "2-4-5": "futurepack:color_iron:0",
        "2-4-6": "futurepack:color_iron:0",
        "2-4-7": "futurepack:color_iron:0",
        "2-4-8": "futurepack:color_iron:0",
        "2-4-9": "futurepack:color_iron:0",
        "2-4-10": "futurepack:color_plasma_on:0",
        "2-4-11": "futurepack:color_iron:0",
        "2-4-12": "futurepack:color_iron:0",
        "2-4-13": "futurepack:color_iron:0",
        "3-0-0": "futurepack:color_iron:7",
        "3-0-1": "futurepack:color_iron:7",
        "3-0-2": "futurepack:color_iron:7",
        "3-0-3": "futurepack:color_iron:7",
        "3-0-4": "futurepack:color_iron:7",
        "3-0-5": "futurepack:color_iron:7",
        "3-0-6": "futurepack:color_iron:7",
        "3-0-7": "futurepack:color_iron:7",
        "3-0-8": "futurepack:color_iron:7",
        "3-0-9": "futurepack:color_iron:7",
        "3-0-10": "futurepack:color_iron:7",
        "3-0-11": "futurepack:color_iron:7",
        "3-0-12": "futurepack:color_iron:7",
        "3-0-13": "futurepack:color_iron:7",
        "3-1-0": "minecraft:air:0",
        "3-1-1": "minecraft:air:0",
        "3-1-2": "minecraft:air:0",
        "3-1-3": "minecraft:air:0",
        "3-1-4": "minecraft:air:0",
        "3-1-5": "minecraft:air:0",
        "3-1-6": "minecraft:air:0",
        "3-1-7": "minecraft:air:0",
        "3-1-8": "minecraft:air:0",
        "3-1-9": "minecraft:air:0",
        "3-1-10": "minecraft:air:0",
        "3-1-11": "minecraft:air:0",
        "3-1-12": "minecraft:air:0",
        "3-1-13": "minecraft:air:0",
        "3-2-0": "minecraft:air:0",
        "3-2-1": "minecraft:air:0",
        "3-2-2": "minecraft:air:0",
        "3-2-3": "minecraft:air:0",
        "3-2-4": "minecraft:air:0",
        "3-2-5": "minecraft:air:0",
        "3-2-6": "minecraft:air:0",
        "3-2-7": "minecraft:air:0",
        "3-2-8": "minecraft:air:0",
        "3-2-9": "minecraft:air:0",
        "3-2-10": "minecraft:air:0",
        "3-2-11": "minecraft:air:0",
        "3-2-12": "minecraft:air:0",
        "3-2-13": "minecraft:air:0",
        "3-3-0": "minecraft:air:0",
        "3-3-1": "minecraft:air:0",
        "3-3-2": "minecraft:air:0",
        "3-3-3": "minecraft:air:0",
        "3-3-4": "minecraft:air:0",
        "3-3-5": "minecraft:air:0",
        "3-3-6": "minecraft:air:0",
        "3-3-7": "minecraft:air:0",
        "3-3-8": "minecraft:air:0",
        "3-3-9": "minecraft:air:0",
        "3-3-10": "minecraft:air:0",
        "3-3-11": "minecraft:air:0",
        "3-3-12": "minecraft:air:0",
        "3-3-13": "minecraft:air:0",
        "3-4-0": "futurepack:color_iron:0",
        "3-4-1": "futurepack:color_iron:0",
        "3-4-2": "futurepack:color_iron:0",
        "3-4-3": "futurepack:color_iron:0",
        "3-4-4": "futurepack:color_iron:0",
        "3-4-5": "futurepack:color_plasma_on:0",
        "3-4-6": "futurepack:color_iron:0",
        "3-4-7": "futurepack:color_iron:0",
        "3-4-8": "futurepack:color_plasma_on:0",
        "3-4-9": "futurepack:color_iron:0",
        "3-4-10": "futurepack:color_iron:0",
        "3-4-11": "futurepack:color_iron:0",
        "3-4-12": "futurepack:color_iron:0",
        "3-4-13": "futurepack:color_iron:0",
        "4-0-0": "futurepack:color_iron:7",
        "4-0-1": "futurepack:color_iron:7",
        "4-0-2": "futurepack:color_iron:7",
        "4-0-3": "futurepack:color_iron:7",
        "4-0-4": "futurepack:color_iron:7",
        "4-0-5": "futurepack:color_iron:7",
        "4-0-6": "futurepack:color_iron:7",
        "4-0-7": "futurepack:color_iron:7",
        "4-0-8": "futurepack:color_iron:7",
        "4-0-9": "futurepack:color_iron:7",
        "4-0-10": "futurepack:color_iron:7",
        "4-0-11": "futurepack:color_iron:7",
        "4-0-12": "futurepack:color_iron:7",
        "4-0-13": "futurepack:color_iron:7",
        "4-1-0": "minecraft:air:0",
        "4-1-1": "minecraft:air:0",
        "4-1-2": "minecraft:air:0",
        "4-1-3": "minecraft:air:0",
        "4-1-4": "minecraft:air:0",
        "4-1-5": "minecraft:air:0",
        "4-1-6": "minecraft:air:0",
        "4-1-7": "minecraft:air:0",
        "4-1-8": "minecraft:air:0",
        "4-1-9": "minecraft:air:0",
        "4-1-10": "minecraft:air:0",
        "4-1-11": "minecraft:air:0",
        "4-1-12": "minecraft:air:0",
        "4-1-13": "minecraft:air:0",
        "4-2-0": "minecraft:air:0",
        "4-2-1": "minecraft:air:0",
        "4-2-2": "minecraft:air:0",
        "4-2-3": "minecraft:air:0",
        "4-2-4": "minecraft:air:0",
        "4-2-5": "minecraft:air:0",
        "4-2-6": "minecraft:air:0",
        "4-2-7": "minecraft:air:0",
        "4-2-8": "minecraft:air:0",
        "4-2-9": "minecraft:air:0",
        "4-2-10": "minecraft:air:0",
        "4-2-11": "minecraft:air:0",
        "4-2-12": "minecraft:air:0",
        "4-2-13": "minecraft:air:0",
        "4-3-0": "minecraft:air:0",
        "4-3-1": "minecraft:air:0",
        "4-3-2": "minecraft:air:0",
        "4-3-3": "minecraft:air:0",
        "4-3-4": "minecraft:air:0",
        "4-3-5": "minecraft:air:0",
        "4-3-6": "minecraft:air:0",
        "4-3-7": "minecraft:air:0",
        "4-3-8": "minecraft:air:0",
        "4-3-9": "minecraft:air:0",
        "4-3-10": "minecraft:air:0",
        "4-3-11": "minecraft:air:0",
        "4-3-12": "minecraft:air:0",
        "4-3-13": "minecraft:air:0",
        "4-4-0": "futurepack:color_iron:0",
        "4-4-1": "futurepack:color_iron:0",
        "4-4-2": "futurepack:color_iron:0",
        "4-4-3": "futurepack:color_plasma_on:0",
        "4-4-4": "futurepack:color_iron:0",
        "4-4-5": "futurepack:color_iron:0",
        "4-4-6": "futurepack:color_iron:0",
        "4-4-7": "futurepack:color_iron:0",
        "4-4-8": "futurepack:color_iron:0",
        "4-4-9": "futurepack:color_iron:0",
        "4-4-10": "futurepack:color_plasma_on:0",
        "4-4-11": "futurepack:color_iron:0",
        "4-4-12": "futurepack:color_iron:0",
        "4-4-13": "futurepack:color_iron:0",
        "5-0-0": "futurepack:color_iron:7",
        "5-0-1": "futurepack:color_iron:7",
        "5-0-2": "futurepack:color_iron:7",
        "5-0-3": "futurepack:color_iron:7",
        "5-0-4": "futurepack:color_iron:7",
        "5-0-5": "futurepack:color_iron:7",
        "5-0-6": "futurepack:color_iron:7",
        "5-0-7": "futurepack:color_iron:7",
        "5-0-8": "futurepack:color_iron:7",
        "5-0-9": "futurepack:color_iron:7",
        "5-0-10": "futurepack:color_iron:7",
        "5-0-11": "futurepack:color_iron:7",
        "5-0-12": "futurepack:color_iron:7",
        "5-0-13": "futurepack:color_iron:7",
        "5-1-0": "futurepack:color_iron:7",
        "5-1-1": "futurepack:color_iron:7",
        "5-1-2": "minecraft:air:0",
        "5-1-3": "minecraft:air:0",
        "5-1-4": "minecraft:air:0",
        "5-1-5": "minecraft:air:0",
        "5-1-6": "futurepack:color_luftung:7",
        "5-1-7": "futurepack:color_luftung:7",
        "5-1-8": "minecraft:air:0",
        "5-1-9": "futurepack:wandrope:11",
        "5-1-10": "futurepack:wandrope:11",
        "5-1-11": "minecraft:air:0",
        "5-1-12": "futurepack:color_iron:7",
        "5-1-13": "futurepack:color_iron:7",
        "5-2-0": "futurepack:color_iron:15",
        "5-2-1": "futurepack:color_iron:1",
        "5-2-2": "futurepack:color_iron_step_half_0:7",
        "5-2-3": "futurepack:color_iron_step_half_0:7",
        "5-2-4": "futurepack:color_iron_step_half_0:7",
        "5-2-5": "futurepack:color_iron_step_half_0:7",
        "5-2-6": "futurepack:color_luftung:7",
        "5-2-7": "futurepack:color_luftung:7",
        "5-2-8": "minecraft:air:0",
        "5-2-9": "minecraft:air:0",
        "5-2-10": "minecraft:air:0",
        "5-2-11": "minecraft:air:0",
        "5-2-12": "futurepack:color_iron:15",
        "5-2-13": "futurepack:color_iron:1",
        "5-3-0": "futurepack:color_iron:0",
        "5-3-1": "futurepack:color_iron:0",
        "5-3-2": "minecraft:air:0",
        "5-3-3": "minecraft:air:0",
        "5-3-4": "minecraft:air:0",
        "5-3-5": "minecraft:air:0",
        "5-3-6": "minecraft:air:0",
        "5-3-7": "futurepack:color_iron_fence:7",
        "5-3-8": "minecraft:air:0",
        "5-3-9": "minecraft:air:0",
        "5-3-10": "minecraft:air:0",
        "5-3-11": "minecraft:air:0",
        "5-3-12": "futurepack:color_iron:0",
        "5-3-13": "futurepack:color_iron:0",
        "5-4-0": "futurepack:color_iron:0",
        "5-4-1": "futurepack:color_iron:0",
        "5-4-2": "futurepack:color_iron:0",
        "5-4-3": "futurepack:color_iron:0",
        "5-4-4": "futurepack:color_iron:0",
        "5-4-5": "futurepack:color_iron:0",
        "5-4-6": "futurepack:color_iron:0",
        "5-4-7": "futurepack:color_iron:0",
        "5-4-8": "futurepack:color_iron:0",
        "5-4-9": "futurepack:color_iron:0",
        "5-4-10": "futurepack:color_iron:0",
        "5-4-11": "futurepack:color_iron:0",
        "5-4-12": "futurepack:color_iron:0",
        "5-4-13": "futurepack:color_iron:0",
        "6-0-2": "futurepack:color_iron:7",
        "6-0-3": "futurepack:color_iron:7",
        "6-0-4": "futurepack:color_iron:7",
        "6-0-5": "futurepack:color_iron:7",
        "6-0-8": "futurepack:color_iron:7",
        "6-0-9": "futurepack:color_iron:7",
        "6-0-10": "futurepack:color_iron:7",
        "6-0-11": "futurepack:color_iron:7",
        "6-1-2": "futurepack:color_iron:7",
        "6-1-3": "futurepack:color_iron:7",
        "6-1-4": "futurepack:color_iron:7",
        "6-1-5": "futurepack:color_iron:7",
        "6-1-8": "futurepack:color_iron:7",
        "6-1-9": "futurepack:color_iron:7",
        "6-1-10": "futurepack:color_iron:7",
        "6-1-11": "futurepack:color_iron:7",
        "6-2-2": "futurepack:color_iron:15",
        "6-2-3": "futurepack:color_iron:1",
        "6-2-4": "futurepack:color_iron:15",
        "6-2-5": "futurepack:color_iron:1",
        "6-2-8": "futurepack:color_iron:15",
        "6-2-9": "futurepack:color_iron:1",
        "6-2-10": "futurepack:color_iron:15",
        "6-2-11": "futurepack:color_iron:1",
        "6-3-2": "futurepack:color_iron:0",
        "6-3-3": "futurepack:color_iron:0",
        "6-3-4": "futurepack:color_iron:0",
        "6-3-5": "futurepack:color_iron:15",
        "6-3-6": "futurepack:color_iron:1",
        "6-3-7": "futurepack:color_iron:15",
        "6-3-8": "futurepack:color_iron:1",
        "6-3-9": "futurepack:color_iron:0",
        "6-3-10": "futurepack:color_iron:0",
        "6-3-11": "futurepack:color_iron:0",
        "6-4-2": "futurepack:color_iron:0",
        "6-4-3": "futurepack:color_iron:0",
        "6-4-4": "futurepack:color_iron:0",
        "6-4-5": "futurepack:color_iron:0",
        "6-4-6": "futurepack:color_iron:0",
        "6-4-7": "futurepack:color_iron:0",
        "6-4-8": "futurepack:color_iron:0",
        "6-4-9": "futurepack:color_iron:0",
        "6-4-10": "futurepack:color_iron:0",
        "6-4-11": "futurepack:color_iron:0"
    },

    "inventorys": 
    [
        {"pos": "1-1-3", "loot": "futurepack:chests/random_chest"},
        {"pos": "1-1-4", "loot": "futurepack:chests/random_chest"},
        {"pos": "5-1-9", "loot": "futurepack:chests/random_chest"},
        {"pos": "5-1-10", "loot": "futurepack:chests/random_chest"}
    ],

    "doors": 
    [
        {
            "facing": 2,
            "w": 3,
            "h": 3,
            "d": 1,
            "start": "2,1,0"
        },

        {
            "facing": 3,
            "w": 3,
            "h": 3,
            "d": 1,
            "start": "2,1,13"
        }
    ]
}