{
    "data": 
    {
        "0-0-0": "minecraft:air:0",
        "0-0-1": "minecraft:air:0",
        "0-0-2": "minecraft:air:0",
        "0-0-3": "minecraft:air:0",
        "0-0-4": "minecraft:air:0",
        "0-0-5": "minecraft:air:0",
        "0-0-6": "minecraft:air:0",
        "0-0-7": "minecraft:air:0",
        "0-0-8": "minecraft:air:0",
        "0-0-9": "minecraft:air:0",
        "0-0-10": "minecraft:air:0",
        "0-0-11": "minecraft:air:0",
        "0-0-12": "minecraft:air:0",
        "0-0-13": "minecraft:air:0",
        "0-0-14": "minecraft:air:0",
        "0-0-15": "minecraft:air:0",
        "0-0-16": "minecraft:air:0",
        "0-0-17": "minecraft:air:0",
        "0-1-0": "minecraft:air:0",
        "0-1-1": "minecraft:air:0",
        "0-1-2": "minecraft:air:0",
        "0-1-3": "minecraft:air:0",
        "0-1-4": "minecraft:air:0",
        "0-1-5": "minecraft:air:0",
        "0-1-6": "minecraft:air:0",
        "0-1-7": "minecraft:air:0",
        "0-1-8": "minecraft:air:0",
        "0-1-9": "minecraft:air:0",
        "0-1-10": "minecraft:air:0",
        "0-1-11": "minecraft:air:0",
        "0-1-12": "minecraft:air:0",
        "0-1-13": "minecraft:air:0",
        "0-1-14": "minecraft:air:0",
        "0-1-15": "minecraft:air:0",
        "0-1-16": "minecraft:air:0",
        "0-1-17": "minecraft:air:0",
        "0-2-0": "minecraft:air:0",
        "0-2-1": "minecraft:air:0",
        "0-2-2": "minecraft:air:0",
        "0-2-3": "minecraft:air:0",
        "0-2-4": "minecraft:air:0",
        "0-2-5": "minecraft:air:0",
        "0-2-6": "minecraft:air:0",
        "0-2-7": "minecraft:air:0",
        "0-2-8": "minecraft:air:0",
        "0-2-9": "minecraft:air:0",
        "0-2-10": "minecraft:air:0",
        "0-2-11": "minecraft:air:0",
        "0-2-12": "minecraft:air:0",
        "0-2-13": "minecraft:air:0",
        "0-2-14": "minecraft:air:0",
        "0-2-15": "minecraft:air:0",
        "0-2-16": "minecraft:air:0",
        "0-2-17": "minecraft:air:0",
        "0-3-0": "minecraft:air:0",
        "0-3-1": "minecraft:air:0",
        "0-3-2": "minecraft:air:0",
        "0-3-3": "minecraft:air:0",
        "0-3-4": "minecraft:air:0",
        "0-3-5": "minecraft:air:0",
        "0-3-6": "minecraft:air:0",
        "0-3-7": "minecraft:air:0",
        "0-3-8": "minecraft:air:0",
        "0-3-9": "minecraft:air:0",
        "0-3-10": "minecraft:air:0",
        "0-3-11": "minecraft:air:0",
        "0-3-12": "minecraft:air:0",
        "0-3-13": "minecraft:air:0",
        "0-3-14": "minecraft:air:0",
        "0-3-15": "minecraft:air:0",
        "0-3-16": "minecraft:air:0",
        "0-3-17": "minecraft:air:0",
        "0-4-0": "minecraft:air:0",
        "0-4-1": "minecraft:air:0",
        "0-4-2": "minecraft:air:0",
        "0-4-3": "minecraft:air:0",
        "0-4-4": "minecraft:air:0",
        "0-4-5": "minecraft:air:0",
        "0-4-6": "minecraft:air:0",
        "0-4-7": "minecraft:air:0",
        "0-4-8": "minecraft:air:0",
        "0-4-9": "minecraft:air:0",
        "0-4-10": "minecraft:air:0",
        "0-4-11": "minecraft:air:0",
        "0-4-12": "minecraft:air:0",
        "0-4-13": "minecraft:air:0",
        "0-4-14": "minecraft:air:0",
        "0-4-15": "minecraft:air:0",
        "0-4-16": "minecraft:air:0",
        "0-4-17": "minecraft:air:0",
        "1-0-0": "minecraft:air:0",
        "1-0-1": "minecraft:air:0",
        "1-0-2": "minecraft:air:0",
        "1-0-3": "minecraft:air:0",
        "1-0-4": "minecraft:air:0",
        "1-0-5": "minecraft:air:0",
        "1-0-6": "minecraft:air:0",
        "1-0-7": "minecraft:air:0",
        "1-0-8": "minecraft:air:0",
        "1-0-9": "minecraft:air:0",
        "1-0-10": "minecraft:air:0",
        "1-0-11": "minecraft:air:0",
        "1-0-12": "minecraft:air:0",
        "1-0-13": "minecraft:air:0",
        "1-0-14": "minecraft:air:0",
        "1-0-15": "minecraft:air:0",
        "1-0-16": "minecraft:air:0",
        "1-0-17": "minecraft:air:0",
        "1-1-0": "minecraft:air:0",
        "1-1-1": "minecraft:air:0",
        "1-1-2": "minecraft:air:0",
        "1-1-3": "minecraft:air:0",
        "1-1-4": "minecraft:air:0",
        "1-1-5": "minecraft:air:0",
        "1-1-6": "minecraft:air:0",
        "1-1-7": "minecraft:air:0",
        "1-1-8": "minecraft:air:0",
        "1-1-9": "minecraft:air:0",
        "1-1-10": "minecraft:air:0",
        "1-1-11": "minecraft:air:0",
        "1-1-12": "minecraft:air:0",
        "1-1-13": "minecraft:air:0",
        "1-1-14": "minecraft:air:0",
        "1-1-15": "minecraft:air:0",
        "1-1-16": "minecraft:air:0",
        "1-1-17": "minecraft:air:0",
        "1-2-0": "minecraft:air:0",
        "1-2-1": "minecraft:air:0",
        "1-2-2": "minecraft:air:0",
        "1-2-3": "minecraft:air:0",
        "1-2-4": "minecraft:air:0",
        "1-2-5": "minecraft:air:0",
        "1-2-6": "minecraft:air:0",
        "1-2-7": "minecraft:air:0",
        "1-2-8": "minecraft:air:0",
        "1-2-9": "minecraft:air:0",
        "1-2-10": "minecraft:air:0",
        "1-2-11": "minecraft:air:0",
        "1-2-12": "minecraft:air:0",
        "1-2-13": "minecraft:air:0",
        "1-2-14": "minecraft:air:0",
        "1-2-15": "minecraft:air:0",
        "1-2-16": "minecraft:air:0",
        "1-2-17": "minecraft:air:0",
        "1-3-0": "minecraft:air:0",
        "1-3-1": "minecraft:air:0",
        "1-3-2": "minecraft:air:0",
        "1-3-3": "minecraft:air:0",
        "1-3-4": "minecraft:air:0",
        "1-3-5": "minecraft:air:0",
        "1-3-6": "minecraft:air:0",
        "1-3-7": "minecraft:air:0",
        "1-3-8": "minecraft:air:0",
        "1-3-9": "minecraft:air:0",
        "1-3-10": "minecraft:air:0",
        "1-3-11": "minecraft:air:0",
        "1-3-12": "minecraft:air:0",
        "1-3-13": "minecraft:air:0",
        "1-3-14": "minecraft:air:0",
        "1-3-15": "minecraft:air:0",
        "1-3-16": "minecraft:air:0",
        "1-3-17": "minecraft:air:0",
        "1-4-0": "minecraft:air:0",
        "1-4-1": "minecraft:air:0",
        "1-4-2": "minecraft:air:0",
        "1-4-3": "minecraft:air:0",
        "1-4-4": "minecraft:air:0",
        "1-4-5": "minecraft:air:0",
        "1-4-6": "minecraft:air:0",
        "1-4-7": "minecraft:air:0",
        "1-4-8": "minecraft:air:0",
        "1-4-9": "minecraft:air:0",
        "1-4-10": "minecraft:air:0",
        "1-4-11": "minecraft:air:0",
        "1-4-12": "minecraft:air:0",
        "1-4-13": "minecraft:air:0",
        "1-4-14": "minecraft:air:0",
        "1-4-15": "minecraft:air:0",
        "1-4-16": "minecraft:air:0",
        "1-4-17": "minecraft:air:0",
        "2-0-0": "minecraft:air:0",
        "2-0-1": "minecraft:air:0",
        "2-0-2": "minecraft:air:0",
        "2-0-3": "minecraft:air:0",
        "2-0-4": "minecraft:air:0",
        "2-0-5": "minecraft:air:0",
        "2-0-6": "minecraft:air:0",
        "2-0-7": "minecraft:air:0",
        "2-0-8": "minecraft:air:0",
        "2-0-9": "minecraft:air:0",
        "2-0-10": "minecraft:air:0",
        "2-0-11": "minecraft:air:0",
        "2-0-12": "minecraft:air:0",
        "2-0-13": "minecraft:air:0",
        "2-0-14": "minecraft:air:0",
        "2-0-15": "minecraft:air:0",
        "2-0-16": "minecraft:air:0",
        "2-0-17": "minecraft:air:0",
        "2-1-0": "minecraft:air:0",
        "2-1-1": "minecraft:air:0",
        "2-1-2": "minecraft:air:0",
        "2-1-3": "minecraft:air:0",
        "2-1-4": "minecraft:air:0",
        "2-1-5": "minecraft:air:0",
        "2-1-6": "minecraft:air:0",
        "2-1-7": "minecraft:air:0",
        "2-1-8": "minecraft:air:0",
        "2-1-9": "minecraft:air:0",
        "2-1-10": "minecraft:air:0",
        "2-1-11": "minecraft:air:0",
        "2-1-12": "minecraft:air:0",
        "2-1-13": "minecraft:air:0",
        "2-1-14": "minecraft:air:0",
        "2-1-15": "minecraft:air:0",
        "2-1-16": "minecraft:air:0",
        "2-1-17": "minecraft:air:0",
        "2-2-0": "minecraft:air:0",
        "2-2-1": "minecraft:air:0",
        "2-2-2": "minecraft:air:0",
        "2-2-3": "minecraft:air:0",
        "2-2-4": "minecraft:air:0",
        "2-2-5": "minecraft:air:0",
        "2-2-6": "minecraft:air:0",
        "2-2-7": "minecraft:air:0",
        "2-2-8": "minecraft:air:0",
        "2-2-9": "minecraft:air:0",
        "2-2-10": "minecraft:air:0",
        "2-2-11": "minecraft:air:0",
        "2-2-12": "minecraft:air:0",
        "2-2-13": "minecraft:air:0",
        "2-2-14": "minecraft:air:0",
        "2-2-15": "minecraft:air:0",
        "2-2-16": "minecraft:air:0",
        "2-2-17": "minecraft:air:0",
        "2-3-0": "minecraft:air:0",
        "2-3-1": "minecraft:air:0",
        "2-3-2": "minecraft:air:0",
        "2-3-3": "minecraft:air:0",
        "2-3-4": "minecraft:air:0",
        "2-3-5": "minecraft:air:0",
        "2-3-6": "minecraft:air:0",
        "2-3-7": "minecraft:air:0",
        "2-3-8": "minecraft:air:0",
        "2-3-9": "minecraft:air:0",
        "2-3-10": "minecraft:air:0",
        "2-3-11": "minecraft:air:0",
        "2-3-12": "minecraft:air:0",
        "2-3-13": "minecraft:air:0",
        "2-3-14": "minecraft:air:0",
        "2-3-15": "minecraft:air:0",
        "2-3-16": "minecraft:air:0",
        "2-3-17": "minecraft:air:0",
        "2-4-0": "minecraft:air:0",
        "2-4-1": "minecraft:air:0",
        "2-4-2": "minecraft:air:0",
        "2-4-3": "minecraft:air:0",
        "2-4-4": "minecraft:air:0",
        "2-4-5": "minecraft:air:0",
        "2-4-6": "minecraft:air:0",
        "2-4-7": "minecraft:air:0",
        "2-4-8": "minecraft:air:0",
        "2-4-9": "minecraft:air:0",
        "2-4-10": "minecraft:air:0",
        "2-4-11": "minecraft:air:0",
        "2-4-12": "minecraft:air:0",
        "2-4-13": "minecraft:air:0",
        "2-4-14": "minecraft:air:0",
        "2-4-15": "minecraft:air:0",
        "2-4-16": "minecraft:air:0",
        "2-4-17": "minecraft:air:0",
        "3-0-0": "minecraft:air:0",
        "3-0-1": "minecraft:air:0",
        "3-0-2": "minecraft:air:0",
        "3-0-3": "minecraft:air:0",
        "3-0-4": "minecraft:air:0",
        "3-0-5": "minecraft:air:0",
        "3-0-6": "minecraft:air:0",
        "3-0-7": "minecraft:air:0",
        "3-0-8": "minecraft:air:0",
        "3-0-9": "minecraft:air:0",
        "3-0-10": "minecraft:air:0",
        "3-0-11": "minecraft:air:0",
        "3-0-12": "minecraft:air:0",
        "3-0-13": "minecraft:air:0",
        "3-0-14": "minecraft:air:0",
        "3-0-15": "minecraft:air:0",
        "3-0-16": "minecraft:air:0",
        "3-0-17": "minecraft:air:0",
        "3-1-0": "minecraft:air:0",
        "3-1-1": "minecraft:air:0",
        "3-1-2": "minecraft:air:0",
        "3-1-3": "minecraft:air:0",
        "3-1-4": "minecraft:air:0",
        "3-1-5": "minecraft:air:0",
        "3-1-6": "minecraft:air:0",
        "3-1-7": "minecraft:air:0",
        "3-1-8": "minecraft:air:0",
        "3-1-9": "minecraft:air:0",
        "3-1-10": "minecraft:air:0",
        "3-1-11": "minecraft:air:0",
        "3-1-12": "minecraft:air:0",
        "3-1-13": "minecraft:air:0",
        "3-1-14": "minecraft:air:0",
        "3-1-15": "minecraft:air:0",
        "3-1-16": "minecraft:air:0",
        "3-1-17": "minecraft:air:0",
        "3-2-0": "minecraft:air:0",
        "3-2-1": "minecraft:air:0",
        "3-2-2": "minecraft:air:0",
        "3-2-3": "minecraft:air:0",
        "3-2-4": "minecraft:air:0",
        "3-2-5": "minecraft:air:0",
        "3-2-6": "minecraft:air:0",
        "3-2-7": "minecraft:air:0",
        "3-2-8": "minecraft:air:0",
        "3-2-9": "minecraft:air:0",
        "3-2-10": "minecraft:air:0",
        "3-2-11": "minecraft:air:0",
        "3-2-12": "minecraft:air:0",
        "3-2-13": "minecraft:air:0",
        "3-2-14": "minecraft:air:0",
        "3-2-15": "minecraft:air:0",
        "3-2-16": "minecraft:air:0",
        "3-2-17": "minecraft:air:0",
        "3-3-0": "minecraft:air:0",
        "3-3-1": "minecraft:air:0",
        "3-3-2": "minecraft:air:0",
        "3-3-3": "minecraft:air:0",
        "3-3-4": "minecraft:air:0",
        "3-3-5": "minecraft:air:0",
        "3-3-6": "minecraft:air:0",
        "3-3-7": "minecraft:air:0",
        "3-3-8": "minecraft:air:0",
        "3-3-9": "minecraft:air:0",
        "3-3-10": "minecraft:air:0",
        "3-3-11": "minecraft:air:0",
        "3-3-12": "minecraft:air:0",
        "3-3-13": "minecraft:air:0",
        "3-3-14": "minecraft:air:0",
        "3-3-15": "minecraft:air:0",
        "3-3-16": "minecraft:air:0",
        "3-3-17": "minecraft:air:0",
        "3-4-0": "minecraft:air:0",
        "3-4-1": "minecraft:air:0",
        "3-4-2": "minecraft:air:0",
        "3-4-3": "minecraft:air:0",
        "3-4-4": "minecraft:air:0",
        "3-4-5": "minecraft:air:0",
        "3-4-6": "minecraft:air:0",
        "3-4-7": "minecraft:air:0",
        "3-4-8": "minecraft:air:0",
        "3-4-9": "minecraft:air:0",
        "3-4-10": "minecraft:air:0",
        "3-4-11": "minecraft:air:0",
        "3-4-12": "minecraft:air:0",
        "3-4-13": "minecraft:air:0",
        "3-4-14": "minecraft:air:0",
        "3-4-15": "minecraft:air:0",
        "3-4-16": "minecraft:air:0",
        "3-4-17": "minecraft:air:0"
    },

    "inventorys": 
    [
        
    ],

    "doors": 
    [
        {
            "facing": 4,
            "w": 1,
            "h": 3,
            "d": 3,
            "start": "0,1,3"
        },

        {
            "facing": 4,
            "w": 1,
            "h": 3,
            "d": 3,
            "start": "0,1,12"
        },

        {
            "facing": 2,
            "w": 3,
            "h": 3,
            "d": 1,
            "start": "3,1,0"
        },

        {
            "facing": 3,
            "w": 3,
            "h": 3,
            "d": 1,
            "start": "3,1,17"
        },

        {
            "facing": 5,
            "w": 1,
            "h": 3,
            "d": 3,
            "start": "8,1,3"
        },

        {
            "facing": 5,
            "w": 1,
            "h": 3,
            "d": 3,
            "start": "8,1,12"
        }
    ]
}