{
    "data": 
    {
        "0-0-2": "futurepack:color_iron:7",
        "0-0-3": "futurepack:color_iron:7",
        "0-0-4": "futurepack:color_iron:7",
        "0-0-5": "futurepack:color_iron:7",
        "0-0-6": "futurepack:color_iron:7",
        "0-0-7": "futurepack:color_iron:7",
        "0-0-8": "futurepack:color_iron:7",
        "0-0-9": "futurepack:color_iron:7",
        "0-0-10": "futurepack:color_iron:7",
        "0-0-11": "futurepack:color_iron:7",
        "0-0-12": "futurepack:color_iron:7",
        "0-0-13": "futurepack:color_iron:7",
        "0-0-14": "futurepack:color_iron:7",
        "0-0-15": "futurepack:color_iron:7",
        "0-1-2": "futurepack:color_iron:7",
        "0-1-3": "minecraft:air:0",
        "0-1-4": "minecraft:air:0",
        "0-1-5": "minecraft:air:0",
        "0-1-6": "futurepack:color_iron:7",
        "0-1-7": "futurepack:color_iron:7",
        "0-1-8": "futurepack:color_iron:7",
        "0-1-9": "futurepack:color_iron:7",
        "0-1-10": "futurepack:color_iron:7",
        "0-1-11": "futurepack:color_iron:7",
        "0-1-12": "minecraft:air:0",
        "0-1-13": "minecraft:air:0",
        "0-1-14": "minecraft:air:0",
        "0-1-15": "futurepack:color_iron:7",
        "0-2-2": "futurepack:color_iron:1",
        "0-2-3": "minecraft:air:0",
        "0-2-4": "minecraft:air:0",
        "0-2-5": "minecraft:air:0",
        "0-2-6": "futurepack:color_iron:1",
        "0-2-7": "futurepack:color_iron:15",
        "0-2-8": "futurepack:color_iron:1",
        "0-2-9": "futurepack:color_iron:15",
        "0-2-10": "futurepack:color_iron:1",
        "0-2-11": "futurepack:color_iron:15",
        "0-2-12": "minecraft:air:0",
        "0-2-13": "minecraft:air:0",
        "0-2-14": "minecraft:air:0",
        "0-2-15": "futurepack:color_iron:15",
        "0-3-2": "futurepack:color_iron:0",
        "0-3-3": "minecraft:air:0",
        "0-3-4": "minecraft:air:0",
        "0-3-5": "minecraft:air:0",
        "0-3-6": "futurepack:color_iron:0",
        "0-3-7": "futurepack:color_iron:0",
        "0-3-8": "futurepack:color_iron:0",
        "0-3-9": "futurepack:color_iron:0",
        "0-3-10": "futurepack:color_iron:0",
        "0-3-11": "futurepack:color_iron:0",
        "0-3-12": "minecraft:air:0",
        "0-3-13": "minecraft:air:0",
        "0-3-14": "minecraft:air:0",
        "0-3-15": "futurepack:color_iron:0",
        "0-4-2": "futurepack:color_iron:0",
        "0-4-3": "futurepack:color_iron:0",
        "0-4-4": "futurepack:color_iron:0",
        "0-4-5": "futurepack:color_iron:0",
        "0-4-6": "futurepack:color_iron:0",
        "0-4-7": "futurepack:color_iron:0",
        "0-4-8": "futurepack:color_iron:0",
        "0-4-9": "futurepack:color_iron:0",
        "0-4-10": "futurepack:color_iron:0",
        "0-4-11": "futurepack:color_iron:0",
        "0-4-12": "futurepack:color_iron:0",
        "0-4-13": "futurepack:color_iron:0",
        "0-4-14": "futurepack:color_iron:0",
        "0-4-15": "futurepack:color_iron:0",
        "1-0-1": "futurepack:color_iron:7",
        "1-0-2": "futurepack:color_iron:7",
        "1-0-3": "futurepack:color_iron:7",
        "1-0-4": "futurepack:color_iron:7",
        "1-0-5": "futurepack:color_iron:7",
        "1-0-6": "futurepack:color_iron:7",
        "1-0-7": "futurepack:color_iron:7",
        "1-0-8": "futurepack:color_iron:7",
        "1-0-9": "futurepack:color_iron:7",
        "1-0-10": "futurepack:color_iron:7",
        "1-0-11": "futurepack:color_iron:7",
        "1-0-12": "futurepack:color_iron:7",
        "1-0-13": "futurepack:color_iron:7",
        "1-0-14": "futurepack:color_iron:7",
        "1-0-15": "futurepack:color_iron:7",
        "1-0-16": "futurepack:color_iron:7",
        "1-1-1": "futurepack:color_iron:7",
        "1-1-2": "minecraft:air:0",
        "1-1-3": "minecraft:air:0",
        "1-1-4": "minecraft:air:0",
        "1-1-5": "minecraft:air:0",
        "1-1-6": "futurepack:color_iron:7",
        "1-1-7": "minecraft:bed:0",
        "1-1-8": "minecraft:bed:8",
        "1-1-9": "minecraft:bed:10",
        "1-1-10": "minecraft:bed:2",
        "1-1-11": "futurepack:color_iron:7",
        "1-1-12": "minecraft:air:0",
        "1-1-13": "minecraft:air:0",
        "1-1-14": "minecraft:air:0",
        "1-1-15": "minecraft:air:0",
        "1-1-16": "futurepack:color_iron:7",
        "1-2-1": "futurepack:color_iron:15",
        "1-2-2": "minecraft:air:0",
        "1-2-3": "minecraft:air:0",
        "1-2-4": "minecraft:air:0",
        "1-2-5": "minecraft:air:0",
        "1-2-6": "futurepack:color_iron_fence:8",
        "1-2-7": "minecraft:air:0",
        "1-2-8": "minecraft:air:0",
        "1-2-9": "minecraft:air:0",
        "1-2-10": "minecraft:air:0",
        "1-2-11": "futurepack:color_iron_fence:8",
        "1-2-12": "minecraft:air:0",
        "1-2-13": "minecraft:air:0",
        "1-2-14": "minecraft:air:0",
        "1-2-15": "minecraft:air:0",
        "1-2-16": "futurepack:color_iron:1",
        "1-3-1": "futurepack:color_iron:0",
        "1-3-2": "minecraft:air:0",
        "1-3-3": "minecraft:air:0",
        "1-3-4": "minecraft:air:0",
        "1-3-5": "minecraft:air:0",
        "1-3-6": "futurepack:color_iron_fence:8",
        "1-3-7": "futurepack:wandrope:6",
        "1-3-8": "futurepack:wandrope:6",
        "1-3-9": "futurepack:wandrope:6",
        "1-3-10": "futurepack:wandrope:6",
        "1-3-11": "futurepack:color_iron_fence:8",
        "1-3-12": "minecraft:air:0",
        "1-3-13": "minecraft:air:0",
        "1-3-14": "minecraft:air:0",
        "1-3-15": "minecraft:air:0",
        "1-3-16": "futurepack:color_iron:0",
        "1-4-1": "futurepack:color_iron:0",
        "1-4-2": "futurepack:color_iron:0",
        "1-4-3": "futurepack:color_iron:0",
        "1-4-4": "futurepack:color_plasma_on:0",
        "1-4-5": "futurepack:color_iron:0",
        "1-4-6": "futurepack:color_iron:0",
        "1-4-7": "futurepack:color_iron:0",
        "1-4-8": "futurepack:color_iron:0",
        "1-4-9": "futurepack:color_iron:0",
        "1-4-10": "futurepack:color_iron:0",
        "1-4-11": "futurepack:color_iron:0",
        "1-4-12": "futurepack:color_iron:0",
        "1-4-13": "futurepack:color_plasma_on:0",
        "1-4-14": "futurepack:color_iron:0",
        "1-4-15": "futurepack:color_iron:0",
        "1-4-16": "futurepack:color_iron:0",
        "2-0-0": "futurepack:color_iron:7",
        "2-0-1": "futurepack:color_iron:7",
        "2-0-2": "futurepack:color_iron:7",
        "2-0-3": "futurepack:color_iron:7",
        "2-0-4": "futurepack:color_iron:7",
        "2-0-5": "futurepack:color_iron:7",
        "2-0-6": "futurepack:color_iron:7",
        "2-0-7": "futurepack:color_iron:7",
        "2-0-8": "futurepack:color_iron:7",
        "2-0-9": "futurepack:color_iron:7",
        "2-0-10": "futurepack:color_iron:7",
        "2-0-11": "futurepack:color_iron:7",
        "2-0-12": "futurepack:color_iron:7",
        "2-0-13": "futurepack:color_iron:7",
        "2-0-14": "futurepack:color_iron:7",
        "2-0-15": "futurepack:color_iron:7",
        "2-0-16": "futurepack:color_iron:7",
        "2-0-17": "futurepack:color_iron:7",
        "2-1-0": "futurepack:color_iron:7",
        "2-1-1": "minecraft:air:0",
        "2-1-2": "minecraft:air:0",
        "2-1-3": "minecraft:air:0",
        "2-1-4": "minecraft:air:0",
        "2-1-5": "minecraft:air:0",
        "2-1-6": "minecraft:air:0",
        "2-1-7": "minecraft:air:0",
        "2-1-8": "minecraft:air:0",
        "2-1-9": "minecraft:air:0",
        "2-1-10": "minecraft:air:0",
        "2-1-11": "minecraft:air:0",
        "2-1-12": "minecraft:air:0",
        "2-1-13": "minecraft:air:0",
        "2-1-14": "minecraft:air:0",
        "2-1-15": "minecraft:air:0",
        "2-1-16": "minecraft:air:0",
        "2-1-17": "futurepack:color_iron:7",
        "2-2-0": "futurepack:color_iron:1",
        "2-2-1": "minecraft:air:0",
        "2-2-2": "minecraft:air:0",
        "2-2-3": "minecraft:air:0",
        "2-2-4": "minecraft:air:0",
        "2-2-5": "minecraft:air:0",
        "2-2-6": "minecraft:air:0",
        "2-2-7": "minecraft:air:0",
        "2-2-8": "minecraft:air:0",
        "2-2-9": "minecraft:air:0",
        "2-2-10": "minecraft:air:0",
        "2-2-11": "minecraft:air:0",
        "2-2-12": "minecraft:air:0",
        "2-2-13": "minecraft:air:0",
        "2-2-14": "minecraft:air:0",
        "2-2-15": "minecraft:air:0",
        "2-2-16": "minecraft:air:0",
        "2-2-17": "futurepack:color_iron:15",
        "2-3-0": "futurepack:color_iron:0",
        "2-3-1": "minecraft:air:0",
        "2-3-2": "minecraft:air:0",
        "2-3-3": "minecraft:air:0",
        "2-3-4": "minecraft:air:0",
        "2-3-5": "minecraft:air:0",
        "2-3-6": "minecraft:air:0",
        "2-3-7": "minecraft:air:0",
        "2-3-8": "minecraft:air:0",
        "2-3-9": "minecraft:air:0",
        "2-3-10": "minecraft:air:0",
        "2-3-11": "minecraft:air:0",
        "2-3-12": "minecraft:air:0",
        "2-3-13": "minecraft:air:0",
        "2-3-14": "minecraft:air:0",
        "2-3-15": "minecraft:air:0",
        "2-3-16": "minecraft:air:0",
        "2-3-17": "futurepack:color_iron:0",
        "2-4-0": "futurepack:color_iron:0",
        "2-4-1": "futurepack:color_iron:0",
        "2-4-2": "futurepack:color_iron:0",
        "2-4-3": "futurepack:color_iron:0",
        "2-4-4": "futurepack:color_iron:0",
        "2-4-5": "futurepack:color_iron:0",
        "2-4-6": "futurepack:color_iron:0",
        "2-4-7": "futurepack:color_iron:0",
        "2-4-8": "futurepack:color_iron:0",
        "2-4-9": "futurepack:color_iron:0",
        "2-4-10": "futurepack:color_iron:0",
        "2-4-11": "futurepack:color_iron:0",
        "2-4-12": "futurepack:color_iron:0",
        "2-4-13": "futurepack:color_iron:0",
        "2-4-14": "futurepack:color_iron:0",
        "2-4-15": "futurepack:color_iron:0",
        "2-4-16": "futurepack:color_iron:0",
        "2-4-17": "futurepack:color_iron:0",
        "3-0-0": "futurepack:color_iron:7",
        "3-0-1": "futurepack:color_iron:7",
        "3-0-2": "futurepack:color_iron:7",
        "3-0-3": "futurepack:color_iron:7",
        "3-0-4": "futurepack:color_iron:7",
        "3-0-5": "futurepack:color_iron:7",
        "3-0-6": "futurepack:color_iron:7",
        "3-0-7": "futurepack:color_iron:7",
        "3-0-8": "futurepack:color_iron:7",
        "3-0-9": "futurepack:color_iron:7",
        "3-0-10": "futurepack:color_iron:7",
        "3-0-11": "futurepack:color_iron:7",
        "3-0-12": "futurepack:color_iron:7",
        "3-0-13": "futurepack:color_iron:7",
        "3-0-14": "futurepack:color_iron:7",
        "3-0-15": "futurepack:color_iron:7",
        "3-0-16": "futurepack:color_iron:7",
        "3-0-17": "futurepack:color_iron:7",
        "3-1-0": "minecraft:air:0",
        "3-1-1": "minecraft:air:0",
        "3-1-2": "minecraft:air:0",
        "3-1-3": "minecraft:air:0",
        "3-1-4": "minecraft:air:0",
        "3-1-5": "minecraft:air:0",
        "3-1-6": "minecraft:air:0",
        "3-1-7": "minecraft:air:0",
        "3-1-8": "minecraft:air:0",
        "3-1-9": "minecraft:air:0",
        "3-1-10": "minecraft:air:0",
        "3-1-11": "minecraft:air:0",
        "3-1-12": "minecraft:air:0",
        "3-1-13": "minecraft:air:0",
        "3-1-14": "minecraft:air:0",
        "3-1-15": "minecraft:air:0",
        "3-1-16": "minecraft:air:0",
        "3-1-17": "minecraft:air:0",
        "3-2-0": "minecraft:air:0",
        "3-2-1": "minecraft:air:0",
        "3-2-2": "minecraft:air:0",
        "3-2-3": "minecraft:air:0",
        "3-2-4": "minecraft:air:0",
        "3-2-5": "minecraft:air:0",
        "3-2-6": "minecraft:air:0",
        "3-2-7": "minecraft:air:0",
        "3-2-8": "minecraft:air:0",
        "3-2-9": "minecraft:air:0",
        "3-2-10": "minecraft:air:0",
        "3-2-11": "minecraft:air:0",
        "3-2-12": "minecraft:air:0",
        "3-2-13": "minecraft:air:0",
        "3-2-14": "minecraft:air:0",
        "3-2-15": "minecraft:air:0",
        "3-2-16": "minecraft:air:0",
        "3-2-17": "minecraft:air:0",
        "3-3-0": "minecraft:air:0",
        "3-3-1": "minecraft:air:0",
        "3-3-2": "minecraft:air:0",
        "3-3-3": "minecraft:air:0",
        "3-3-4": "minecraft:air:0",
        "3-3-5": "minecraft:air:0",
        "3-3-6": "minecraft:air:0",
        "3-3-7": "minecraft:air:0",
        "3-3-8": "minecraft:air:0",
        "3-3-9": "minecraft:air:0",
        "3-3-10": "minecraft:air:0",
        "3-3-11": "minecraft:air:0",
        "3-3-12": "minecraft:air:0",
        "3-3-13": "minecraft:air:0",
        "3-3-14": "minecraft:air:0",
        "3-3-15": "minecraft:air:0",
        "3-3-16": "minecraft:air:0",
        "3-3-17": "minecraft:air:0",
        "3-4-0": "futurepack:color_iron:0",
        "3-4-1": "futurepack:color_iron:0",
        "3-4-2": "futurepack:color_iron:0",
        "3-4-3": "futurepack:color_iron:0",
        "3-4-4": "futurepack:color_iron:0",
        "3-4-5": "futurepack:color_iron:0",
        "3-4-6": "futurepack:color_iron:0",
        "3-4-7": "futurepack:color_iron:0",
        "3-4-8": "futurepack:color_iron:0",
        "3-4-9": "futurepack:color_iron:0",
        "3-4-10": "futurepack:color_iron:0",
        "3-4-11": "futurepack:color_iron:0",
        "3-4-12": "futurepack:color_iron:0",
        "3-4-13": "futurepack:color_iron:0",
        "3-4-14": "futurepack:color_iron:0",
        "3-4-15": "futurepack:color_iron:0",
        "3-4-16": "futurepack:color_iron:0",
        "3-4-17": "futurepack:color_iron:0",
        "4-0-0": "futurepack:color_iron:7",
        "4-0-1": "futurepack:color_iron:7",
        "4-0-2": "futurepack:color_iron:7",
        "4-0-3": "futurepack:color_iron:7",
        "4-0-4": "futurepack:color_iron:7",
        "4-0-5": "futurepack:color_iron:7",
        "4-0-6": "futurepack:color_iron:7",
        "4-0-7": "futurepack:color_iron:7",
        "4-0-8": "futurepack:color_iron:7",
        "4-0-9": "futurepack:color_iron:7",
        "4-0-10": "futurepack:color_iron:7",
        "4-0-11": "futurepack:color_iron:7",
        "4-0-12": "futurepack:color_iron:7",
        "4-0-13": "futurepack:color_iron:7",
        "4-0-14": "futurepack:color_iron:7",
        "4-0-15": "futurepack:color_iron:7",
        "4-0-16": "futurepack:color_iron:7",
        "4-0-17": "futurepack:color_iron:7",
        "4-1-0": "minecraft:air:0",
        "4-1-1": "minecraft:air:0",
        "4-1-2": "minecraft:air:0",
        "4-1-3": "minecraft:air:0",
        "4-1-4": "minecraft:air:0",
        "4-1-5": "minecraft:air:0",
        "4-1-6": "minecraft:air:0",
        "4-1-7": "minecraft:air:0",
        "4-1-8": "minecraft:air:0",
        "4-1-9": "minecraft:air:0",
        "4-1-10": "minecraft:air:0",
        "4-1-11": "minecraft:air:0",
        "4-1-12": "minecraft:air:0",
        "4-1-13": "minecraft:air:0",
        "4-1-14": "minecraft:air:0",
        "4-1-15": "minecraft:air:0",
        "4-1-16": "minecraft:air:0",
        "4-1-17": "minecraft:air:0",
        "4-2-0": "minecraft:air:0",
        "4-2-1": "minecraft:air:0",
        "4-2-2": "minecraft:air:0",
        "4-2-3": "minecraft:air:0",
        "4-2-4": "minecraft:air:0",
        "4-2-5": "minecraft:air:0",
        "4-2-6": "minecraft:air:0",
        "4-2-7": "minecraft:air:0",
        "4-2-8": "minecraft:air:0",
        "4-2-9": "minecraft:air:0",
        "4-2-10": "minecraft:air:0",
        "4-2-11": "minecraft:air:0",
        "4-2-12": "minecraft:air:0",
        "4-2-13": "minecraft:air:0",
        "4-2-14": "minecraft:air:0",
        "4-2-15": "minecraft:air:0",
        "4-2-16": "minecraft:air:0",
        "4-2-17": "minecraft:air:0",
        "4-3-0": "minecraft:air:0",
        "4-3-1": "minecraft:air:0",
        "4-3-2": "minecraft:air:0",
        "4-3-3": "minecraft:air:0",
        "4-3-4": "minecraft:air:0",
        "4-3-5": "minecraft:air:0",
        "4-3-6": "minecraft:air:0",
        "4-3-7": "minecraft:air:0",
        "4-3-8": "minecraft:air:0",
        "4-3-9": "minecraft:air:0",
        "4-3-10": "minecraft:air:0",
        "4-3-11": "minecraft:air:0",
        "4-3-12": "minecraft:air:0",
        "4-3-13": "minecraft:air:0",
        "4-3-14": "minecraft:air:0",
        "4-3-15": "minecraft:air:0",
        "4-3-16": "minecraft:air:0",
        "4-3-17": "minecraft:air:0",
        "4-4-0": "futurepack:color_iron:0",
        "4-4-1": "futurepack:color_plasma_on:0",
        "4-4-2": "futurepack:color_iron:0",
        "4-4-3": "futurepack:color_iron:0",
        "4-4-4": "futurepack:color_plasma_on:0",
        "4-4-5": "futurepack:color_iron:0",
        "4-4-6": "futurepack:color_iron:0",
        "4-4-7": "futurepack:color_plasma_on:0",
        "4-4-8": "futurepack:color_iron:0",
        "4-4-9": "futurepack:color_iron:0",
        "4-4-10": "futurepack:color_plasma_on:0",
        "4-4-11": "futurepack:color_iron:0",
        "4-4-12": "futurepack:color_iron:0",
        "4-4-13": "futurepack:color_plasma_on:0",
        "4-4-14": "futurepack:color_iron:0",
        "4-4-15": "futurepack:color_iron:0",
        "4-4-16": "futurepack:color_plasma_on:0",
        "4-4-17": "futurepack:color_iron:0",
        "5-0-0": "futurepack:color_iron:7",
        "5-0-1": "futurepack:color_iron:7",
        "5-0-2": "futurepack:color_iron:7",
        "5-0-3": "futurepack:color_iron:7",
        "5-0-4": "futurepack:color_iron:7",
        "5-0-5": "futurepack:color_iron:7",
        "5-0-6": "futurepack:color_iron:7",
        "5-0-7": "futurepack:color_iron:7",
        "5-0-8": "futurepack:color_iron:7",
        "5-0-9": "futurepack:color_iron:7",
        "5-0-10": "futurepack:color_iron:7",
        "5-0-11": "futurepack:color_iron:7",
        "5-0-12": "futurepack:color_iron:7",
        "5-0-13": "futurepack:color_iron:7",
        "5-0-14": "futurepack:color_iron:7",
        "5-0-15": "futurepack:color_iron:7",
        "5-0-16": "futurepack:color_iron:7",
        "5-0-17": "futurepack:color_iron:7",
        "5-1-0": "minecraft:air:0",
        "5-1-1": "minecraft:air:0",
        "5-1-2": "minecraft:air:0",
        "5-1-3": "minecraft:air:0",
        "5-1-4": "minecraft:air:0",
        "5-1-5": "minecraft:air:0",
        "5-1-6": "minecraft:air:0",
        "5-1-7": "minecraft:air:0",
        "5-1-8": "minecraft:air:0",
        "5-1-9": "minecraft:air:0",
        "5-1-10": "minecraft:air:0",
        "5-1-11": "minecraft:air:0",
        "5-1-12": "minecraft:air:0",
        "5-1-13": "minecraft:air:0",
        "5-1-14": "minecraft:air:0",
        "5-1-15": "minecraft:air:0",
        "5-1-16": "minecraft:air:0",
        "5-1-17": "minecraft:air:0",
        "5-2-0": "minecraft:air:0",
        "5-2-1": "minecraft:air:0",
        "5-2-2": "minecraft:air:0",
        "5-2-3": "minecraft:air:0",
        "5-2-4": "minecraft:air:0",
        "5-2-5": "minecraft:air:0",
        "5-2-6": "minecraft:air:0",
        "5-2-7": "minecraft:air:0",
        "5-2-8": "minecraft:air:0",
        "5-2-9": "minecraft:air:0",
        "5-2-10": "minecraft:air:0",
        "5-2-11": "minecraft:air:0",
        "5-2-12": "minecraft:air:0",
        "5-2-13": "minecraft:air:0",
        "5-2-14": "minecraft:air:0",
        "5-2-15": "minecraft:air:0",
        "5-2-16": "minecraft:air:0",
        "5-2-17": "minecraft:air:0",
        "5-3-0": "minecraft:air:0",
        "5-3-1": "minecraft:air:0",
        "5-3-2": "minecraft:air:0",
        "5-3-3": "minecraft:air:0",
        "5-3-4": "minecraft:air:0",
        "5-3-5": "minecraft:air:0",
        "5-3-6": "minecraft:air:0",
        "5-3-7": "minecraft:air:0",
        "5-3-8": "minecraft:air:0",
        "5-3-9": "minecraft:air:0",
        "5-3-10": "minecraft:air:0",
        "5-3-11": "minecraft:air:0",
        "5-3-12": "minecraft:air:0",
        "5-3-13": "minecraft:air:0",
        "5-3-14": "minecraft:air:0",
        "5-3-15": "minecraft:air:0",
        "5-3-16": "minecraft:air:0",
        "5-3-17": "minecraft:air:0",
        "5-4-0": "futurepack:color_iron:0",
        "5-4-1": "futurepack:color_iron:0",
        "5-4-2": "futurepack:color_iron:0",
        "5-4-3": "futurepack:color_iron:0",
        "5-4-4": "futurepack:color_iron:0",
        "5-4-5": "futurepack:color_iron:0",
        "5-4-6": "futurepack:color_iron:0",
        "5-4-7": "futurepack:color_iron:0",
        "5-4-8": "futurepack:color_iron:0",
        "5-4-9": "futurepack:color_iron:0",
        "5-4-10": "futurepack:color_iron:0",
        "5-4-11": "futurepack:color_iron:0",
        "5-4-12": "futurepack:color_iron:0",
        "5-4-13": "futurepack:color_iron:0",
        "5-4-14": "futurepack:color_iron:0",
        "5-4-15": "futurepack:color_iron:0",
        "5-4-16": "futurepack:color_iron:0",
        "5-4-17": "futurepack:color_iron:0",
        "6-0-0": "futurepack:color_iron:7",
        "6-0-1": "futurepack:color_iron:7",
        "6-0-2": "futurepack:color_iron:7",
        "6-0-3": "futurepack:color_iron:7",
        "6-0-4": "futurepack:color_iron:7",
        "6-0-5": "futurepack:color_iron:7",
        "6-0-6": "futurepack:color_iron:7",
        "6-0-7": "futurepack:color_iron:7",
        "6-0-8": "futurepack:color_iron:7",
        "6-0-9": "futurepack:color_iron:7",
        "6-0-10": "futurepack:color_iron:7",
        "6-0-11": "futurepack:color_iron:7",
        "6-0-12": "futurepack:color_iron:7",
        "6-0-13": "futurepack:color_iron:7",
        "6-0-14": "futurepack:color_iron:7",
        "6-0-15": "futurepack:color_iron:7",
        "6-0-16": "futurepack:color_iron:7",
        "6-0-17": "futurepack:color_iron:7",
        "6-1-0": "futurepack:color_iron:7",
        "6-1-1": "futurepack:color_iron:7",
        "6-1-2": "minecraft:air:0",
        "6-1-3": "minecraft:air:0",
        "6-1-4": "minecraft:air:0",
        "6-1-5": "futurepack:color_iron:7",
        "6-1-6": "futurepack:color_iron:7",
        "6-1-7": "futurepack:color_iron:7",
        "6-1-8": "minecraft:air:0",
        "6-1-9": "minecraft:air:0",
        "6-1-10": "futurepack:color_iron:7",
        "6-1-11": "futurepack:color_iron:7",
        "6-1-12": "futurepack:color_iron:7",
        "6-1-13": "minecraft:air:0",
        "6-1-14": "minecraft:air:0",
        "6-1-15": "minecraft:air:0",
        "6-1-16": "futurepack:color_iron:7",
        "6-1-17": "futurepack:color_iron:7",
        "6-2-0": "futurepack:color_iron:1",
        "6-2-1": "futurepack:color_iron_fence:8",
        "6-2-2": "minecraft:air:0",
        "6-2-3": "minecraft:air:0",
        "6-2-4": "minecraft:air:0",
        "6-2-5": "futurepack:color_iron_fence:8",
        "6-2-6": "futurepack:color_iron:1",
        "6-2-7": "futurepack:color_iron_fence:8",
        "6-2-8": "minecraft:air:0",
        "6-2-9": "minecraft:air:0",
        "6-2-10": "futurepack:color_iron_fence:8",
        "6-2-11": "futurepack:color_iron:15",
        "6-2-12": "futurepack:color_iron_fence:8",
        "6-2-13": "minecraft:air:0",
        "6-2-14": "minecraft:air:0",
        "6-2-15": "minecraft:air:0",
        "6-2-16": "futurepack:color_iron_fence:8",
        "6-2-17": "futurepack:color_iron:15",
        "6-3-0": "futurepack:color_iron:0",
        "6-3-1": "futurepack:color_iron_fence:8",
        "6-3-2": "minecraft:air:0",
        "6-3-3": "minecraft:air:0",
        "6-3-4": "minecraft:air:0",
        "6-3-5": "futurepack:color_iron_fence:8",
        "6-3-6": "futurepack:color_iron:0",
        "6-3-7": "futurepack:color_iron_fence:8",
        "6-3-8": "minecraft:air:0",
        "6-3-9": "minecraft:air:0",
        "6-3-10": "futurepack:color_iron_fence:8",
        "6-3-11": "futurepack:color_iron:0",
        "6-3-12": "futurepack:color_iron_fence:8",
        "6-3-13": "minecraft:air:0",
        "6-3-14": "minecraft:air:0",
        "6-3-15": "minecraft:air:0",
        "6-3-16": "futurepack:color_iron_fence:8",
        "6-3-17": "futurepack:color_iron:0",
        "6-4-0": "futurepack:color_iron:0",
        "6-4-1": "futurepack:color_iron:0",
        "6-4-2": "futurepack:color_iron:0",
        "6-4-3": "futurepack:color_iron:0",
        "6-4-4": "futurepack:color_iron:0",
        "6-4-5": "futurepack:color_iron:0",
        "6-4-6": "futurepack:color_iron:0",
        "6-4-7": "futurepack:color_iron:0",
        "6-4-8": "futurepack:color_iron:0",
        "6-4-9": "futurepack:color_iron:0",
        "6-4-10": "futurepack:color_iron:0",
        "6-4-11": "futurepack:color_iron:0",
        "6-4-12": "futurepack:color_iron:0",
        "6-4-13": "futurepack:color_iron:0",
        "6-4-14": "futurepack:color_iron:0",
        "6-4-15": "futurepack:color_iron:0",
        "6-4-16": "futurepack:color_iron:0",
        "6-4-17": "futurepack:color_iron:0",
        "7-0-0": "futurepack:color_iron:7",
        "7-0-1": "futurepack:color_iron:7",
        "7-0-2": "futurepack:color_iron:7",
        "7-0-3": "futurepack:color_iron:7",
        "7-0-4": "futurepack:color_iron:7",
        "7-0-5": "futurepack:color_iron:7",
        "7-0-6": "futurepack:color_iron:7",
        "7-0-7": "futurepack:color_iron:7",
        "7-0-8": "futurepack:color_iron:7",
        "7-0-9": "futurepack:color_iron:7",
        "7-0-10": "futurepack:color_iron:7",
        "7-0-11": "futurepack:color_iron:7",
        "7-0-12": "futurepack:color_iron:7",
        "7-0-13": "futurepack:color_iron:7",
        "7-0-14": "futurepack:color_iron:7",
        "7-0-15": "futurepack:color_iron:7",
        "7-0-16": "futurepack:color_iron:7",
        "7-0-17": "futurepack:color_iron:7",
        "7-1-0": "futurepack:color_iron:7",
        "7-1-1": "minecraft:bed:3",
        "7-1-2": "minecraft:air:0",
        "7-1-3": "minecraft:air:0",
        "7-1-4": "minecraft:air:0",
        "7-1-5": "minecraft:bed:3",
        "7-1-6": "futurepack:color_iron:7",
        "7-1-7": "minecraft:bed:3",
        "7-1-8": "minecraft:air:0",
        "7-1-9": "minecraft:air:0",
        "7-1-10": "minecraft:bed:3",
        "7-1-11": "futurepack:color_iron:7",
        "7-1-12": "minecraft:bed:3",
        "7-1-13": "minecraft:air:0",
        "7-1-14": "minecraft:air:0",
        "7-1-15": "minecraft:air:0",
        "7-1-16": "minecraft:bed:3",
        "7-1-17": "futurepack:color_iron:7",
        "7-2-0": "futurepack:color_iron:15",
        "7-2-1": "minecraft:air:0",
        "7-2-2": "minecraft:air:0",
        "7-2-3": "minecraft:air:0",
        "7-2-4": "minecraft:air:0",
        "7-2-5": "minecraft:air:0",
        "7-2-6": "futurepack:color_iron:15",
        "7-2-7": "minecraft:air:0",
        "7-2-8": "minecraft:air:0",
        "7-2-9": "minecraft:air:0",
        "7-2-10": "minecraft:air:0",
        "7-2-11": "futurepack:color_iron:1",
        "7-2-12": "minecraft:air:0",
        "7-2-13": "minecraft:air:0",
        "7-2-14": "minecraft:air:0",
        "7-2-15": "minecraft:air:0",
        "7-2-16": "minecraft:air:0",
        "7-2-17": "futurepack:color_iron:1",
        "7-3-0": "futurepack:color_iron:0",
        "7-3-1": "futurepack:wandrope:6",
        "7-3-2": "minecraft:air:0",
        "7-3-3": "minecraft:air:0",
        "7-3-4": "minecraft:air:0",
        "7-3-5": "futurepack:wandrope:6",
        "7-3-6": "futurepack:color_iron:0",
        "7-3-7": "futurepack:wandrope:6",
        "7-3-8": "minecraft:air:0",
        "7-3-9": "minecraft:air:0",
        "7-3-10": "futurepack:wandrope:6",
        "7-3-11": "futurepack:color_iron:0",
        "7-3-12": "futurepack:wandrope:6",
        "7-3-13": "minecraft:air:0",
        "7-3-14": "minecraft:air:0",
        "7-3-15": "minecraft:air:0",
        "7-3-16": "futurepack:wandrope:6",
        "7-3-17": "futurepack:color_iron:0",
        "7-4-0": "futurepack:color_iron:0",
        "7-4-1": "futurepack:color_iron:0",
        "7-4-2": "futurepack:color_iron:0",
        "7-4-3": "futurepack:color_iron:0",
        "7-4-4": "futurepack:color_plasma_on:0",
        "7-4-5": "futurepack:color_iron:0",
        "7-4-6": "futurepack:color_iron:0",
        "7-4-7": "futurepack:color_iron:0",
        "7-4-8": "futurepack:color_iron:0",
        "7-4-9": "futurepack:color_iron:0",
        "7-4-10": "futurepack:color_iron:0",
        "7-4-11": "futurepack:color_iron:0",
        "7-4-12": "futurepack:color_iron:0",
        "7-4-13": "futurepack:color_plasma_on:0",
        "7-4-14": "futurepack:color_iron:0",
        "7-4-15": "futurepack:color_iron:0",
        "7-4-16": "futurepack:color_iron:0",
        "7-4-17": "futurepack:color_iron:0",
        "8-0-0": "futurepack:color_iron:7",
        "8-0-1": "futurepack:color_iron:7",
        "8-0-2": "futurepack:color_iron:7",
        "8-0-3": "futurepack:color_iron:7",
        "8-0-4": "futurepack:color_iron:7",
        "8-0-5": "futurepack:color_iron:7",
        "8-0-6": "futurepack:color_iron:7",
        "8-0-7": "futurepack:color_iron:7",
        "8-0-8": "futurepack:color_iron:7",
        "8-0-9": "futurepack:color_iron:7",
        "8-0-10": "futurepack:color_iron:7",
        "8-0-11": "futurepack:color_iron:7",
        "8-0-12": "futurepack:color_iron:7",
        "8-0-13": "futurepack:color_iron:7",
        "8-0-14": "futurepack:color_iron:7",
        "8-0-15": "futurepack:color_iron:7",
        "8-0-16": "futurepack:color_iron:7",
        "8-0-17": "futurepack:color_iron:7",
        "8-1-0": "futurepack:color_iron:7",
        "8-1-1": "minecraft:bed:11",
        "8-1-2": "minecraft:air:0",
        "8-1-3": "minecraft:air:0",
        "8-1-4": "minecraft:air:0",
        "8-1-5": "minecraft:bed:11",
        "8-1-6": "futurepack:color_iron:7",
        "8-1-7": "minecraft:bed:11",
        "8-1-8": "minecraft:air:0",
        "8-1-9": "minecraft:air:0",
        "8-1-10": "minecraft:bed:11",
        "8-1-11": "futurepack:color_iron:7",
        "8-1-12": "minecraft:bed:11",
        "8-1-13": "minecraft:air:0",
        "8-1-14": "minecraft:air:0",
        "8-1-15": "minecraft:air:0",
        "8-1-16": "minecraft:bed:11",
        "8-1-17": "futurepack:color_iron:7",
        "8-2-0": "futurepack:color_iron:1",
        "8-2-1": "minecraft:air:0",
        "8-2-2": "minecraft:air:0",
        "8-2-3": "minecraft:air:0",
        "8-2-4": "minecraft:air:0",
        "8-2-5": "minecraft:air:0",
        "8-2-6": "futurepack:color_iron:1",
        "8-2-7": "minecraft:air:0",
        "8-2-8": "minecraft:air:0",
        "8-2-9": "minecraft:air:0",
        "8-2-10": "minecraft:air:0",
        "8-2-11": "futurepack:color_iron:15",
        "8-2-12": "minecraft:air:0",
        "8-2-13": "minecraft:air:0",
        "8-2-14": "minecraft:air:0",
        "8-2-15": "minecraft:air:0",
        "8-2-16": "minecraft:air:0",
        "8-2-17": "futurepack:color_iron:15",
        "8-3-0": "futurepack:color_iron:0",
        "8-3-1": "futurepack:wandrope:6",
        "8-3-2": "minecraft:air:0",
        "8-3-3": "minecraft:air:0",
        "8-3-4": "minecraft:air:0",
        "8-3-5": "futurepack:wandrope:6",
        "8-3-6": "futurepack:color_iron:0",
        "8-3-7": "futurepack:wandrope:6",
        "8-3-8": "minecraft:air:0",
        "8-3-9": "minecraft:air:0",
        "8-3-10": "futurepack:wandrope:6",
        "8-3-11": "futurepack:color_iron:0",
        "8-3-12": "futurepack:wandrope:6",
        "8-3-13": "minecraft:air:0",
        "8-3-14": "minecraft:air:0",
        "8-3-15": "minecraft:air:0",
        "8-3-16": "futurepack:wandrope:6",
        "8-3-17": "futurepack:color_iron:0",
        "8-4-0": "futurepack:color_iron:0",
        "8-4-1": "futurepack:color_iron:0",
        "8-4-2": "futurepack:color_iron:0",
        "8-4-3": "futurepack:color_iron:0",
        "8-4-4": "futurepack:color_iron:0",
        "8-4-5": "futurepack:color_iron:0",
        "8-4-6": "futurepack:color_iron:0",
        "8-4-7": "futurepack:color_iron:0",
        "8-4-8": "futurepack:color_iron:0",
        "8-4-9": "futurepack:color_iron:0",
        "8-4-10": "futurepack:color_iron:0",
        "8-4-11": "futurepack:color_iron:0",
        "8-4-12": "futurepack:color_iron:0",
        "8-4-13": "futurepack:color_iron:0",
        "8-4-14": "futurepack:color_iron:0",
        "8-4-15": "futurepack:color_iron:0",
        "8-4-16": "futurepack:color_iron:0",
        "8-4-17": "futurepack:color_iron:0",
        "9-0-0": "futurepack:color_iron:7",
        "9-0-1": "futurepack:color_iron:7",
        "9-0-2": "futurepack:color_iron:7",
        "9-0-3": "futurepack:color_iron:7",
        "9-0-4": "futurepack:color_iron:7",
        "9-0-5": "futurepack:color_iron:7",
        "9-0-6": "futurepack:color_iron:7",
        "9-0-7": "futurepack:color_iron:7",
        "9-0-8": "futurepack:color_iron:7",
        "9-0-9": "futurepack:color_iron:7",
        "9-0-10": "futurepack:color_iron:7",
        "9-0-11": "futurepack:color_iron:7",
        "9-0-12": "futurepack:color_iron:7",
        "9-0-13": "futurepack:color_iron:7",
        "9-0-14": "futurepack:color_iron:7",
        "9-0-15": "futurepack:color_iron:7",
        "9-0-16": "futurepack:color_iron:7",
        "9-0-17": "futurepack:color_iron:7",
        "9-1-0": "futurepack:color_iron:7",
        "9-1-1": "minecraft:bed:9",
        "9-1-2": "minecraft:air:0",
        "9-1-3": "minecraft:air:0",
        "9-1-4": "minecraft:air:0",
        "9-1-5": "minecraft:bed:9",
        "9-1-6": "futurepack:color_iron:7",
        "9-1-7": "minecraft:bed:9",
        "9-1-8": "minecraft:air:0",
        "9-1-9": "minecraft:air:0",
        "9-1-10": "minecraft:bed:9",
        "9-1-11": "futurepack:color_iron:7",
        "9-1-12": "minecraft:bed:9",
        "9-1-13": "minecraft:air:0",
        "9-1-14": "minecraft:air:0",
        "9-1-15": "minecraft:air:0",
        "9-1-16": "minecraft:bed:9",
        "9-1-17": "futurepack:color_iron:7",
        "9-2-0": "futurepack:color_iron:15",
        "9-2-1": "minecraft:air:0",
        "9-2-2": "minecraft:air:0",
        "9-2-3": "minecraft:air:0",
        "9-2-4": "minecraft:air:0",
        "9-2-5": "minecraft:air:0",
        "9-2-6": "futurepack:color_iron:15",
        "9-2-7": "minecraft:air:0",
        "9-2-8": "minecraft:air:0",
        "9-2-9": "minecraft:air:0",
        "9-2-10": "minecraft:air:0",
        "9-2-11": "futurepack:color_iron:1",
        "9-2-12": "minecraft:air:0",
        "9-2-13": "minecraft:air:0",
        "9-2-14": "minecraft:air:0",
        "9-2-15": "minecraft:air:0",
        "9-2-16": "minecraft:air:0",
        "9-2-17": "futurepack:color_iron:1",
        "9-3-0": "futurepack:color_iron:0",
        "9-3-1": "futurepack:wandrope:6",
        "9-3-2": "minecraft:air:0",
        "9-3-3": "minecraft:air:0",
        "9-3-4": "minecraft:air:0",
        "9-3-5": "futurepack:wandrope:6",
        "9-3-6": "futurepack:color_iron:0",
        "9-3-7": "futurepack:wandrope:6",
        "9-3-8": "minecraft:air:0",
        "9-3-9": "minecraft:air:0",
        "9-3-10": "futurepack:wandrope:6",
        "9-3-11": "futurepack:color_iron:0",
        "9-3-12": "futurepack:wandrope:6",
        "9-3-13": "minecraft:air:0",
        "9-3-14": "minecraft:air:0",
        "9-3-15": "minecraft:air:0",
        "9-3-16": "futurepack:wandrope:6",
        "9-3-17": "futurepack:color_iron:0",
        "9-4-0": "futurepack:color_iron:0",
        "9-4-1": "futurepack:color_iron:0",
        "9-4-2": "futurepack:color_iron:0",
        "9-4-3": "futurepack:color_iron:0",
        "9-4-4": "futurepack:color_iron:0",
        "9-4-5": "futurepack:color_iron:0",
        "9-4-6": "futurepack:color_iron:0",
        "9-4-7": "futurepack:color_iron:0",
        "9-4-8": "futurepack:color_iron:0",
        "9-4-9": "futurepack:color_iron:0",
        "9-4-10": "futurepack:color_iron:0",
        "9-4-11": "futurepack:color_iron:0",
        "9-4-12": "futurepack:color_iron:0",
        "9-4-13": "futurepack:color_iron:0",
        "9-4-14": "futurepack:color_iron:0",
        "9-4-15": "futurepack:color_iron:0",
        "9-4-16": "futurepack:color_iron:0",
        "9-4-17": "futurepack:color_iron:0",
        "10-0-0": "futurepack:color_iron:7",
        "10-0-1": "futurepack:color_iron:7",
        "10-0-2": "futurepack:color_iron:7",
        "10-0-3": "futurepack:color_iron:7",
        "10-0-4": "futurepack:color_iron:7",
        "10-0-5": "futurepack:color_iron:7",
        "10-0-6": "futurepack:color_iron:7",
        "10-0-7": "futurepack:color_iron:7",
        "10-0-8": "futurepack:color_iron:7",
        "10-0-9": "futurepack:color_iron:7",
        "10-0-10": "futurepack:color_iron:7",
        "10-0-11": "futurepack:color_iron:7",
        "10-0-12": "futurepack:color_iron:7",
        "10-0-13": "futurepack:color_iron:7",
        "10-0-14": "futurepack:color_iron:7",
        "10-0-15": "futurepack:color_iron:7",
        "10-0-16": "futurepack:color_iron:7",
        "10-0-17": "futurepack:color_iron:7",
        "10-1-0": "futurepack:color_iron:7",
        "10-1-1": "minecraft:bed:1",
        "10-1-2": "minecraft:air:0",
        "10-1-3": "minecraft:air:0",
        "10-1-4": "minecraft:air:0",
        "10-1-5": "minecraft:bed:1",
        "10-1-6": "futurepack:color_iron:7",
        "10-1-7": "minecraft:bed:1",
        "10-1-8": "minecraft:air:0",
        "10-1-9": "minecraft:air:0",
        "10-1-10": "minecraft:bed:1",
        "10-1-11": "futurepack:color_iron:7",
        "10-1-12": "minecraft:bed:1",
        "10-1-13": "minecraft:air:0",
        "10-1-14": "minecraft:air:0",
        "10-1-15": "minecraft:air:0",
        "10-1-16": "minecraft:bed:1",
        "10-1-17": "futurepack:color_iron:7",
        "10-2-0": "futurepack:color_iron:1",
        "10-2-1": "minecraft:air:0",
        "10-2-2": "minecraft:air:0",
        "10-2-3": "minecraft:air:0",
        "10-2-4": "minecraft:air:0",
        "10-2-5": "minecraft:air:0",
        "10-2-6": "futurepack:color_iron:1",
        "10-2-7": "minecraft:air:0",
        "10-2-8": "minecraft:air:0",
        "10-2-9": "minecraft:air:0",
        "10-2-10": "minecraft:air:0",
        "10-2-11": "futurepack:color_iron:15",
        "10-2-12": "minecraft:air:0",
        "10-2-13": "minecraft:air:0",
        "10-2-14": "minecraft:air:0",
        "10-2-15": "minecraft:air:0",
        "10-2-16": "minecraft:air:0",
        "10-2-17": "futurepack:color_iron:15",
        "10-3-0": "futurepack:color_iron:0",
        "10-3-1": "futurepack:wandrope:6",
        "10-3-2": "minecraft:air:0",
        "10-3-3": "minecraft:air:0",
        "10-3-4": "minecraft:air:0",
        "10-3-5": "futurepack:wandrope:6",
        "10-3-6": "futurepack:color_iron:0",
        "10-3-7": "futurepack:wandrope:6",
        "10-3-8": "minecraft:air:0",
        "10-3-9": "minecraft:air:0",
        "10-3-10": "futurepack:wandrope:6",
        "10-3-11": "futurepack:color_iron:0",
        "10-3-12": "futurepack:wandrope:6",
        "10-3-13": "minecraft:air:0",
        "10-3-14": "minecraft:air:0",
        "10-3-15": "minecraft:air:0",
        "10-3-16": "futurepack:wandrope:6",
        "10-3-17": "futurepack:color_iron:0",
        "10-4-0": "futurepack:color_iron:0",
        "10-4-1": "futurepack:color_iron:0",
        "10-4-2": "futurepack:color_iron:0",
        "10-4-3": "futurepack:color_iron:0",
        "10-4-4": "futurepack:color_plasma_on:0",
        "10-4-5": "futurepack:color_iron:0",
        "10-4-6": "futurepack:color_iron:0",
        "10-4-7": "futurepack:color_iron:0",
        "10-4-8": "futurepack:color_iron:0",
        "10-4-9": "futurepack:color_iron:0",
        "10-4-10": "futurepack:color_iron:0",
        "10-4-11": "futurepack:color_iron:0",
        "10-4-12": "futurepack:color_iron:0",
        "10-4-13": "futurepack:color_plasma_on:0",
        "10-4-14": "futurepack:color_iron:0",
        "10-4-15": "futurepack:color_iron:0",
        "10-4-16": "futurepack:color_iron:0",
        "10-4-17": "futurepack:color_iron:0",
        "11-0-0": "futurepack:color_iron:7",
        "11-0-1": "futurepack:color_iron:7",
        "11-0-2": "futurepack:color_iron:7",
        "11-0-3": "futurepack:color_iron:7",
        "11-0-4": "futurepack:color_iron:7",
        "11-0-5": "futurepack:color_iron:7",
        "11-0-6": "futurepack:color_iron:7",
        "11-0-7": "futurepack:color_iron:7",
        "11-0-8": "futurepack:color_iron:7",
        "11-0-9": "futurepack:color_iron:7",
        "11-0-10": "futurepack:color_iron:7",
        "11-0-11": "futurepack:color_iron:7",
        "11-0-12": "futurepack:color_iron:7",
        "11-0-13": "futurepack:color_iron:7",
        "11-0-14": "futurepack:color_iron:7",
        "11-0-15": "futurepack:color_iron:7",
        "11-0-16": "futurepack:color_iron:7",
        "11-0-17": "futurepack:color_iron:7",
        "11-1-0": "futurepack:color_iron:7",
        "11-1-1": "futurepack:color_iron:7",
        "11-1-2": "minecraft:air:0",
        "11-1-3": "minecraft:air:0",
        "11-1-4": "minecraft:air:0",
        "11-1-5": "futurepack:color_iron:7",
        "11-1-6": "futurepack:color_iron:7",
        "11-1-7": "futurepack:color_iron:7",
        "11-1-8": "minecraft:air:0",
        "11-1-9": "minecraft:air:0",
        "11-1-10": "futurepack:color_iron:7",
        "11-1-11": "futurepack:color_iron:7",
        "11-1-12": "futurepack:color_iron:7",
        "11-1-13": "minecraft:air:0",
        "11-1-14": "minecraft:air:0",
        "11-1-15": "minecraft:air:0",
        "11-1-16": "futurepack:color_iron:7",
        "11-1-17": "futurepack:color_iron:7",
        "11-2-0": "futurepack:color_iron:15",
        "11-2-1": "futurepack:color_iron_fence:8",
        "11-2-2": "minecraft:air:0",
        "11-2-3": "minecraft:air:0",
        "11-2-4": "minecraft:air:0",
        "11-2-5": "futurepack:color_iron_fence:8",
        "11-2-6": "futurepack:color_iron:15",
        "11-2-7": "futurepack:color_iron_fence:8",
        "11-2-8": "minecraft:air:0",
        "11-2-9": "minecraft:air:0",
        "11-2-10": "futurepack:color_iron_fence:8",
        "11-2-11": "futurepack:color_iron:1",
        "11-2-12": "futurepack:color_iron_fence:8",
        "11-2-13": "minecraft:air:0",
        "11-2-14": "minecraft:air:0",
        "11-2-15": "minecraft:air:0",
        "11-2-16": "futurepack:color_iron_fence:8",
        "11-2-17": "futurepack:color_iron:1",
        "11-3-0": "futurepack:color_iron:0",
        "11-3-1": "futurepack:color_iron_fence:8",
        "11-3-2": "minecraft:air:0",
        "11-3-3": "minecraft:air:0",
        "11-3-4": "minecraft:air:0",
        "11-3-5": "futurepack:color_iron_fence:8",
        "11-3-6": "futurepack:color_iron:0",
        "11-3-7": "futurepack:color_iron_fence:8",
        "11-3-8": "minecraft:air:0",
        "11-3-9": "minecraft:air:0",
        "11-3-10": "futurepack:color_iron_fence:8",
        "11-3-11": "futurepack:color_iron:0",
        "11-3-12": "futurepack:color_iron_fence:8",
        "11-3-13": "minecraft:air:0",
        "11-3-14": "minecraft:air:0",
        "11-3-15": "minecraft:air:0",
        "11-3-16": "futurepack:color_iron_fence:8",
        "11-3-17": "futurepack:color_iron:0",
        "11-4-0": "futurepack:color_iron:0",
        "11-4-1": "futurepack:color_iron:0",
        "11-4-2": "futurepack:color_iron:0",
        "11-4-3": "futurepack:color_iron:0",
        "11-4-4": "futurepack:color_iron:0",
        "11-4-5": "futurepack:color_iron:0",
        "11-4-6": "futurepack:color_iron:0",
        "11-4-7": "futurepack:color_iron:0",
        "11-4-8": "futurepack:color_iron:0",
        "11-4-9": "futurepack:color_iron:0",
        "11-4-10": "futurepack:color_iron:0",
        "11-4-11": "futurepack:color_iron:0",
        "11-4-12": "futurepack:color_iron:0",
        "11-4-13": "futurepack:color_iron:0",
        "11-4-14": "futurepack:color_iron:0",
        "11-4-15": "futurepack:color_iron:0",
        "11-4-16": "futurepack:color_iron:0",
        "11-4-17": "futurepack:color_iron:0",
        "12-0-0": "futurepack:color_iron:7",
        "12-0-1": "futurepack:color_iron:7",
        "12-0-2": "futurepack:color_iron:7",
        "12-0-3": "futurepack:color_iron:7",
        "12-0-4": "futurepack:color_iron:7",
        "12-0-5": "futurepack:color_iron:7",
        "12-0-6": "futurepack:color_iron:7",
        "12-0-7": "futurepack:color_iron:7",
        "12-0-8": "futurepack:color_iron:7",
        "12-0-9": "futurepack:color_iron:7",
        "12-0-10": "futurepack:color_iron:7",
        "12-0-11": "futurepack:color_iron:7",
        "12-0-12": "futurepack:color_iron:7",
        "12-0-13": "futurepack:color_iron:7",
        "12-0-14": "futurepack:color_iron:7",
        "12-0-15": "futurepack:color_iron:7",
        "12-0-16": "futurepack:color_iron:7",
        "12-0-17": "futurepack:color_iron:7",
        "12-1-0": "minecraft:air:0",
        "12-1-1": "minecraft:air:0",
        "12-1-2": "minecraft:air:0",
        "12-1-3": "minecraft:air:0",
        "12-1-4": "minecraft:air:0",
        "12-1-5": "minecraft:air:0",
        "12-1-6": "minecraft:air:0",
        "12-1-7": "minecraft:air:0",
        "12-1-8": "minecraft:air:0",
        "12-1-9": "minecraft:air:0",
        "12-1-10": "minecraft:air:0",
        "12-1-11": "minecraft:air:0",
        "12-1-12": "minecraft:air:0",
        "12-1-13": "minecraft:air:0",
        "12-1-14": "minecraft:air:0",
        "12-1-15": "minecraft:air:0",
        "12-1-16": "minecraft:air:0",
        "12-1-17": "minecraft:air:0",
        "12-2-0": "minecraft:air:0",
        "12-2-1": "minecraft:air:0",
        "12-2-2": "minecraft:air:0",
        "12-2-3": "minecraft:air:0",
        "12-2-4": "minecraft:air:0",
        "12-2-5": "minecraft:air:0",
        "12-2-6": "minecraft:air:0",
        "12-2-7": "minecraft:air:0",
        "12-2-8": "minecraft:air:0",
        "12-2-9": "minecraft:air:0",
        "12-2-10": "minecraft:air:0",
        "12-2-11": "minecraft:air:0",
        "12-2-12": "minecraft:air:0",
        "12-2-13": "minecraft:air:0",
        "12-2-14": "minecraft:air:0",
        "12-2-15": "minecraft:air:0",
        "12-2-16": "minecraft:air:0",
        "12-2-17": "minecraft:air:0",
        "12-3-0": "minecraft:air:0",
        "12-3-1": "minecraft:air:0",
        "12-3-2": "minecraft:air:0",
        "12-3-3": "minecraft:air:0",
        "12-3-4": "minecraft:air:0",
        "12-3-5": "minecraft:air:0",
        "12-3-6": "minecraft:air:0",
        "12-3-7": "minecraft:air:0",
        "12-3-8": "minecraft:air:0",
        "12-3-9": "minecraft:air:0",
        "12-3-10": "minecraft:air:0",
        "12-3-11": "minecraft:air:0",
        "12-3-12": "minecraft:air:0",
        "12-3-13": "minecraft:air:0",
        "12-3-14": "minecraft:air:0",
        "12-3-15": "minecraft:air:0",
        "12-3-16": "minecraft:air:0",
        "12-3-17": "minecraft:air:0",
        "12-4-0": "futurepack:color_iron:0",
        "12-4-1": "futurepack:color_iron:0",
        "12-4-2": "futurepack:color_iron:0",
        "12-4-3": "futurepack:color_iron:0",
        "12-4-4": "futurepack:color_iron:0",
        "12-4-5": "futurepack:color_iron:0",
        "12-4-6": "futurepack:color_iron:0",
        "12-4-7": "futurepack:color_iron:0",
        "12-4-8": "futurepack:color_iron:0",
        "12-4-9": "futurepack:color_iron:0",
        "12-4-10": "futurepack:color_iron:0",
        "12-4-11": "futurepack:color_iron:0",
        "12-4-12": "futurepack:color_iron:0",
        "12-4-13": "futurepack:color_iron:0",
        "12-4-14": "futurepack:color_iron:0",
        "12-4-15": "futurepack:color_iron:0",
        "12-4-16": "futurepack:color_iron:0",
        "12-4-17": "futurepack:color_iron:0",
        "13-0-0": "futurepack:color_iron:7",
        "13-0-1": "futurepack:color_iron:7",
        "13-0-2": "futurepack:color_iron:7",
        "13-0-3": "futurepack:color_iron:7",
        "13-0-4": "futurepack:color_iron:7",
        "13-0-5": "futurepack:color_iron:7",
        "13-0-6": "futurepack:color_iron:7",
        "13-0-7": "futurepack:color_iron:7",
        "13-0-8": "futurepack:color_iron:7",
        "13-0-9": "futurepack:color_iron:7",
        "13-0-10": "futurepack:color_iron:7",
        "13-0-11": "futurepack:color_iron:7",
        "13-0-12": "futurepack:color_iron:7",
        "13-0-13": "futurepack:color_iron:7",
        "13-0-14": "futurepack:color_iron:7",
        "13-0-15": "futurepack:color_iron:7",
        "13-0-16": "futurepack:color_iron:7",
        "13-0-17": "futurepack:color_iron:7",
        "13-1-0": "minecraft:air:0",
        "13-1-1": "minecraft:air:0",
        "13-1-2": "minecraft:air:0",
        "13-1-3": "minecraft:air:0",
        "13-1-4": "minecraft:air:0",
        "13-1-5": "minecraft:air:0",
        "13-1-6": "minecraft:air:0",
        "13-1-7": "minecraft:air:0",
        "13-1-8": "minecraft:air:0",
        "13-1-9": "minecraft:air:0",
        "13-1-10": "minecraft:air:0",
        "13-1-11": "minecraft:air:0",
        "13-1-12": "minecraft:air:0",
        "13-1-13": "minecraft:air:0",
        "13-1-14": "minecraft:air:0",
        "13-1-15": "minecraft:air:0",
        "13-1-16": "minecraft:air:0",
        "13-1-17": "minecraft:air:0",
        "13-2-0": "minecraft:air:0",
        "13-2-1": "minecraft:air:0",
        "13-2-2": "minecraft:air:0",
        "13-2-3": "minecraft:air:0",
        "13-2-4": "minecraft:air:0",
        "13-2-5": "minecraft:air:0",
        "13-2-6": "minecraft:air:0",
        "13-2-7": "minecraft:air:0",
        "13-2-8": "minecraft:air:0",
        "13-2-9": "minecraft:air:0",
        "13-2-10": "minecraft:air:0",
        "13-2-11": "minecraft:air:0",
        "13-2-12": "minecraft:air:0",
        "13-2-13": "minecraft:air:0",
        "13-2-14": "minecraft:air:0",
        "13-2-15": "minecraft:air:0",
        "13-2-16": "minecraft:air:0",
        "13-2-17": "minecraft:air:0",
        "13-3-0": "minecraft:air:0",
        "13-3-1": "minecraft:air:0",
        "13-3-2": "minecraft:air:0",
        "13-3-3": "minecraft:air:0",
        "13-3-4": "minecraft:air:0",
        "13-3-5": "minecraft:air:0",
        "13-3-6": "minecraft:air:0",
        "13-3-7": "minecraft:air:0",
        "13-3-8": "minecraft:air:0",
        "13-3-9": "minecraft:air:0",
        "13-3-10": "minecraft:air:0",
        "13-3-11": "minecraft:air:0",
        "13-3-12": "minecraft:air:0",
        "13-3-13": "minecraft:air:0",
        "13-3-14": "minecraft:air:0",
        "13-3-15": "minecraft:air:0",
        "13-3-16": "minecraft:air:0",
        "13-3-17": "minecraft:air:0",
        "13-4-0": "futurepack:color_iron:0",
        "13-4-1": "futurepack:color_plasma_on:0",
        "13-4-2": "futurepack:color_iron:0",
        "13-4-3": "futurepack:color_iron:0",
        "13-4-4": "futurepack:color_plasma_on:0",
        "13-4-5": "futurepack:color_iron:0",
        "13-4-6": "futurepack:color_iron:0",
        "13-4-7": "futurepack:color_plasma_on:0",
        "13-4-8": "futurepack:color_iron:0",
        "13-4-9": "futurepack:color_iron:0",
        "13-4-10": "futurepack:color_plasma_on:0",
        "13-4-11": "futurepack:color_iron:0",
        "13-4-12": "futurepack:color_iron:0",
        "13-4-13": "futurepack:color_plasma_on:0",
        "13-4-14": "futurepack:color_iron:0",
        "13-4-15": "futurepack:color_iron:0",
        "13-4-16": "futurepack:color_plasma_on:0",
        "13-4-17": "futurepack:color_iron:0",
        "14-0-0": "futurepack:color_iron:7",
        "14-0-1": "futurepack:color_iron:7",
        "14-0-2": "futurepack:color_iron:7",
        "14-0-3": "futurepack:color_iron:7",
        "14-0-4": "futurepack:color_iron:7",
        "14-0-5": "futurepack:color_iron:7",
        "14-0-6": "futurepack:color_iron:7",
        "14-0-7": "futurepack:color_iron:7",
        "14-0-8": "futurepack:color_iron:7",
        "14-0-9": "futurepack:color_iron:7",
        "14-0-10": "futurepack:color_iron:7",
        "14-0-11": "futurepack:color_iron:7",
        "14-0-12": "futurepack:color_iron:7",
        "14-0-13": "futurepack:color_iron:7",
        "14-0-14": "futurepack:color_iron:7",
        "14-0-15": "futurepack:color_iron:7",
        "14-0-16": "futurepack:color_iron:7",
        "14-0-17": "futurepack:color_iron:7",
        "14-1-0": "minecraft:air:0",
        "14-1-1": "minecraft:air:0",
        "14-1-2": "minecraft:air:0",
        "14-1-3": "minecraft:air:0",
        "14-1-4": "minecraft:air:0",
        "14-1-5": "minecraft:air:0",
        "14-1-6": "minecraft:air:0",
        "14-1-7": "minecraft:air:0",
        "14-1-8": "minecraft:air:0",
        "14-1-9": "minecraft:air:0",
        "14-1-10": "minecraft:air:0",
        "14-1-11": "minecraft:air:0",
        "14-1-12": "minecraft:air:0",
        "14-1-13": "minecraft:air:0",
        "14-1-14": "minecraft:air:0",
        "14-1-15": "minecraft:air:0",
        "14-1-16": "minecraft:air:0",
        "14-1-17": "minecraft:air:0",
        "14-2-0": "minecraft:air:0",
        "14-2-1": "minecraft:air:0",
        "14-2-2": "minecraft:air:0",
        "14-2-3": "minecraft:air:0",
        "14-2-4": "minecraft:air:0",
        "14-2-5": "minecraft:air:0",
        "14-2-6": "minecraft:air:0",
        "14-2-7": "minecraft:air:0",
        "14-2-8": "minecraft:air:0",
        "14-2-9": "minecraft:air:0",
        "14-2-10": "minecraft:air:0",
        "14-2-11": "minecraft:air:0",
        "14-2-12": "minecraft:air:0",
        "14-2-13": "minecraft:air:0",
        "14-2-14": "minecraft:air:0",
        "14-2-15": "minecraft:air:0",
        "14-2-16": "minecraft:air:0",
        "14-2-17": "minecraft:air:0",
        "14-3-0": "minecraft:air:0",
        "14-3-1": "minecraft:air:0",
        "14-3-2": "minecraft:air:0",
        "14-3-3": "minecraft:air:0",
        "14-3-4": "minecraft:air:0",
        "14-3-5": "minecraft:air:0",
        "14-3-6": "minecraft:air:0",
        "14-3-7": "minecraft:air:0",
        "14-3-8": "minecraft:air:0",
        "14-3-9": "minecraft:air:0",
        "14-3-10": "minecraft:air:0",
        "14-3-11": "minecraft:air:0",
        "14-3-12": "minecraft:air:0",
        "14-3-13": "minecraft:air:0",
        "14-3-14": "minecraft:air:0",
        "14-3-15": "minecraft:air:0",
        "14-3-16": "minecraft:air:0",
        "14-3-17": "minecraft:air:0",
        "14-4-0": "futurepack:color_iron:0",
        "14-4-1": "futurepack:color_iron:0",
        "14-4-2": "futurepack:color_iron:0",
        "14-4-3": "futurepack:color_iron:0",
        "14-4-4": "futurepack:color_iron:0",
        "14-4-5": "futurepack:color_iron:0",
        "14-4-6": "futurepack:color_iron:0",
        "14-4-7": "futurepack:color_iron:0",
        "14-4-8": "futurepack:color_iron:0",
        "14-4-9": "futurepack:color_iron:0",
        "14-4-10": "futurepack:color_iron:0",
        "14-4-11": "futurepack:color_iron:0",
        "14-4-12": "futurepack:color_iron:0",
        "14-4-13": "futurepack:color_iron:0",
        "14-4-14": "futurepack:color_iron:0",
        "14-4-15": "futurepack:color_iron:0",
        "14-4-16": "futurepack:color_iron:0",
        "14-4-17": "futurepack:color_iron:0",
        "15-0-0": "futurepack:color_iron:7",
        "15-0-1": "futurepack:color_iron:7",
        "15-0-2": "futurepack:color_iron:7",
        "15-0-3": "futurepack:color_iron:7",
        "15-0-4": "futurepack:color_iron:7",
        "15-0-5": "futurepack:color_iron:7",
        "15-0-6": "futurepack:color_iron:7",
        "15-0-7": "futurepack:color_iron:7",
        "15-0-8": "futurepack:color_iron:7",
        "15-0-9": "futurepack:color_iron:7",
        "15-0-10": "futurepack:color_iron:7",
        "15-0-11": "futurepack:color_iron:7",
        "15-0-12": "futurepack:color_iron:7",
        "15-0-13": "futurepack:color_iron:7",
        "15-0-14": "futurepack:color_iron:7",
        "15-0-15": "futurepack:color_iron:7",
        "15-0-16": "futurepack:color_iron:7",
        "15-0-17": "futurepack:color_iron:7",
        "15-1-0": "futurepack:color_iron:7",
        "15-1-1": "minecraft:air:0",
        "15-1-2": "minecraft:air:0",
        "15-1-3": "minecraft:air:0",
        "15-1-4": "minecraft:air:0",
        "15-1-5": "minecraft:air:0",
        "15-1-6": "minecraft:air:0",
        "15-1-7": "minecraft:air:0",
        "15-1-8": "minecraft:air:0",
        "15-1-9": "minecraft:air:0",
        "15-1-10": "minecraft:air:0",
        "15-1-11": "minecraft:air:0",
        "15-1-12": "minecraft:air:0",
        "15-1-13": "minecraft:air:0",
        "15-1-14": "minecraft:air:0",
        "15-1-15": "minecraft:air:0",
        "15-1-16": "minecraft:air:0",
        "15-1-17": "futurepack:color_iron:7",
        "15-2-0": "futurepack:color_iron:15",
        "15-2-1": "minecraft:air:0",
        "15-2-2": "minecraft:air:0",
        "15-2-3": "minecraft:air:0",
        "15-2-4": "minecraft:air:0",
        "15-2-5": "minecraft:air:0",
        "15-2-6": "minecraft:air:0",
        "15-2-7": "minecraft:air:0",
        "15-2-8": "minecraft:air:0",
        "15-2-9": "minecraft:air:0",
        "15-2-10": "minecraft:air:0",
        "15-2-11": "minecraft:air:0",
        "15-2-12": "minecraft:air:0",
        "15-2-13": "minecraft:air:0",
        "15-2-14": "minecraft:air:0",
        "15-2-15": "minecraft:air:0",
        "15-2-16": "minecraft:air:0",
        "15-2-17": "futurepack:color_iron:1",
        "15-3-0": "futurepack:color_iron:0",
        "15-3-1": "minecraft:air:0",
        "15-3-2": "minecraft:air:0",
        "15-3-3": "minecraft:air:0",
        "15-3-4": "minecraft:air:0",
        "15-3-5": "minecraft:air:0",
        "15-3-6": "minecraft:air:0",
        "15-3-7": "minecraft:air:0",
        "15-3-8": "minecraft:air:0",
        "15-3-9": "minecraft:air:0",
        "15-3-10": "minecraft:air:0",
        "15-3-11": "minecraft:air:0",
        "15-3-12": "minecraft:air:0",
        "15-3-13": "minecraft:air:0",
        "15-3-14": "minecraft:air:0",
        "15-3-15": "minecraft:air:0",
        "15-3-16": "minecraft:air:0",
        "15-3-17": "futurepack:color_iron:0",
        "15-4-0": "futurepack:color_iron:0",
        "15-4-1": "futurepack:color_iron:0",
        "15-4-2": "futurepack:color_iron:0",
        "15-4-3": "futurepack:color_iron:0",
        "15-4-4": "futurepack:color_iron:0",
        "15-4-5": "futurepack:color_iron:0",
        "15-4-6": "futurepack:color_iron:0",
        "15-4-7": "futurepack:color_iron:0",
        "15-4-8": "futurepack:color_iron:0",
        "15-4-9": "futurepack:color_iron:0",
        "15-4-10": "futurepack:color_iron:0",
        "15-4-11": "futurepack:color_iron:0",
        "15-4-12": "futurepack:color_iron:0",
        "15-4-13": "futurepack:color_iron:0",
        "15-4-14": "futurepack:color_iron:0",
        "15-4-15": "futurepack:color_iron:0",
        "15-4-16": "futurepack:color_iron:0",
        "15-4-17": "futurepack:color_iron:0",
        "16-0-1": "futurepack:color_iron:7",
        "16-0-2": "futurepack:color_iron:7",
        "16-0-3": "futurepack:color_iron:7",
        "16-0-4": "futurepack:color_iron:7",
        "16-0-5": "futurepack:color_iron:7",
        "16-0-6": "futurepack:color_iron:7",
        "16-0-7": "futurepack:color_iron:7",
        "16-0-8": "futurepack:color_iron:7",
        "16-0-9": "futurepack:color_iron:7",
        "16-0-10": "futurepack:color_iron:7",
        "16-0-11": "futurepack:color_iron:7",
        "16-0-12": "futurepack:color_iron:7",
        "16-0-13": "futurepack:color_iron:7",
        "16-0-14": "futurepack:color_iron:7",
        "16-0-15": "futurepack:color_iron:7",
        "16-0-16": "futurepack:color_iron:7",
        "16-1-1": "futurepack:color_iron:7",
        "16-1-2": "minecraft:air:0",
        "16-1-3": "minecraft:air:0",
        "16-1-4": "minecraft:air:0",
        "16-1-5": "minecraft:air:0",
        "16-1-6": "futurepack:color_iron:7",
        "16-1-7": "minecraft:bed:0",
        "16-1-8": "minecraft:bed:8",
        "16-1-9": "minecraft:bed:10",
        "16-1-10": "minecraft:bed:2",
        "16-1-11": "futurepack:color_iron:7",
        "16-1-12": "minecraft:air:0",
        "16-1-13": "minecraft:air:0",
        "16-1-14": "minecraft:air:0",
        "16-1-15": "minecraft:air:0",
        "16-1-16": "futurepack:color_iron:7",
        "16-2-1": "futurepack:color_iron:1",
        "16-2-2": "minecraft:air:0",
        "16-2-3": "minecraft:air:0",
        "16-2-4": "minecraft:air:0",
        "16-2-5": "minecraft:air:0",
        "16-2-6": "futurepack:color_iron_fence:8",
        "16-2-7": "minecraft:air:0",
        "16-2-8": "minecraft:air:0",
        "16-2-9": "minecraft:air:0",
        "16-2-10": "minecraft:air:0",
        "16-2-11": "futurepack:color_iron_fence:8",
        "16-2-12": "minecraft:air:0",
        "16-2-13": "minecraft:air:0",
        "16-2-14": "minecraft:air:0",
        "16-2-15": "minecraft:air:0",
        "16-2-16": "futurepack:color_iron:15",
        "16-3-1": "futurepack:color_iron:0",
        "16-3-2": "minecraft:air:0",
        "16-3-3": "minecraft:air:0",
        "16-3-4": "minecraft:air:0",
        "16-3-5": "minecraft:air:0",
        "16-3-6": "futurepack:color_iron_fence:8",
        "16-3-7": "futurepack:wandrope:6",
        "16-3-8": "futurepack:wandrope:6",
        "16-3-9": "futurepack:wandrope:6",
        "16-3-10": "futurepack:wandrope:6",
        "16-3-11": "futurepack:color_iron_fence:8",
        "16-3-12": "minecraft:air:0",
        "16-3-13": "minecraft:air:0",
        "16-3-14": "minecraft:air:0",
        "16-3-15": "minecraft:air:0",
        "16-3-16": "futurepack:color_iron:0",
        "16-4-1": "futurepack:color_iron:0",
        "16-4-2": "futurepack:color_iron:0",
        "16-4-3": "futurepack:color_iron:0",
        "16-4-4": "futurepack:color_plasma_on:0",
        "16-4-5": "futurepack:color_iron:0",
        "16-4-6": "futurepack:color_iron:0",
        "16-4-7": "futurepack:color_iron:0",
        "16-4-8": "futurepack:color_iron:0",
        "16-4-9": "futurepack:color_iron:0",
        "16-4-10": "futurepack:color_iron:0",
        "16-4-11": "futurepack:color_iron:0",
        "16-4-12": "futurepack:color_iron:0",
        "16-4-13": "futurepack:color_plasma_on:0",
        "16-4-14": "futurepack:color_iron:0",
        "16-4-15": "futurepack:color_iron:0",
        "16-4-16": "futurepack:color_iron:0",
        "17-0-2": "futurepack:color_iron:7",
        "17-0-3": "futurepack:color_iron:7",
        "17-0-4": "futurepack:color_iron:7",
        "17-0-5": "futurepack:color_iron:7",
        "17-0-6": "futurepack:color_iron:7",
        "17-0-7": "futurepack:color_iron:7",
        "17-0-8": "futurepack:color_iron:7",
        "17-0-9": "futurepack:color_iron:7",
        "17-0-10": "futurepack:color_iron:7",
        "17-0-11": "futurepack:color_iron:7",
        "17-0-12": "futurepack:color_iron:7",
        "17-0-13": "futurepack:color_iron:7",
        "17-0-14": "futurepack:color_iron:7",
        "17-0-15": "futurepack:color_iron:7",
        "17-1-2": "futurepack:color_iron:7",
        "17-1-3": "minecraft:air:0",
        "17-1-4": "minecraft:air:0",
        "17-1-5": "minecraft:air:0",
        "17-1-6": "futurepack:color_iron:7",
        "17-1-7": "futurepack:color_iron:7",
        "17-1-8": "futurepack:color_iron:7",
        "17-1-9": "futurepack:color_iron:7",
        "17-1-10": "futurepack:color_iron:7",
        "17-1-11": "futurepack:color_iron:7",
        "17-1-12": "minecraft:air:0",
        "17-1-13": "minecraft:air:0",
        "17-1-14": "minecraft:air:0",
        "17-1-15": "futurepack:color_iron:7",
        "17-2-2": "futurepack:color_iron:15",
        "17-2-3": "minecraft:air:0",
        "17-2-4": "minecraft:air:0",
        "17-2-5": "minecraft:air:0",
        "17-2-6": "futurepack:color_iron:15",
        "17-2-7": "futurepack:color_iron:1",
        "17-2-8": "futurepack:color_iron:15",
        "17-2-9": "futurepack:color_iron:1",
        "17-2-10": "futurepack:color_iron:15",
        "17-2-11": "futurepack:color_iron:1",
        "17-2-12": "minecraft:air:0",
        "17-2-13": "minecraft:air:0",
        "17-2-14": "minecraft:air:0",
        "17-2-15": "futurepack:color_iron:1",
        "17-3-2": "futurepack:color_iron:0",
        "17-3-3": "minecraft:air:0",
        "17-3-4": "minecraft:air:0",
        "17-3-5": "minecraft:air:0",
        "17-3-6": "futurepack:color_iron:0",
        "17-3-7": "futurepack:color_iron:0",
        "17-3-8": "futurepack:color_iron:0",
        "17-3-9": "futurepack:color_iron:0",
        "17-3-10": "futurepack:color_iron:0",
        "17-3-11": "futurepack:color_iron:0",
        "17-3-12": "minecraft:air:0",
        "17-3-13": "minecraft:air:0",
        "17-3-14": "minecraft:air:0",
        "17-3-15": "futurepack:color_iron:0",
        "17-4-2": "futurepack:color_iron:0",
        "17-4-3": "futurepack:color_iron:0",
        "17-4-4": "futurepack:color_iron:0",
        "17-4-5": "futurepack:color_iron:0",
        "17-4-6": "futurepack:color_iron:0",
        "17-4-7": "futurepack:color_iron:0",
        "17-4-8": "futurepack:color_iron:0",
        "17-4-9": "futurepack:color_iron:0",
        "17-4-10": "futurepack:color_iron:0",
        "17-4-11": "futurepack:color_iron:0",
        "17-4-12": "futurepack:color_iron:0",
        "17-4-13": "futurepack:color_iron:0",
        "17-4-14": "futurepack:color_iron:0",
        "17-4-15": "futurepack:color_iron:0"
    },

    "inventorys": 
    [
        {"pos": "1-3-7", "loot": "futurepack:chests/repeat_chest_personal"},
        {"pos": "1-3-8", "loot": "futurepack:chests/repeat_chest"},
        {"pos": "1-3-9", "loot": "futurepack:chests/repeat_chest"},
        {"pos": "1-3-10", "loot": "futurepack:chests/repeat_chest_personal"},  
        
        {"pos": "7-3-1", "loot": "futurepack:chests/repeat_chest"},
        {"pos": "7-3-5", "loot": "futurepack:chests/repeat_chest"},
        {"pos": "7-3-7", "loot": "futurepack:chests/repeat_chest"},
        {"pos": "7-3-10", "loot": "futurepack:chests/repeat_chest"},       
        {"pos": "7-3-12", "loot": "futurepack:chests/repeat_chest"}, 
        {"pos": "7-3-16", "loot": "futurepack:chests/repeat_chest"},
        
        {"pos": "8-3-1", "loot": "futurepack:chests/repeat_chest_personal"},
        {"pos": "8-3-5", "loot": "futurepack:chests/repeat_chest_personal"},
        {"pos": "8-3-7", "loot": "futurepack:chests/repeat_chest_personal"},
        {"pos": "8-3-10", "loot": "futurepack:chests/repeat_chest_personal"},       
        {"pos": "8-3-12", "loot": "futurepack:chests/repeat_chest_personal"}, 
        {"pos": "8-3-16", "loot": "futurepack:chests/repeat_chest_personal"},

        {"pos": "9-3-1", "loot": "futurepack:chests/repeat_chest_personal"},
        {"pos": "9-3-5", "loot": "futurepack:chests/repeat_chest_personal"},
        {"pos": "9-3-7", "loot": "futurepack:chests/repeat_chest_personal"},
        {"pos": "9-3-10", "loot": "futurepack:chests/repeat_chest_personal"},       
        {"pos": "9-3-12", "loot": "futurepack:chests/repeat_chest_personal"}, 
        {"pos": "9-3-16", "loot": "futurepack:chests/repeat_chest_personal"},

        {"pos": "10-3-1", "loot": "futurepack:chests/repeat_chest"},
        {"pos": "10-3-5", "loot": "futurepack:chests/repeat_chest"},
        {"pos": "10-3-7", "loot": "futurepack:chests/repeat_chest"},
        {"pos": "10-3-10", "loot": "futurepack:chests/repeat_chest"},       
        {"pos": "10-3-12", "loot": "futurepack:chests/repeat_chest"}, 
        {"pos": "10-3-16", "loot": "futurepack:chests/repeat_chest"},

        {"pos": "16-3-7", "loot": "futurepack:chests/repeat_chest_personal"},
        {"pos": "16-3-8", "loot": "futurepack:chests/repeat_chest"},
        {"pos": "16-3-9", "loot": "futurepack:chests/repeat_chest"},
        {"pos": "16-3-10", "loot": "futurepack:chests/repeat_chest_personal"}
    ],

    "doors": 
    [
        {
            "facing": 4,
            "w": 1,
            "h": 3,
            "d": 3,
            "start": "0,1,3"
        },

        {
            "facing": 4,
            "w": 1,
            "h": 3,
            "d": 3,
            "start": "0,1,12"
        },

        {
            "facing": 2,
            "w": 3,
            "h": 3,
            "d": 1,
            "start": "3,1,0"
        },

        {
            "facing": 3,
            "w": 3,
            "h": 3,
            "d": 1,
            "start": "3,1,17"
        },

        {
            "facing": 2,
            "w": 3,
            "h": 3,
            "d": 1,
            "start": "12,1,0"
        },

        {
            "facing": 3,
            "w": 3,
            "h": 3,
            "d": 1,
            "start": "12,1,17"
        },

        {
            "facing": 5,
            "w": 1,
            "h": 3,
            "d": 3,
            "start": "17,1,3"
        },

        {
            "facing": 5,
            "w": 1,
            "h": 3,
            "d": 3,
            "start": "17,1,12"
        }
    ]
}