
{
	"replace": false,
	"values": [
		"#forge:dusts/aluminium",
		"#forge:dusts/bioterium",
		"#forge:dusts/copper",
		"#forge:dusts/glowtite",
		"#forge:dusts/gold",
		"#forge:dusts/iron",
		"#forge:dusts/magnet",
		"#forge:dusts/neon",
		"#forge:dusts/obsidian",
		"#forge:dusts/quantanium",
		"#forge:dusts/retium",
		"#forge:dusts/tin",
		"#forge:dusts/wakurium",
		"#forge:dusts/zinc"
	]
}
