{
  "config" : {
    "targets" : [ {
      "target" : {
        "tag" : "minecraft:base_stone_overworld",
        "predicate_type" : "minecraft:tag_match"
      },
      "state" : {
        "Name" : "futurepack:prismide_stone"
      }
    } ],
    "size" : 12,
    "discard_chance_on_air_exposure" : 0.0
  },
  "type" : "minecraft:ore"
}