{
  "config" : {
    "features" : [ {
      "feature" : "futurepack:tyros_tree_palirie_checked",
      "chance" : 0.833334
    }, {
      "feature" : "minecraft:fancy_oak_checked",
      "chance" : 0.05
    }, {
      "feature" : "minecraft:jungle_bush",
      "chance" : 0.05
    } ],
    "default" : "minecraft:patch_grass_jungle"
  },
  "type" : "minecraft:random_selector"
}