{
    "pools": 
    [
        {
            "name":"default",
            "rolls": 1,
            "entries": 
            [
			    {
                    "type": "loot_table",
                    "name": "futurepack:chests/random_chest",
                    "weight": 20
                },
				{
                    "type": "loot_table",
                    "name": "futurepack:chests/loots/common_tools",
                    "weight": 20
                },
				{
                    "type": "loot_table",
                    "name": "minecraft:chests/simple_dungeon",
                    "weight": 10
                },
				{
                    "type": "loot_table",
                    "name": "minecraft:chests/igloo_chest",
                    "weight": 20
                },
				{
				    "type": "empty",
                    "weight": 30
				}
            ]
        }
    ]
}