{
	"feature": "futurepack:ore_prismide_stone",
	"placement": [ 
		{
			"type": "minecraft:biome" 
		},
		{
	      "count": 10,
	      "type": "minecraft:count"
	    },
	    {
          "type" : "minecraft:in_square"
        },
		{
    	  "height" : {
            "min_inclusive" : {
              "above_bottom" : 0
            },
            "max_inclusive" : {
              "absolute" : 256
            },
            "type" : "minecraft:uniform"
          },
          "type" : "minecraft:height_range"
  	    }
	]
}
