{
  "feature" : "futurepack:trees_tyros_palirie",
  "placement" : [ {
    "type" : "minecraft:biome"
  }, {
    "type" : "minecraft:in_square"
  }, {
    "type" : "minecraft:heightmap",
    "heightmap" : "OCEAN_FLOOR_WG"
  }, {
    "count" : {
      "distribution" : [ {
        "data" : 3,
        "weight" : 9
      }, {
        "data" : 5,
        "weight" : 1
      } ],
      "type" : "minecraft:weighted_list"
    },
    "type" : "minecraft:count"
  } ]
}